1.1 Sampling bowl activity | Statistical Inference via Data Science
…
Observe the following in the histogram in Figure 1.6:

At the low end, one group removed 50 balls from the bowl with proportion red between 0.20 and 0.25.

At the high end, another group removed 50 balls from the bowl with proportion between 0.45 and 0.5 red.

However, the most frequently occurring proportions were between 0.30 and 0.35 red, right in the middle of the distribution.

The shape of this distribution is somewhat bell-shaped.

Let’s construct this same hand-drawn histogram in R using your data visualization skills that you honed in Chapter ??. We saved our 33 groups of friends’ results in the tactile_prop_red data frame included in the moderndive package. Run the following to display the first 10 of 33 rows:

tactile_prop_red

# A tibble: 33 x 4
   group            replicate red_balls prop_red
   <chr>                <int>     <int>    <dbl>
 1 Ilyas, Yohan             1        21     0.42
 2 Morgan, Terrance         2        17     0.34
 3 Martin, Thomas           3        21     0.42
 4 Clark, Frank             4        21     0.42
 5 Riddhi, Karina           5        18     0.36
 6 Andrew, Tyler            6        19     0.38
 7 Julia                    7        19     0.38
 8 Rachel, Lauren           8        11     0.22
 9 Daniel, Caroline         9        15     0.3 
10 Josh, Maeve             10        17     0.34
# … with 23 more rows
…
