1.3 Sampling framework | Statistical Inference via Data Science
…
Let’s now attach words and labels to the various sampling concepts we’ve seen so far by introducing some terminology and mathematical notation. While they may seem daunting at first, we’ll make sure to tie each of them to sampling bowl activities you performed earlier. Furthermore, throughout this book we’ll give you plenty of opportunity for practice, as the best method for mastering these terms is repetition.

The first set of terms and notation relate to populations:

A population is a collection of individuals or observations we are interested in. This is also commonly denoted as a study population. We mathematically denote the population’s size using upper-case \(N\).

A population parameter is some numerical summary about the population that is unknown but you wish you knew. For example, when this quantity is a mean like the average height of all Canadians, the population parameter of interest is the population mean.

A census is an exhaustive enumeration or counting of all \(N\) individuals in the population. We do this in order to compute the population parameter’s value exactly. Of note is that as the number \(N\) of individuals in our population increases, conducting a census gets more expensive (in terms of time, energy, and money).

So in our sampling activities, the population is the collection of \(N\) = 2400 identically sized red and white balls in the bowl shown in Figure 1.1. Recall that we also represented the bowl “virtually” in the data frame bowl:

bowl

# A tibble: 2,400 x 2
   ball_ID color
     <int> <chr>
 1       1 white
 2       2 white
 3       3 white
 4       4 red  
 5       5 white
 6       6 white
 7       7 red  
 8       8 white
 9       9 red  
10      10 white
# … with 2,390 more rows
…
As we’ll see in Section 1.4 on polls, in real-life sampling not only will the population size \(N\) be very large making a census expensive, but sometimes we won’t even know how big the population is! For now however, we press on with our next set of terms and notation.

The second set of terms and notation relate to samples:

Sampling is the act of collecting a sample from the population, which we generally only do when we can’t perform a census. We mathematically denote the sample size using lower case \(n\), as opposed to upper case \(N\) which denotes the population’s size. Typically the sample size \(n\) is much smaller than the population size \(N\). Thus sampling is a much cheaper alternative than performing a census.

A point estimate, also known as a sample statistic, is a summary statistic computed from a sample that estimates the unknown population parameter.

So previously we conducted sampling using a shovel with 50 slots to extract samples of size \(n\) = 50. To perform the virtual analog of this sampling, recall that we used the rep_sample_n() function as follows:

virtual_shovel <- bowl %>% 
  rep_sample_n(size = 50)
virtual_shovel

# A tibble: 50 x 3
# Groups:   replicate [1]
   replicate ball_ID color
       <int>   <int> <chr>
 1         1    1970 white
 2         1     842 red  
 3         1    2287 white
 4         1     599 white
 5         1     108 white
 6         1     846 red  
 7         1     390 red  
 8         1     344 white
 9         1     910 white
10         1    1485 white
# … with 40 more rows
…
