Chapter 10 Inference for Regression | Statistical Inference via Data Science
…
FIGURE 10.2: Example of observed value, fitted value, and residual.

Furthermore, we can automate the calculation of all \(n\) = 463 residuals by applying the get_regression_points() function to our saved regression model in score_model. Observe how the resulting values of residual are roughly equal to score - score_hat (there is potentially a slight difference due to rounding error).

# Fit regression model:
score_model <- lm(score ~ bty_avg, data = evals_ch5)
# Get regression points:
regression_points <- get_regression_points(score_model)
regression_points

# A tibble: 463 × 5
      ID score bty_avg score_hat residual
   <int> <dbl>   <dbl>     <dbl>    <dbl>
 1     1   4.7   5         4.214    0.486
 2     2   4.1   5         4.214   -0.114
 3     3   3.9   5         4.214   -0.314
 4     4   4.8   5         4.214    0.586
 5     5   4.6   3         4.08     0.52 
 6     6   4.3   3         4.08     0.22 
 7     7   2.8   3         4.08    -1.28 
 8     8   4.1   3.333     4.102   -0.002
 9     9   3.4   3.333     4.102   -0.702
10    10   4.5   3.167     4.091    0.409
# … with 453 more rows
…
FIGURE 10.3: Example of a clearly non-linear relationship.

10.3.3 Independence of residuals

The second condition is that the residuals must be Independent. In other words, the different observations in our data must be independent of one another.

For our UT Austin data, while there is data on 463 courses, these 463 courses were actually taught by 94 unique instructors. In other words, the same professor is often included more than once in our data. The original evals data frame that we used to construct the evals_ch5 data frame has a variable prof_ID, which is an anonymized identification variable for the professor:

evals %>% 
  select(ID, prof_ID, score, bty_avg)

# A tibble: 463 × 4
      ID prof_ID score bty_avg
   <int>   <int> <dbl>   <dbl>
 1     1       1   4.7   5    
 2     2       1   4.1   5    
 3     3       1   3.9   5    
 4     4       1   4.8   5    
 5     5       2   4.6   3    
 6     6       2   4.3   3    
 7     7       2   2.8   3    
 8     8       3   4.1   3.333
 9     9       3   3.4   3.333
10    10       4   4.5   3.167
# … with 453 more rows
…
generate() replicates by using bootstrap resampling with replacement from the original sample of 463 courses. We generate reps = 1000 replicates using type = "bootstrap".

calculate() the summary statistic of interest: the fitted slope \(b_1\).

Using this bootstrap distribution, we’ll construct the 95% confidence interval using the percentile method and (if appropriate) the standard error method as well. It is important to note in this case that the bootstrapping with replacement is done row-by-row. Thus, the original pairs of score and bty_avg values are always kept together, but different pairs of score and bty_avg values may be resampled multiple times. The resulting confidence interval will denote a range of plausible values for the unknown population slope \(\beta_1\) quantifying the relationship between teaching and “beauty” scores for all professors at UT Austin.

Let’s first construct the bootstrap distribution for the fitted slope \(b_1\):

bootstrap_distn_slope <- evals_ch5 %>% 
  specify(formula = score ~ bty_avg) %>%
  generate(reps = 1000, type = "bootstrap") %>% 
  calculate(stat = "slope")
bootstrap_distn_slope

# A tibble: 1,000 × 2
   replicate      stat
       <int>     <dbl>
 1         1 0.0651055
 2         2 0.0382313
 3         3 0.108056 
 4         4 0.0666601
 5         5 0.0715932
 6         6 0.0854565
 7         7 0.0624868
 8         8 0.0412859
 9         9 0.0796269
10        10 0.0761299
# … with 990 more rows
…
