Chapter 4 Data Importing and “Tidy” Data | Statistical Inference via Data Science
…
Second, an Excel .xlsx spreadsheet file. This format is based on Microsoft’s proprietary Excel software. As opposed to bare-bones .csv files, .xlsx Excel files contain a lot of meta-data (data about data). Recall we saw a previous example of meta-data in Section 3.4 when adding “group structure” meta-data to a data frame by using the group_by() verb. Some examples of Excel spreadsheet meta-data include the use of bold and italic fonts, colored cells, different column widths, and formula macros.

Third, a Google Sheets file, which is a “cloud” or online-based way to work with a spreadsheet. Google Sheets allows you to download your data in both comma separated values .csv and Excel .xlsx formats. One way to import Google Sheets data in R is to go to the Google Sheets menu bar -> File -> Download as -> Select “Microsoft Excel” or “Comma-separated values” and then load that data into R. A more advanced way to import Google Sheets data in R is by using the googlesheets package, a method we leave to a more advanced data science book.

We’ll cover two methods for importing .csv and .xlsx spreadsheet data in R: one using the console and the other using RStudio’s graphical user interface, abbreviated as “GUI.”

4.1.1 Using the console

First, let’s import a Comma Separated Values .csv file that exists on the internet. The .csv file dem_score.csv contains ratings of the level of democracy in different countries spanning 1952 to 1992 and is accessible at https://moderndive.com/data/dem_score.csv. Let’s use the read_csv() function from the readr  (Wickham and Hester 2021) package to read it off the web, import it into R, and save it in a data frame called dem_score.

library(readr)
dem_score <- read_csv("https://moderndive.com/data/dem_score.csv")
dem_score

# A tibble: 96 × 10
   country    `1952` `1957` `1962` `1967` `1972` `1977` `1982` `1987` `1992`
   <chr>       <dbl>  <dbl>  <dbl>  <dbl>  <dbl>  <dbl>  <dbl>  <dbl>  <dbl>
 1 Albania        -9     -9     -9     -9     -9     -9     -9     -9      5
 2 Argentina      -9     -1     -1     -9     -9     -9     -8      8      7
 3 Armenia        -9     -7     -7     -7     -7     -7     -7     -7      7
 4 Australia      10     10     10     10     10     10     10     10     10
 5 Austria        10     10     10     10     10     10     10     10     10
 6 Azerbaijan     -9     -7     -7     -7     -7     -7     -7     -7      1
 7 Belarus        -9     -7     -7     -7     -7     -7     -7     -7      7
 8 Belgium        10     10     10     10     10     10     10     10     10
 9 Bhutan        -10    -10    -10    -10    -10    -10    -10    -10    -10
10 Bolivia        -4     -3     -3     -4     -7     -7      8      9      9
# … with 86 more rows
…
You can also view examples of both pivot_longer() and pivot_wider() on the tidyverse.org webpage. There’s a nice example to check out the different functions available for data tidying and a case study using data from the World Health Organization on that webpage. Furthermore, each week the R4DS Online Learning Community posts a dataset in the weekly #TidyTuesday event that might serve as a nice place for you to find other data to explore and transform.

Learning check

(LC4.3) Take a look at the airline_safety data frame included in the fivethirtyeight data package. Run the following:

airline_safety

After reading the help file by running ?airline_safety, we see that airline_safety is a data frame containing information on different airline companies’ safety records. This data was originally reported on the data journalism website, FiveThirtyEight.com, in Nate Silver’s article, “Should Travelers Avoid Flying Airlines That Have Had Crashes in the Past?”. Let’s only consider the variables airlines and those relating to fatalities for simplicity:

airline_safety_smaller <- airline_safety %>% 
  select(airline, starts_with("fatalities"))
airline_safety_smaller

# A tibble: 56 × 3
   airline               fatalities_85_99 fatalities_00_14
   <chr>                            <int>            <int>
 1 Aer Lingus                           0                0
 2 Aeroflot                           128               88
 3 Aerolineas Argentinas                0                0
 4 Aeromexico                          64                0
 5 Air Canada                           0                0
 6 Air France                          79              337
 7 Air India                          329              158
 8 Air New Zealand                      0                7
 9 Alaska Airlines                      0               88
10 Alitalia                            50                0
# … with 46 more rows
…
