Chapter 5 Importing & Tidy Data | Statistical Inference via Data Science
…
An Excel .xlsx file. This format is based on Microsoft’s proprietary Excel software. As opposed to a bare-bones .csv files, .xlsx Excel files contain a lot of metadata, or put more simply, data about the data. Examples include the use of bold and italic fonts, colored cells, different column widths, and formula macros etc.

Google Sheets allows you to download your data in both comma separated values .csv and Excel .xlsx formats: Go to the Google Sheets menu bar -> File -> Download as -> Select “Microsoft Excel” or “Comma-separated values.”

We’ll cover two methods for importing data in R: one using the R console and the other using RStudio’s graphical interface.

5.1.1 Importing via the console

First, let’s import a Comma Separated Values (CSV) of data directly off the internet. The CSV file dem_score.csv accessible at https://moderndive.com/data/dem_score.csv contains ratings of the level of democracy in different countries spanning 1952 to 1992. Let’s use the read_csv() function from the readr package to read it off the web, import it into R, and save the data in a data frame called dem_score

library(readr)
dem_score <- read_csv("https://moderndive.com/data/dem_score.csv")
dem_score

# A tibble: 96 x 10
   country    `1952` `1957` `1962` `1967` `1972` `1977` `1982` `1987` `1992`
   <chr>       <dbl>  <dbl>  <dbl>  <dbl>  <dbl>  <dbl>  <dbl>  <dbl>  <dbl>
 1 Albania        -9     -9     -9     -9     -9     -9     -9     -9      5
 2 Argentina      -9     -1     -1     -9     -9     -9     -8      8      7
 3 Armenia        -9     -7     -7     -7     -7     -7     -7     -7      7
 4 Australia      10     10     10     10     10     10     10     10     10
 5 Austria        10     10     10     10     10     10     10     10     10
 6 Azerbaijan     -9     -7     -7     -7     -7     -7     -7     -7      1
 7 Belarus        -9     -7     -7     -7     -7     -7     -7     -7      7
 8 Belgium        10     10     10     10     10     10     10     10     10
 9 Bhutan        -10    -10    -10    -10    -10    -10    -10    -10    -10
10 Bolivia        -4     -3     -3     -4     -7     -7      8      9      9
# … with 86 more rows
…
After clicking on the “Import” button on the bottom right RStudio save this spreadsheet’s data in a data frame called dem_score and display its contents in the spreadsheet viewer. Furthermore on the bottom right you’ll see the code that read in your data in the console; you can copy and paste this code to reload your data again later automatically instead of repeating the above manual process.

5.2 Tidy data

Let’s now switch gears and learn about the concept of “tidy” data format. Let’s start with a motivating example. Let’s consider the drinks data frame included in the fivethirtyeight data. Run the

drinks

# A tibble: 193 x 5
   country      beer_servings spirit_servings wine_servings total_litres_of_pur…
   <chr>                <int>           <int>         <int>                <dbl>
 1 Afghanistan              0               0             0                  0  
 2 Albania                 89             132            54                  4.9
 3 Algeria                 25               0            14                  0.7
 4 Andorra                245             138           312                 12.4
 5 Angola                 217              57            45                  5.9
 6 Antigua & B…           102             128            45                  4.9
 7 Argentina              193              25           221                  8.3
 8 Armenia                 21             179            11                  3.8
 9 Australia              261              72           212                 10.4
10 Austria                279              75           191                  9.7
# … with 183 more rows
…
