Chapter 6 Multiple Regression | Statistical Inference via Data Science
…
6.3.2 Model selection using R-squared

At the end of the previous section in Figure 6.8 you compared an interaction model with a parallel slopes model, where both models attempted to explain \(y\) = the average math SAT score for various high schools in Massachusetts. In Tables 6.12 and 6.13, we observed that the interaction model was “more complex” in that the regression table had 6 rows versus the 4 rows of the parallel slopes model.

Most importantly however, when comparing the left and right-hand plots of Figure 6.8, we observed that the three lines corresponding to small, medium, and large high schools were not that different. Given this similarity, we stated it could be argued that the “simpler” parallel slopes model should be favored.

In this section, we’ll mimic the model selection we just performed using the qualitative “eyeball test”, but this time using a numerical and quantitative approach. Specifically, we’ll use the \(R^2\) summary statistic (pronounced “R-squared”), also called the “coefficient of determination”. But first, we must introduce one new concept: the variance of a numerical variable.

We’ve previously studied two summary statistics of the spread (or variation) of a numerical variable: the standard deviation when studying the normal distribution in A.2 and the interquartile range (IQR) when studying boxplots in Section 2.7.1. We now introduce a third summary statistic of spread: the variance. The variance is merely the standard deviation squared and it can be computed in R using the var() summary function within summarize(). If you would like to see the formula, see A.1.3.

Recall that to get: 1) the observed values \(y\), 2) the fitted values \(\widehat{y}\) from a regression model, and 3) the resulting residuals \(y - \widehat{y}\), we can apply the get_regression_points() function our saved model, in this case model_2_interaction:

get_regression_points(model_2_interaction) 

# A tibble: 332 × 6
      ID average_sat_math perc_disadvan size   average_sat_math_hat residual
   <int>            <dbl>         <dbl> <fct>                 <dbl>    <dbl>
 1     1              516          21.5 medium                 517.    -0.67
 2     2              514          22.7 large                  519.    -4.77
 3     3              534          14.6 large                  541.    -6.99
 4     4              581           6.3 large                  564.    17.2 
 5     5              592          10.3 large                  553.    39.2 
 6     6              576          10.3 large                  553.    23.2 
 7     7              504          25.6 large                  511.    -6.82
 8     8              505          15.2 large                  539.   -34.3 
 9     9              481          23.8 small                  525.   -43.5 
10    10              513          25.5 large                  511.     1.91
# … with 322 more rows
…
