8.4 Constructing confidence intervals | Statistical Inference via Data Science
…
FIGURE 8.18: Diagram of the specify() verb.

As shown in Figure 8.18, the specify()  function is used to choose which variables in a data frame will be the focus of our statistical inference. We do this by specifying the response argument. For example, in our pennies_sample data frame of the 50 pennies sampled from the bank, the variable of interest is year:

pennies_sample %>% 
  specify(response = year)

Response: year (numeric)
# A tibble: 50 x 1
    year
   <dbl>
 1  2002
 2  1986
 3  2017
 4  1988
 5  2008
 6  1983
 7  2008
 8  1996
 9  2004
10  2000
# … with 40 more rows
…
FIGURE 8.19: Diagram of generate() replicates.

After we specify() the variables of interest, we pipe the results into the generate() function to generate replicates. Figure 8.19 shows how this is combined with specify() to start the pipeline. In other words, repeat the resampling process a large number of times. Recall in Sections 8.2.2 and 8.2.3 we did this 35 and 1000 times.

The generate()  function’s first argument is reps, which sets the number of replicates we would like to generate. Since we want to resample the 50 pennies in pennies_sample with replacement 1000 times, we set reps = 1000. The second argument type determines the type of computer simulation we’d like to perform. We set this to type = "bootstrap" indicating that we want to perform bootstrap resampling. You’ll see different options for type in Chapter 9.

pennies_sample %>% 
  specify(response = year) %>% 
  generate(reps = 1000, type = "bootstrap")

Response: year (numeric)
# A tibble: 50,000 x 2
# Groups:   replicate [1,000]
   replicate  year
       <int> <dbl>
 1         1  1981
 2         1  1988
 3         1  2006
 4         1  2016
 5         1  2002
 6         1  1985
 7         1  1979
 8         1  2000
 9         1  2006
10         1  2016
# … with 49,990 more rows
…
FIGURE 8.20: Diagram of calculate() summary statistics.

After we generate() many replicates of bootstrap resampling with replacement, we next want to summarize each of the 1000 resamples of size 50 to a single sample statistic value. As seen in the diagram, the calculate()  function does this.

In our case, we want to calculate the mean year for each bootstrap resample of size 50. To do so, we set the stat argument to "mean". You can also set the stat argument to a variety of other common summary statistics, like "median", "sum", "sd" (standard deviation), and "prop" (proportion). To see a list of all possible summary statistics you can use, type ?calculate and read the help file.

Let’s save the result in a data frame called bootstrap_distribution and explore its contents:

bootstrap_distribution <- pennies_sample %>% 
  specify(response = year) %>% 
  generate(reps = 1000) %>% 
  calculate(stat = "mean")
bootstrap_distribution

# A tibble: 1,000 x 2
   replicate    stat
       <int>   <dbl>
 1         1 1995.7 
 2         2 1994.04
 3         3 1993.62
 4         4 1994.5 
 5         5 1994.08
 6         6 1993.6 
 7         7 1995.26
 8         8 1996.64
 9         9 1994.3 
10        10 1995.94
# … with 990 more rows
…
