8.5 Interpreting confidence intervals | Statistical Inference via Data Science
…
In this case, we know what the value of the population parameter is: we know that the population proportion \(p\) is 0.375. In other words, we know that 37.5% of the bowl’s balls are red.

As we stated in Subsection 7.3.3, the sampling bowl exercise doesn’t really reflect how sampling is done in real life, but rather was an idealized activity. In real life, we won’t know what the true value of the population parameter is, hence the need for estimation.

Let’s now construct confidence intervals for \(p\) using our 33 groups of friends’ samples from the bowl in Chapter 7. We’ll then see if the confidence intervals “captured” the true value of \(p\), which we know to be 37.5%. That is to say, “Did the net capture the fish?”.

8.5.1 Did the net capture the fish?

Recall that we had 33 groups of friends each take samples of size 50 from the bowl and then compute the sample proportion of red balls \(\widehat{p}\). This resulted in 33 such estimates of \(p\). Let’s focus on Ilyas and Yohan’s sample, which is saved in the bowl_sample_1 data frame in the moderndive package:

bowl_sample_1

# A tibble: 50 x 1
   color
   <chr>
 1 white
 2 white
 3 red  
 4 red  
 5 white
 6 white
 7 red  
 8 white
 9 white
10 white
# … with 40 more rows
…
First, we specify() the response variable of interest color:

bowl_sample_1 %>% 
  specify(response = color)

Error: A level of the response variable `color` needs to be specified for the `success`
argument in `specify()`.

Whoops! We need to define which event is of interest! red or white balls? Since we are interested in the proportion red, let’s set success to be "red":

bowl_sample_1 %>% 
  specify(response = color, success = "red")

Response: color (factor)
# A tibble: 50 x 1
   color
   <fct>
 1 white
 2 white
 3 red  
 4 red  
 5 white
 6 white
 7 red  
 8 white
 9 white
10 white
# … with 40 more rows

2. generate replicates

Second, we generate() 1000 replicates of bootstrap resampling with replacement from bowl_sample_1 by setting reps = 1000 and type = "bootstrap".

bowl_sample_1 %>% 
  specify(response = color, success = "red") %>% 
  generate(reps = 1000, type = "bootstrap")

Response: color (factor)
# A tibble: 50,000 x 2
# Groups:   replicate [1,000]
   replicate color
       <int> <fct>
 1         1 white
 2         1 white
 3         1 white
 4         1 white
 5         1 red  
 6         1 white
 7         1 white
 8         1 white
 9         1 white
10         1 red  
# … with 49,990 more rows

Observe that the resulting data frame has 50,000 rows. This is because we performed resampling of 50 balls with replacement 1000 times and thus 50,000 = 50 \(\cdot\) 1000. The variable replicate indicates which resample each row belongs to. So it has the value 1 50 times, the value 2 50 times, all the way through to the value 1000 50 times.

3. calculate summary statistics

Third, we summarize each of the 1000 resamples of size 50 with the proportion of successes. In other words, the proportion of the balls that are "red". We can set the summary statistic to be calculated as the proportion by setting the stat argument to be "prop". Let’s save the result as sample_1_bootstrap:

sample_1_bootstrap <- bowl_sample_1 %>% 
  specify(response = color, success = "red") %>% 
  generate(reps = 1000, type = "bootstrap") %>% 
  calculate(stat = "prop")
sample_1_bootstrap

# A tibble: 1,000 x 2
   replicate  stat
       <int> <dbl>
 1         1  0.32
 2         2  0.42
 3         3  0.44
 4         4  0.4 
 5         5  0.44
 6         6  0.52
 7         7  0.38
 8         8  0.44
 9         9  0.34
10        10  0.42
# … with 990 more rows
…
FIGURE 8.26: Bootstrap distribution.

Did Ilyas and Yohan’s net capture the fish? Did their 95% confidence interval for \(p\) based on their sample contain the true value of \(p\) of 0.375? Yes! 0.375 is between the endpoints of their confidence interval (0.3, 0.56).

However, will every 95% confidence interval for \(p\) capture this value? In other words, if we had a different sample of 50 balls and constructed a different confidence interval, would it necessarily contain \(p\) = 0.375 as well? Let’s see!

Let’s first take a different sample from the bowl, this time using the computer as we did in Chapter 7:

bowl_sample_2 <- bowl %>% rep_sample_n(size = 50)
bowl_sample_2

# A tibble: 50 x 3
# Groups:   replicate [1]
   replicate ball_ID color
       <int>   <int> <chr>
 1         1    1665 red  
 2         1    1312 red  
 3         1    2105 red  
 4         1     810 white
 5         1     189 white
 6         1    1429 white
 7         1    2294 red  
 8         1    1233 white
 9         1    1951 white
10         1    2061 white
# … with 40 more rows

Let’s reapply the same infer functions on bowl_sample_2 to generate a different 95% confidence interval for \(p\). First, we create the new bootstrap distribution and save the results in sample_2_bootstrap:

sample_2_bootstrap <- bowl_sample_2 %>% 
  specify(response = color, 
          success = "red") %>% 
  generate(reps = 1000, 
           type = "bootstrap") %>% 
  calculate(stat = "prop")
sample_2_bootstrap

# A tibble: 1,000 x 2
   replicate  stat
       <int> <dbl>
 1         1  0.48
 2         2  0.38
 3         3  0.32
 4         4  0.32
 5         5  0.34
 6         6  0.26
 7         7  0.3 
 8         8  0.36
 9         9  0.44
10        10  0.36
# … with 990 more rows
…
