8.7 Conclusion | Statistical Inference via Data Science
…
The left endpoint of the confidence interval lower_ci

The right endpoint of the confidence interval upper_ci

conf_ints <- tactile_prop_red %>% 
  rename(p_hat = prop_red) %>% 
  mutate(
    n = 50,
    SE = sqrt(p_hat * (1 - p_hat) / n),
    MoE = 1.96 * SE,
    lower_ci = p_hat - MoE,
    upper_ci = p_hat + MoE
  )

# A tibble: 33 x 9
   group    replicate red_balls p_hat     n        SE      MoE lower_ci upper_ci
   <chr>        <int>     <int> <dbl> <dbl>     <dbl>    <dbl>    <dbl>    <dbl>
 1 Ilyas, …         1        21  0.42    50 0.0697997 0.136807 0.283193 0.556807
 2 Morgan,…         2        17  0.34    50 0.0669925 0.131305 0.208695 0.471305
 3 Martin,…         3        21  0.42    50 0.0697997 0.136807 0.283193 0.556807
 4 Clark, …         4        21  0.42    50 0.0697997 0.136807 0.283193 0.556807
 5 Riddhi,…         5        18  0.36    50 0.0678823 0.133049 0.226951 0.493049
 6 Andrew,…         6        19  0.38    50 0.0686440 0.134542 0.245458 0.514542
 7 Julia            7        19  0.38    50 0.0686440 0.134542 0.245458 0.514542
 8 Rachel,…         8        11  0.22    50 0.0585833 0.114823 0.105177 0.334823
 9 Daniel,…         9        15  0.3     50 0.0648074 0.127023 0.172977 0.427023
10 Josh, M…        10        17  0.34    50 0.0669925 0.131305 0.208695 0.471305
# … with 23 more rows
…
