Chapter 8 Bootstrapping and Confidence Intervals | Statistical Inference via Data Science
…
FIGURE 8.2: 50 US pennies labelled.

The moderndive  package contains this data on our 50 sampled pennies in the pennies_sample data frame:

pennies_sample

# A tibble: 50 × 2
      ID  year
   <int> <dbl>
 1     1  2002
 2     2  1986
 3     3  2017
 4     4  1988
 5     5  2008
 6     6  1983
 7     7  2008
 8     8  1996
 9     9  2004
10    10  2000
# … with 40 more rows
…
FIGURE 8.10: Snapshot of shared spreadsheet of resampled pennies.

For your convenience, we’ve taken these 35 \(\cdot\) 50 = 1750 values and saved them in pennies_resamples, a “tidy” data frame included in the moderndive package. We saw what it means for a data frame to be “tidy” in Subsection 4.2.1.

pennies_resamples

# A tibble: 1,750 × 3
# Groups:   name [35]
   replicate name     year
       <int> <chr>   <dbl>
 1         1 Arianna  1988
 2         1 Arianna  2002
 3         1 Arianna  2015
 4         1 Arianna  1998
 5         1 Arianna  1979
 6         1 Arianna  1971
 7         1 Arianna  1971
 8         1 Arianna  2015
 9         1 Arianna  1988
10         1 Arianna  1979
# … with 1,740 more rows

What did each of our 35 friends obtain as the mean year? Once again, dplyr to the rescue! After grouping the rows by name, we summarize each group of 50 rows by their mean year:

resampled_means <- pennies_resamples %>% 
  group_by(name) %>% 
  summarize(mean_year = mean(year))
resampled_means

# A tibble: 35 × 2
   name      mean_year
   <chr>         <dbl>
 1 Arianna     1992.5 
 2 Artemis     1996.42
 3 Bea         1996.32
 4 Camryn      1996.9 
 5 Cassandra   1991.22
 6 Cindy       1995.48
 7 Claire      1995.52
 8 Dahlia      1998.48
 9 Dan         1993.86
10 Eindra      1993.56
# … with 25 more rows
…
virtual_shovel <- bowl %>% 
  rep_sample_n(size = 50)

Let’s modify this code to perform the resampling with replacement of the 50 slips of paper representing our original sample 50 pennies:

virtual_resample <- pennies_sample %>% 
  rep_sample_n(size = 50, replace = TRUE)

Observe how we explicitly set the replace argument to TRUE in order to tell rep_sample_n() that we would like to sample pennies  with replacement. Had we not set replace = TRUE, the function would’ve assumed the default value of FALSE and hence done resampling without replacement. Additionally, since we didn’t specify the number of replicates via the reps argument, the function assumes the default of one replicate reps = 1. Lastly, observe also that the size argument is set to match the original sample size of 50 pennies.

Let’s look at only the first 10 out of 50 rows of virtual_resample:

virtual_resample

# A tibble: 50 × 3
# Groups:   replicate [1]
   replicate    ID  year
       <int> <int> <dbl>
 1         1    37  1962
 2         1     1  2002
 3         1    45  1997
 4         1    28  2006
 5         1    50  2017
 6         1    10  2000
 7         1    16  2015
 8         1    47  1982
 9         1    23  1998
10         1    44  2015
# … with 40 more rows
…
As we saw when we did our tactile resampling exercise, the resulting mean year is different than the mean year of our 50 originally sampled pennies of 1995.44.

8.2.2 Virtually resampling 35 times

Let’s now perform the virtual analog of our 35 friends’ resampling. Using these results, we’ll be able to study the variability in the sample means from 35 resamples of size 50. Let’s first add a reps = 35 argument to rep_sample_n()  to indicate we would like 35 replicates. Thus, we want to repeat the resampling with the replacement of 50 pennies 35 times.

virtual_resamples <- pennies_sample %>% 
  rep_sample_n(size = 50, replace = TRUE, reps = 35)
virtual_resamples

# A tibble: 1,750 × 3
# Groups:   replicate [35]
   replicate    ID  year
       <int> <int> <dbl>
 1         1    21  1981
 2         1    34  1985
 3         1     4  1988
 4         1    11  1994
 5         1    26  1979
 6         1     8  1996
 7         1    19  1983
 8         1    21  1981
 9         1    49  2006
10         1     2  1986
# … with 1,740 more rows

The resulting virtual_resamples data frame has 35 \(\cdot\) 50 = 1750 rows corresponding to 35 resamples of 50 pennies. Let’s now compute the resulting 35 sample means using the same dplyr code as we did in the previous section, but this time adding a group_by(replicate):

virtual_resampled_means <- virtual_resamples %>% 
  group_by(replicate) %>% 
  summarize(mean_year = mean(year))
virtual_resampled_means

# A tibble: 35 × 2
   replicate mean_year
       <int>     <dbl>
 1         1   1995.58
 2         2   1999.74
 3         3   1993.7 
 4         4   1997.1 
 5         5   1999.42
 6         6   1995.12
 7         7   1994.94
 8         8   1997.78
 9         9   1991.26
10        10   1996.88
# … with 25 more rows
…
# Compute 1000 sample means
virtual_resampled_means <- virtual_resamples %>% 
  group_by(replicate) %>% 
  summarize(mean_year = mean(year))

However, in the interest of brevity, going forward let’s combine these two operations into a single chain of pipe (%>%) operators:

virtual_resampled_means <- pennies_sample %>% 
  rep_sample_n(size = 50, replace = TRUE, reps = 1000) %>% 
  group_by(replicate) %>% 
  summarize(mean_year = mean(year))
virtual_resampled_means

# A tibble: 1,000 × 2
   replicate mean_year
       <int>     <dbl>
 1         1   1992.6 
 2         2   1994.78
 3         3   1994.74
 4         4   1997.88
 5         5   1990   
 6         6   1999.48
 7         7   1990.26
 8         8   1993.2 
 9         9   1994.88
10        10   1996.3 
# … with 990 more rows
…
FIGURE 8.18: Diagram of the specify() verb.

As shown in Figure 8.18, the specify()  function is used to choose which variables in a data frame will be the focus of our statistical inference. We do this by specifying the response argument. For example, in our pennies_sample data frame of the 50 pennies sampled from the bank, the variable of interest is year:

pennies_sample %>% 
  specify(response = year)

Response: year (numeric)
# A tibble: 50 × 1
    year
   <dbl>
 1  2002
 2  1986
 3  2017
 4  1988
 5  2008
 6  1983
 7  2008
 8  1996
 9  2004
10  2000
# … with 40 more rows
…
FIGURE 8.19: Diagram of generate() replicates.

After we specify() the variables of interest, we pipe the results into the generate() function to generate replicates. Figure 8.19 shows how this is combined with specify() to start the pipeline. In other words, repeat the resampling process a large number of times. Recall in Sections 8.2.2 and 8.2.3 we did this 35 and 1000 times.

The generate()  function’s first argument is reps, which sets the number of replicates we would like to generate. Since we want to resample the 50 pennies in pennies_sample with replacement 1000 times, we set reps = 1000. The second argument type determines the type of computer simulation we’d like to perform. We set this to type = "bootstrap" indicating that we want to perform bootstrap resampling. You’ll see different options for type in Chapter 9.

pennies_sample %>% 
  specify(response = year) %>% 
  generate(reps = 1000, type = "bootstrap")

Response: year (numeric)
# A tibble: 50,000 × 2
# Groups:   replicate [1,000]
   replicate  year
       <int> <dbl>
 1         1  1981
 2         1  1988
 3         1  2006
 4         1  2016
 5         1  2002
 6         1  1985
 7         1  1979
 8         1  2000
 9         1  2006
10         1  2016
# … with 49,990 more rows
…
FIGURE 8.20: Diagram of calculate() summary statistics.

After we generate() many replicates of bootstrap resampling with replacement, we next want to summarize each of the 1000 resamples of size 50 to a single sample statistic value. As seen in the diagram, the calculate()  function does this.

In our case, we want to calculate the mean year for each bootstrap resample of size 50. To do so, we set the stat argument to "mean". You can also set the stat argument to a variety of other common summary statistics, like "median", "sum", "sd" (standard deviation), and "prop" (proportion). To see a list of all possible summary statistics you can use, type ?calculate and read the help file.

Let’s save the result in a data frame called bootstrap_distribution and explore its contents:

bootstrap_distribution <- pennies_sample %>% 
  specify(response = year) %>% 
  generate(reps = 1000) %>% 
  calculate(stat = "mean")
bootstrap_distribution

# A tibble: 1,000 × 2
   replicate    stat
       <int>   <dbl>
 1         1 1995.7 
 2         2 1994.04
 3         3 1993.62
 4         4 1994.5 
 5         5 1994.08
 6         6 1993.6 
 7         7 1995.26
 8         8 1996.64
 9         9 1994.3 
10        10 1995.94
# … with 990 more rows
…
In this case, we know what the value of the population parameter is: we know that the population proportion \(p\) is 0.375. In other words, we know that 37.5% of the bowl’s balls are red.

As we stated in Subsection 7.3.3, the sampling bowl exercise doesn’t really reflect how sampling is done in real life, but rather was an idealized activity. In real life, we won’t know what the true value of the population parameter is, hence the need for estimation.

Let’s now construct confidence intervals for \(p\) using our 33 groups of friends’ samples from the bowl in Chapter 7. We’ll then see if the confidence intervals “captured” the true value of \(p\), which we know to be 37.5%. That is to say, “Did the net capture the fish?”.

8.5.1 Did the net capture the fish?

Recall that we had 33 groups of friends each take samples of size 50 from the bowl and then compute the sample proportion of red balls \(\widehat{p}\). This resulted in 33 such estimates of \(p\). Let’s focus on Ilyas and Yohan’s sample, which is saved in the bowl_sample_1 data frame in the moderndive package:

bowl_sample_1

# A tibble: 50 × 1
   color
   <chr>
 1 white
 2 white
 3 red  
 4 red  
 5 white
 6 white
 7 red  
 8 white
 9 white
10 white
# … with 40 more rows
…
First, we specify() the response variable of interest color:

bowl_sample_1 %>% 
  specify(response = color)

Error: A level of the response variable `color` needs to be specified for the `success`
argument in `specify()`.

Whoops! We need to define which event is of interest! red or white balls? Since we are interested in the proportion red, let’s set success to be "red":

bowl_sample_1 %>% 
  specify(response = color, success = "red")

Response: color (factor)
# A tibble: 50 × 1
   color
   <fct>
 1 white
 2 white
 3 red  
 4 red  
 5 white
 6 white
 7 red  
 8 white
 9 white
10 white
# … with 40 more rows

2. generate replicates

Second, we generate() 1000 replicates of bootstrap resampling with replacement from bowl_sample_1 by setting reps = 1000 and type = "bootstrap".

bowl_sample_1 %>% 
  specify(response = color, success = "red") %>% 
  generate(reps = 1000, type = "bootstrap")

Response: color (factor)
# A tibble: 50,000 × 2
# Groups:   replicate [1,000]
   replicate color
       <int> <fct>
 1         1 white
 2         1 white
 3         1 white
 4         1 white
 5         1 red  
 6         1 white
 7         1 white
 8         1 white
 9         1 white
10         1 red  
# … with 49,990 more rows

Observe that the resulting data frame has 50,000 rows. This is because we performed resampling of 50 balls with replacement 1000 times and thus 50,000 = 50 \(\cdot\) 1000. The variable replicate indicates which resample each row belongs to. So it has the value 1 50 times, the value 2 50 times, all the way through to the value 1000 50 times.

3. calculate summary statistics

Third, we summarize each of the 1000 resamples of size 50 with the proportion of successes. In other words, the proportion of the balls that are "red". We can set the summary statistic to be calculated as the proportion by setting the stat argument to be "prop". Let’s save the result as sample_1_bootstrap:

sample_1_bootstrap <- bowl_sample_1 %>% 
  specify(response = color, success = "red") %>% 
  generate(reps = 1000, type = "bootstrap") %>% 
  calculate(stat = "prop")
sample_1_bootstrap

# A tibble: 1,000 × 2
   replicate  stat
       <int> <dbl>
 1         1  0.32
 2         2  0.42
 3         3  0.44
 4         4  0.4 
 5         5  0.44
 6         6  0.52
 7         7  0.38
 8         8  0.44
 9         9  0.34
10        10  0.42
# … with 990 more rows
…
FIGURE 8.26: Bootstrap distribution.

Did Ilyas and Yohan’s net capture the fish? Did their 95% confidence interval for \(p\) based on their sample contain the true value of \(p\) of 0.375? Yes! 0.375 is between the endpoints of their confidence interval (0.3, 0.56).

However, will every 95% confidence interval for \(p\) capture this value? In other words, if we had a different sample of 50 balls and constructed a different confidence interval, would it necessarily contain \(p\) = 0.375 as well? Let’s see!

Let’s first take a different sample from the bowl, this time using the computer as we did in Chapter 7:

bowl_sample_2 <- bowl %>% rep_sample_n(size = 50)
bowl_sample_2

# A tibble: 50 × 3
# Groups:   replicate [1]
   replicate ball_ID color
       <int>   <int> <chr>
 1         1    1665 red  
 2         1    1312 red  
 3         1    2105 red  
 4         1     810 white
 5         1     189 white
 6         1    1429 white
 7         1    2294 red  
 8         1    1233 white
 9         1    1951 white
10         1    2061 white
# … with 40 more rows

Let’s reapply the same infer functions on bowl_sample_2 to generate a different 95% confidence interval for \(p\). First, we create the new bootstrap distribution and save the results in sample_2_bootstrap:

sample_2_bootstrap <- bowl_sample_2 %>% 
  specify(response = color, 
          success = "red") %>% 
  generate(reps = 1000, 
           type = "bootstrap") %>% 
  calculate(stat = "prop")
sample_2_bootstrap

# A tibble: 1,000 × 2
   replicate  stat
       <int> <dbl>
 1         1  0.48
 2         2  0.38
 3         3  0.32
 4         4  0.32
 5         5  0.34
 6         6  0.26
 7         7  0.3 
 8         8  0.36
 9         9  0.44
10        10  0.36
# … with 990 more rows
…
Recall that we visualized these results in Figure 7.12, where we compared the sampling distributions for \(\widehat{p}\) based on samples of size \(n\) equal 25, 50, and 100. We also quantified the sampling variation of these sampling distributions using their standard deviation, which has that special name: the standard error. So as the sample size increases, the standard error decreases.

In fact, the standard error is another related factor in determining confidence interval width. We’ll explore this fact in Subsection 8.7.2 when we discuss theory-based methods for constructing confidence intervals using mathematical formulas. Such methods are an alternative to the computer-based methods we’ve been using so far.

8.6 Case study: Is yawning contagious?

Let’s apply our knowledge of confidence intervals to answer the question: “Is yawning contagious?”. If you see someone else yawn, are you more likely to yawn? In an episode of the US show Mythbusters, the hosts conducted an experiment to answer this question. The episode is available to view in the United States on the Discovery Network website here and more information about the episode is also available on IMDb.

8.6.1 Mythbusters study data

Fifty adult participants who thought they were being considered for an appearance on the show were interviewed by a show recruiter. In the interview, the recruiter either yawned or did not. Participants then sat by themselves in a large van and were asked to wait. While in the van, the Mythbusters team watched the participants using a hidden camera to see if they yawned. The data frame containing the results of their experiment is available in the mythbusters_yawn data frame included in the moderndive package: 

mythbusters_yawn

# A tibble: 50 × 3
    subj group   yawn 
   <int> <chr>   <chr>
 1     1 seed    yes  
 2     2 control yes  
 3     3 seed    no   
 4     4 seed    yes  
 5     5 seed    no   
 6     6 control no   
 7     7 seed    yes  
 8     8 control no   
 9     9 control no   
10    10 seed    no   
# … with 40 more rows
…
mythbusters_yawn %>% 
  specify(formula = yawn ~ group)

Error: A level of the response variable `yawn` needs to be 
specified for the `success` argument in `specify()`.

Alas, we got an error message similar to the one from Subsection 8.5.1: infer is telling us that one of the levels of the categorical variable yawn needs to be defined as the success. Recall that we define success to be the event of interest we are trying to count and compute proportions of. Are we interested in those participants who "yes" yawned or those who "no" didn’t yawn? This isn’t clear to R or someone just picking up the code and results for the first time, so we need to set the success argument to "yes" as follows to improve the transparency of the code:

mythbusters_yawn %>% 
  specify(formula = yawn ~ group, success = "yes")

Response: yawn (factor)
Explanatory: group (factor)
# A tibble: 50 × 2
   yawn  group  
   <fct> <fct>  
 1 yes   seed   
 2 yes   control
 3 no    seed   
 4 yes   seed   
 5 no    seed   
 6 no    control
 7 yes   seed   
 8 no    control
 9 no    control
10 no    seed   
# … with 40 more rows
…
We can see that in this bootstrap sample generated from the first six rows of mythbusters_yawn, we have some rows repeated. The same is true when we perform the generate() step in infer as done in what follows. Using this fact, we generate 1000 replicates, or, in other words, we bootstrap resample the 50 participants with replacement 1000 times.

mythbusters_yawn %>% 
  specify(formula = yawn ~ group, success = "yes") %>% 
  generate(reps = 1000, type = "bootstrap")

Response: yawn (factor)
Explanatory: group (factor)
# A tibble: 50,000 × 3
# Groups:   replicate [1,000]
   replicate yawn  group  
       <int> <fct> <fct>  
 1         1 yes   seed   
 2         1 yes   control
 3         1 no    control
 4         1 no    control
 5         1 yes   seed   
 6         1 yes   seed   
 7         1 yes   seed   
 8         1 yes   seed   
 9         1 no    seed   
10         1 yes   seed   
# … with 49,990 more rows
…
Error: Statistic is based on a difference; specify the `order` in which to
subtract the levels of the explanatory variable.

We see another error here. We need to specify the order of the subtraction. Is it \(\widehat{p}_{seed} - \widehat{p}_{control}\) or \(\widehat{p}_{control} - \widehat{p}_{seed}\). We specify it to be \(\widehat{p}_{seed} - \widehat{p}_{control}\) by setting order = c("seed", "control"). Note that you could’ve also set order = c("control", "seed"). As we stated earlier, the order of the subtraction does not matter, so long as you stay consistent throughout your analysis and tailor your interpretations accordingly.

Let’s save the output in a data frame bootstrap_distribution_yawning:

bootstrap_distribution_yawning <- mythbusters_yawn %>% 
  specify(formula = yawn ~ group, success = "yes") %>% 
  generate(reps = 1000, type = "bootstrap") %>% 
  calculate(stat = "diff in props", order = c("seed", "control"))
bootstrap_distribution_yawning

# A tibble: 1,000 × 2
   replicate        stat
       <int>       <dbl>
 1         1  0.0357143 
 2         2  0.229167  
 3         3  0.00952381
 4         4  0.0106952 
 5         5  0.00483092
 6         6  0.00793651
 7         7 -0.0845588 
 8         8 -0.00466200
 9         9  0.164686  
10        10  0.124777  
# … with 990 more rows
…
