Chapter 8 Sampling | Statistical Inference via Data Science
…
So while in Section 8.1 we performed a “tactile” simulation of sampling using an actual bowl and an actual shovel with our hands, in this section we’ll perform a “virtual” simulation using a virtual bowl and a virtual shovel with our computers.

8.2.1 Using shovel once

Let’s start by perfoming the virtual analogue of the tactile sampling simulation we performed in 8.1. We first need a virtual analogue of the bowl seen in Figure 8.1. To this end, we created a data frame called bowl whose rows correspond exactly with the contents of the actual bowl; we’ve included this data frame in the moderndive package.

bowl

# A tibble: 2,400 x 2
   ball_ID color
     <int> <chr>
 1       1 white
 2       2 white
 3       3 white
 4       4 red  
 5       5 white
 6       6 white
 7       7 red  
 8       8 white
 9       9 red  
10      10 white
# … with 2,390 more rows
…
1

1499

red

The ball_ID variable identifies which of balls from bowl are included in our sample of 50 balls and color denotes it’s color. However what does the replicate variable indicate? In virtual_shovel’s case, replicate is equal to 1 for all 50 rows. This is telling us that these 50 rows correspond to a first repeated/replicated use of the shovel, in other words our first sample. We’ll see below when we “virtually” take 33 samples below, replicate will take values between 1 and 33. Before we do this, let’s compute the proportion of balls in our virtual sample of size 50 that are red. We’ll be using the dplyr data wrangling verbs you learned in Chapter 4. Let’s breakdown the steps individually:

First, for each of our 50 sampled balls, identify if it is red or not using the boolean algebra. For every row where color == "red", the boolean TRUE is returned and for every row where color is not equal to "red", the boolean FALSE is returned. Let’s create a new boolean variable is_red using the mutate() function from Section 4.5:

virtual_shovel %>% 
  mutate(is_red = color == "red")

# A tibble: 50 x 4
# Groups:   replicate [1]
   replicate ball_ID color is_red
       <int>   <int> <chr> <lgl> 
 1         1    1500 white FALSE 
 2         1    1767 red   TRUE  
 3         1    1035 white FALSE 
 4         1     245 white FALSE 
 5         1    1121 white FALSE 
 6         1    1828 white FALSE 
 7         1     721 white FALSE 
 8         1    1729 red   TRUE  
 9         1     770 white FALSE 
10         1    1499 red   TRUE  
# … with 40 more rows
…
