D Learning Check Solutions | Statistical Inference via Data Science
…
6.79

Solution: The SD shows within-month variability of temperatures. The largest spread for a given month was in February with the second highest in April. This would lead us to expect different temperatures on different days in those months compared to months like July and August that have the smallest standard deviations.

(LC3.6) What code would be required to get the mean and standard deviation wind speed for each day in 2023 for NYC?

Solution:

weather |>
  group_by(year, month, day) |>
  summarize(mean_ws = mean(wind_speed, na.rm = TRUE),
            sd_ws = sd(wind_speed, na.rm = TRUE),
            .groups = "drop")

# A tibble: 364 × 5
    year month   day  mean_ws   sd_ws
   <int> <int> <int>    <dbl>   <dbl>
 1  2023     1     1  8.39110 4.56829
 2  2023     1     2  5.45022 2.49590
 3  2023     1     3  4.76295 3.29083
 4  2023     1     4  5.30637 2.84225
 5  2023     1     5  5.57809 2.93970
 6  2023     1     6  6.24937 3.76913
 7  2023     1     7 10.8525  2.81767
 8  2023     1     8  8.34316 3.37724
 9  2023     1     9  8.26324 4.19758
10  2023     1    10  8.49308 2.53893
# ℹ 354 more rows
…
Let’s now break this down step-by-step. To compute the available seat miles for a given flight, we need the distance variable from the flights data frame and the seats variable from the planes data frame, necessitating a join by the key variable tailnum as illustrated in Figure 3.7. To keep the resulting data frame easy to view, we’ll select() only these two variables and carrier:

flights |>
  inner_join(planes, by = "tailnum") |>
  select(carrier, seats, distance)

# A tibble: 424,068 × 3
   carrier seats distance
   <chr>   <int>    <dbl>
 1 UA        149     2500
 2 DL        222      760
 3 B6        200     1576
 4 B6         20      636
 5 UA        149      488
 6 AA        162     1085
 7 B6        246     1576
 8 AA        162      719
 9 UA        178     1400
10 NK        190     1065
# ℹ 424,058 more rows

Now for each flight we can compute the available seat miles ASM by multiplying the number of seats by the distance via a mutate():

flights |>
  inner_join(planes, by = "tailnum") |>
  select(carrier, seats, distance) |>
  # Added:
  mutate(ASM = seats * distance)

# A tibble: 424,068 × 4
   carrier seats distance    ASM
   <chr>   <int>    <dbl>  <dbl>
 1 UA        149     2500 372500
 2 DL        222      760 168720
 3 B6        200     1576 315200
 4 B6         20      636  12720
 5 UA        149      488  72712
 6 AA        162     1085 175770
 7 B6        246     1576 387696
 8 AA        162      719 116478
 9 UA        178     1400 249200
10 NK        190     1065 202350
# ℹ 424,058 more rows
…
(LC4.2) What makes “tidy” datasets useful for organizing data?

Solution: Tidy datasets are an organized way of viewing data. This format is required for the ggplot2 and dplyr packages for data visualization and wrangling. They provide a consistent, standardized structure so that functions work seamlessly together across packages. This uniform format makes it easier to wrangle, visualize, and analyze data without reshaping it repeatedly.

(LC4.3) Take a look the airline_safety data frame included in the fivethirtyeight data. Run the following:

airline_safety

After reading the help file by running ?airline_safety, we see that airline_safety is a data frame containing information on different airlines companies’ safety records. This data was originally reported on the data journalism website FiveThirtyEight.com in Nate Silver’s article “Should Travelers Avoid Flying Airlines That Have Had Crashes in the Past?”. Let’s ignore the incl_reg_subsidiaries and avail_seat_km_per_week variables for simplicity:

airline_safety_smaller <- airline_safety |>
  select(-c(incl_reg_subsidiaries, avail_seat_km_per_week))
airline_safety_smaller

# A tibble: 56 × 7
   airline incidents_85_99 fatal_accidents_85_99 fatalities_85_99 incidents_00_14 fatal_accidents_00_14 fatalities_00_14
   <chr>             <int>                 <int>            <int>           <int>                 <int>            <int>
 1 Aer Li…               2                     0                0               0                     0                0
 2 Aerofl…              76                    14              128               6                     1               88
 3 Aeroli…               6                     0                0               1                     0                0
 4 Aerome…               3                     1               64               5                     0                0
 5 Air Ca…               2                     0                0               2                     0                0
 6 Air Fr…              14                     4               79               6                     2              337
 7 Air In…               2                     1              329               4                     1              158
 8 Air Ne…               3                     0                0               5                     1                7
 9 Alaska…               5                     0                0               5                     1               88
10 Alital…               7                     2               50               4                     0                0
# ℹ 46 more rows
This data frame is not in “tidy” format. How would you convert this data frame to be in “tidy” format, in particular so that it has a variable incident_type_years indicating the incident type/year and a variable count of the counts?

Solution:

This can been done using the pivot_longer() function from the tidyr package:

airline_safety_smaller_tidy <- airline_safety_smaller |>
  pivot_longer(
    names_to = "incident_type_years",
    values_to = "count",
    cols = -airline
  )
airline_safety_smaller_tidy

# A tibble: 336 × 3
   airline    incident_type_years   count
   <chr>      <chr>                 <int>
 1 Aer Lingus incidents_85_99           2
 2 Aer Lingus fatal_accidents_85_99     0
 3 Aer Lingus fatalities_85_99          0
 4 Aer Lingus incidents_00_14           0
 5 Aer Lingus fatal_accidents_00_14     0
 6 Aer Lingus fatalities_00_14          0
 7 Aeroflot   incidents_85_99          76
 8 Aeroflot   fatal_accidents_85_99    14
 9 Aeroflot   fatalities_85_99        128
10 Aeroflot   incidents_00_14           6
# ℹ 326 more rows

If you look at the resulting airline_safety_smaller_tidy data frame in the spreadsheet viewer, you’ll see that the variable incident_type_years has 6 possible values: "incidents_85_99", "fatal_accidents_85_99", "fatalities_85_99",  "incidents_00_14", "fatal_accidents_00_14", "fatalities_00_14" corresponding to the 6 columns of airline_safety_smaller we tidied.

Note that prior to tidyr version 1.0.0 released to CRAN in September 2019, this could also have been done using the gather() function from the tidyr package. The gather() function still works, but its further development has stopped in favor of pivot_longer().

airline_safety_smaller_tidy <- airline_safety_smaller |>
  gather(key = incident_type_years, value = count, -airline)
airline_safety_smaller_tidy

# A tibble: 336 × 3
   airline               incident_type_years count
   <chr>                 <chr>               <int>
 1 Aer Lingus            incidents_85_99         2
 2 Aeroflot              incidents_85_99        76
 3 Aerolineas Argentinas incidents_85_99         6
 4 Aeromexico            incidents_85_99         3
 5 Air Canada            incidents_85_99         2
 6 Air France            incidents_85_99        14
 7 Air India             incidents_85_99         2
 8 Air New Zealand       incidents_85_99         3
 9 Alaska Airlines       incidents_85_99         5
10 Alitalia              incidents_85_99         7
# ℹ 326 more rows
…
Solution: Running the following in the console:

dem_score_tidy <- dem_score |>
  pivot_longer(
    names_to = "year", values_to = "democracy_score",
    cols = -country
  )

Let’s now compare the dem_score and dem_score_tidy. dem_score has democracy score information for each year in columns, whereas in dem_score_tidy there are explicit variables year and democracy_score. While both representations of the data contain the same information, we can only use ggplot() to create plots using the dem_score_tidy data frame.

dem_score

# A tibble: 96 × 10
   country    `1952` `1957` `1962` `1967` `1972` `1977` `1982` `1987` `1992`
   <chr>       <dbl>  <dbl>  <dbl>  <dbl>  <dbl>  <dbl>  <dbl>  <dbl>  <dbl>
 1 Albania        -9     -9     -9     -9     -9     -9     -9     -9      5
 2 Argentina      -9     -1     -1     -9     -9     -9     -8      8      7
 3 Armenia        -9     -7     -7     -7     -7     -7     -7     -7      7
 4 Australia      10     10     10     10     10     10     10     10     10
 5 Austria        10     10     10     10     10     10     10     10     10
 6 Azerbaijan     -9     -7     -7     -7     -7     -7     -7     -7      1
 7 Belarus        -9     -7     -7     -7     -7     -7     -7     -7      7
 8 Belgium        10     10     10     10     10     10     10     10     10
 9 Bhutan        -10    -10    -10    -10    -10    -10    -10    -10    -10
10 Bolivia        -4     -3     -3     -4     -7     -7      8      9      9
# ℹ 86 more rows

dem_score_tidy

# A tibble: 864 × 3
   country   year  democracy_score
   <chr>     <chr>           <dbl>
 1 Albania   1952               -9
 2 Albania   1957               -9
 3 Albania   1962               -9
 4 Albania   1967               -9
 5 Albania   1972               -9
 6 Albania   1977               -9
 7 Albania   1982               -9
 8 Albania   1987               -9
 9 Albania   1992                5
10 Argentina 1952               -9
# ℹ 854 more rows
…
Solution: The code is similar:

life_expectancy <- read_csv("https://moderndive.com/data/le_mess.csv")
life_expectancy_tidy <- life_expectancy |>
  pivot_longer(
    names_to = "year",
    values_to = "life_expectancy",
    cols = -country
  )

We observe the same structure with respect to year in life_expectancy vs life_expectancy_tidy as we did in dem_score vs dem_score_tidy:

life_expectancy

# A tibble: 202 × 67
   country      `1951` `1952` `1953` `1954` `1955` `1956` `1957` `1958` `1959` `1960` `1961` `1962` `1963` `1964` `1965`
   <chr>         <dbl>  <dbl>  <dbl>  <dbl>  <dbl>  <dbl>  <dbl>  <dbl>  <dbl>  <dbl>  <dbl>  <dbl>  <dbl>  <dbl>  <dbl>
 1 Afghanistan   27.13  27.67  28.19  28.73  29.27  29.8   30.34  30.86  31.4   31.94  32.47  33.01  33.53  34.07  34.6 
 2 Albania       54.72  55.23  55.85  56.59  57.45  58.42  59.48  60.6   61.75  62.87  63.92  64.84  65.6   66.18  66.59
 3 Algeria       43.03  43.5   43.96  44.44  44.93  45.44  45.94  46.45  46.97  47.5   48.02  48.55  49.07  49.58  50.09
 4 Angola        31.05  31.59  32.14  32.69  33.24  33.78  34.33  34.88  35.43  35.98  36.53  37.08  37.63  38.18  38.74
 5 Antigua and…  58.26  58.8   59.34  59.87  60.41  60.93  61.45  61.97  62.48  62.97  63.46  63.93  64.38  64.81  65.23
 6 Argentina     61.93  62.54  63.1   63.59  64.03  64.41  64.73  65     65.22  65.39  65.53  65.64  65.74  65.84  65.95
 7 Armenia       62.67  63.13  63.6   64.07  64.54  65     65.45  65.92  66.39  66.86  67.33  67.82  68.3   68.78  69.26
 8 Aruba         58.96  60.01  60.98  61.87  62.69  63.42  64.09  64.68  65.2   65.66  66.07  66.44  66.79  67.11  67.44
 9 Australia     68.71  69.11  69.69  69.84  70.16  70.03  70.31  70.86  70.43  70.87  71.14  70.91  70.97  70.63  70.96
10 Austria       65.24  66.78  67.27  67.3   67.58  67.7   67.46  68.46  68.39  68.75  69.72  69.51  69.64  70.13  69.92
# ℹ 192 more rows
# ℹ 51 more variables: `1966` <dbl>, `1967` <dbl>, `1968` <dbl>, `1969` <dbl>, `1970` <dbl>, `1971` <dbl>,
#   `1972` <dbl>, `1973` <dbl>, `1974` <dbl>, `1975` <dbl>, `1976` <dbl>, `1977` <dbl>, `1978` <dbl>, `1979` <dbl>,
#   `1980` <dbl>, `1981` <dbl>, `1982` <dbl>, `1983` <dbl>, `1984` <dbl>, `1985` <dbl>, `1986` <dbl>, `1987` <dbl>,
#   `1988` <dbl>, `1989` <dbl>, `1990` <dbl>, `1991` <dbl>, `1992` <dbl>, `1993` <dbl>, `1994` <dbl>, `1995` <dbl>,
#   `1996` <dbl>, `1997` <dbl>, `1998` <dbl>, `1999` <dbl>, `2000` <dbl>, `2001` <dbl>, `2002` <dbl>, `2003` <dbl>,
#   `2004` <dbl>, `2005` <dbl>, `2006` <dbl>, `2007` <dbl>, `2008` <dbl>, `2009` <dbl>, `2010` <dbl>, `2011` <dbl>, …

life_expectancy_tidy

# A tibble: 13,332 × 3
   country     year  life_expectancy
   <chr>       <chr>           <dbl>
 1 Afghanistan 1951            27.13
 2 Afghanistan 1952            27.67
 3 Afghanistan 1953            28.19
 4 Afghanistan 1954            28.73
 5 Afghanistan 1955            29.27
 6 Afghanistan 1956            29.8 
 7 Afghanistan 1957            30.34
 8 Afghanistan 1958            30.86
 9 Afghanistan 1959            31.4 
10 Afghanistan 1960            31.94
# ℹ 13,322 more rows
…
Solution: C.
It varies from sample to sample due to sampling variation.

(LC10.7) Residual analysis for UN data (\(y =\) fertility, \(x =\) life expectancy).

Solution:
Compute fitted values and residuals with get_regression_points().

simple_model <- lm(fertility_rate_2022 ~ hdi_2022, 
                   data = na.omit(un_member_states_2024))
regression_points <- get_regression_points(simple_model, ID = "country")
regression_points

# A tibble: 107 × 5
   country      fertility_rate_2022 hdi_2022 fertility_rate_2022_hat residual
   <chr>                      <dbl>    <dbl>                   <dbl>    <dbl>
 1 Afghanistan                  4.3    0.462                   4.035    0.265
 2 Algeria                      2.7    0.745                   2.394    0.306
 3 Argentina                    1.9    0.849                   1.791    0.109
 4 Armenia                      1.6    0.786                   2.157   -0.557
 5 Australia                    1.6    0.946                   1.229    0.371
 6 Austria                      1.5    0.926                   1.345    0.155
 7 Azerbaijan                   1.6    0.76                    2.307   -0.707
 8 Bahamas, The                 1.4    0.82                    1.959   -0.559
 9 Bahrain                      1.8    0.888                   1.565    0.235
10 Barbados                     1.6    0.809                   2.023   -0.423
# ℹ 97 more rows
…
Solution:

Theory-based: Use get_regression_table(price_interaction) which reports CIs from the \(t\)-distribution. For example, the CI for log10_size excludes 0, so size is significant.

Simulation-based: Bootstrap the regression with resampling (infer package with fit() + get_confidence_interval()). Plot the bootstrap distribution of coefficients and shade the middle 95%.
Both approaches agree: only log10_size has a confidence interval that does not include 0, confirming its significant relationship with log10 price.

(LC11.5) What date between 1994 and 2003 has the fewest number of births in the US? What story could you tell about why?

Solution:

US_births_1994_2003 |> 
  arrange(births)

# A tibble: 3,652 × 6
    year month date_of_month date       day_of_week births
   <int> <int>         <int> <date>     <ord>        <int>
 1  2001    12            25 2001-12-25 Tues          6443
 2  2000    12            25 2000-12-25 Mon           6566
 3  2003    12            25 2003-12-25 Thurs         6628
 4  2002    12            25 2002-12-25 Wed           6629
 5  1999    12            25 1999-12-25 Sat           6674
 6  2000    12            24 2000-12-24 Sun           6801
 7  1995    12            24 1995-12-24 Sun           6999
 8  2002     4             7 2002-04-07 Sun           7008
 9  2002     3            31 2002-03-31 Sun           7019
10  1998    12            25 1998-12-25 Fri           7020
# ℹ 3,642 more rows
…
