C.1 Data wrangling | Statistical Inference via Data Science
…
case_when() is a little trickier, but allows you to evaluate boolean operations using ==, >, >=, &, |, etc:

movies_ex %>%
  mutate(
    type_new =
      case_when(
        type == "action" & millions > 40 ~ "Big budget action",
        type == "rom comedy" & millions < 40 ~ "Small budget romcom",
        # Need this for everything else that aren't the two cases above:
        TRUE ~ "Rest"
      )
  )

# A tibble: 108 x 7
   name             score rating type       millions    revenue type_new        
   <chr>            <dbl> <chr>  <chr>         <dbl>      <dbl> <chr>           
 1 2 Fast 2 Furi… 48.9000 PG-13  action     NA              NA  Rest            
 2 A Guy Thing    39.5    PG-13  rom come…  15.545    15545000  Small budget ro…
 3 A Man Apart    42.9000 R      action     26.2480   26247999  Rest            
 4 A Mighty Wind  79.9000 PG-13  comedy     17.781    17781000  Rest            
 5 Agent Cody Ba… 57.9000 PG     action     47.8110   47811001  Big budget acti…
 6 Alex & Emma    35.1000 PG-13  rom come…  14.219    14219000  Small budget ro…
 7 American Wedd… 50.7000 R      comedy    104.441   104441000  Rest            
 8 Anger Managem… 62.6000 PG-13  comedy    134.404   134404010  Rest            
 9 Anything Else  63.3000 R      rom come…   3.21200   3212000. Small budget ro…
10 Bad Boys II    38.1000 R      action    138.397   138397000  Big budget acti…
# … with 98 more rows
…
