D.3 Chapter 3 Solutions | Statistical Inference via Data Science
…
(LC3.6) What code would be required to get the mean and standard deviation temperature for each day in 2013 for NYC?

Solution:

summary_temp_by_day <- weather %>%
  group_by(year, month, day) %>%
  summarize(
    mean = mean(temp, na.rm = TRUE),
    std_dev = sd(temp, na.rm = TRUE)
  )
summary_temp_by_day

# A tibble: 364 x 5
# Groups:   year, month [12]
    year month   day    mean std_dev
   <int> <int> <int>   <dbl>   <dbl>
 1  2013     1     1 36.9997 4.00117
 2  2013     1     2 28.7025 3.45205
 3  2013     1     3 29.9725 2.58472
 4  2013     1     4 34.94   2.45283
 5  2013     1     5 37.205  4.00500
 6  2013     1     6 40.0518 4.39562
 7  2013     1     7 40.5825 3.68319
 8  2013     1     8 40.1175 5.77457
 9  2013     1     9 43.225  5.39724
10  2013     1    10 43.85   2.95214
# … with 354 more rows
…
Solution: This question is subjective! What surprises me is the high number of flights to Boston. Wouldn’t it be easier and quicker to take the train?

(LC3.15) What are some advantages of data in normal forms? What are some disadvantages?

Solution: When datasets are in normal form, we can easily _join them with other datasets! For example, we can join the flights data with the planes data.

(LC3.16) What are some ways to select all three of the dest, air_time, and distance variables from flights? Give the code showing how to do this in at least three different ways.

Solution:

# The regular way:
flights %>%
  select(dest, air_time, distance)

# A tibble: 336,776 x 3
   dest  air_time distance
   <chr>    <dbl>    <dbl>
 1 IAH        227     1400
 2 IAH        227     1416
 3 MIA        160     1089
 4 BQN        183     1576
 5 ATL        116      762
 6 ORD        150      719
 7 FLL        158     1065
 8 IAD         53      229
 9 MCO        140      944
10 ORD        138      733
# … with 336,766 more rows

# Since they are sequential columns in the dataset
flights %>%
  select(dest:distance)

# A tibble: 336,776 x 3
   dest  air_time distance
   <chr>    <dbl>    <dbl>
 1 IAH        227     1400
 2 IAH        227     1416
 3 MIA        160     1089
 4 BQN        183     1576
 5 ATL        116      762
 6 ORD        150      719
 7 FLL        158     1065
 8 IAD         53      229
 9 MCO        140      944
10 ORD        138      733
# … with 336,766 more rows

# Not as effective, by removing everything else
flights %>%
  select(
    -year, -month, -day, -dep_time, -sched_dep_time, -dep_delay, -arr_time,
    -sched_arr_time, -arr_delay, -carrier, -flight, -tailnum, -origin,
    -hour, -minute, -time_hour
  )

# A tibble: 336,776 x 6
   dest  air_time distance  gain    hours gain_per_hour
   <chr>    <dbl>    <dbl> <dbl>    <dbl>         <dbl>
 1 IAH        227     1400    -9 3.78333       -2.37885
 2 IAH        227     1416   -16 3.78333       -4.22907
 3 MIA        160     1089   -31 2.66667      -11.625  
 4 BQN        183     1576    17 3.05           5.57377
 5 ATL        116      762    19 1.93333        9.82759
 6 ORD        150      719   -16 2.5           -6.4    
 7 FLL        158     1065   -24 2.63333       -9.11392
 8 IAD         53      229    11 0.883333      12.4528 
 9 MCO        140      944     5 2.33333        2.14286
10 ORD        138      733   -10 2.300         -4.34783
# … with 336,766 more rows

(LC3.17) How could one use starts_with, ends_with, and contains to select columns from the flights data frame? Provide three different examples in total: one for starts_with, one for ends_with, and one for contains.

Solution:

# Anything that starts with "d"
flights %>%
  select(starts_with("d"))

# A tibble: 336,776 x 5
     day dep_time dep_delay dest  distance
   <int>    <int>     <dbl> <chr>    <dbl>
 1     1      517         2 IAH       1400
 2     1      533         4 IAH       1416
 3     1      542         2 MIA       1089
 4     1      544        -1 BQN       1576
 5     1      554        -6 ATL        762
 6     1      554        -4 ORD        719
 7     1      555        -5 FLL       1065
 8     1      557        -3 IAD        229
 9     1      557        -3 MCO        944
10     1      558        -2 ORD        733
# … with 336,766 more rows

# Anything related to delays:
flights %>%
  select(ends_with("delay"))

# A tibble: 336,776 x 2
   dep_delay arr_delay
       <dbl>     <dbl>
 1         2        11
 2         4        20
 3         2        33
 4        -1       -18
 5        -6       -25
 6        -4        12
 7        -5        19
 8        -3       -14
 9        -3        -8
10        -2         8
# … with 336,766 more rows

# Anything related to departures:
flights %>%
  select(contains("dep"))

# A tibble: 336,776 x 3
   dep_time sched_dep_time dep_delay
      <int>          <int>     <dbl>
 1      517            515         2
 2      533            529         4
 3      542            540         2
 4      544            545        -1
 5      554            600        -6
 6      554            558        -4
 7      555            600        -5
 8      557            600        -3
 9      557            600        -3
10      558            600        -2
# … with 336,766 more rows
…
Let’s now break this down step-by-step. To compute the available seat miles for a given flight, we need the distance variable from the flights data frame and the seats variable from the planes data frame, necessitating a join by the key variable tailnum as illustrated in Figure 3.7. To keep the resulting data frame easy to view, we’ll select() only these two variables and carrier:

flights %>%
  inner_join(planes, by = "tailnum") %>%
  select(carrier, seats, distance)

# A tibble: 284,170 x 3
   carrier seats distance
   <chr>   <int>    <dbl>
 1 UA        149     1400
 2 UA        149     1416
 3 AA        178     1089
 4 B6        200     1576
 5 DL        178      762
 6 UA        191      719
 7 B6        200     1065
 8 EV         55      229
 9 B6        200      944
10 B6        200     1028
# … with 284,160 more rows

Now for each flight we can compute the available seat miles ASM by multiplying the number of seats by the distance via a mutate():

flights %>%
  inner_join(planes, by = "tailnum") %>%
  select(carrier, seats, distance) %>%
  # Added:
  mutate(ASM = seats * distance)

# A tibble: 284,170 x 4
   carrier seats distance    ASM
   <chr>   <int>    <dbl>  <dbl>
 1 UA        149     1400 208600
 2 UA        149     1416 210984
 3 AA        178     1089 193842
 4 B6        200     1576 315200
 5 DL        178      762 135636
 6 UA        191      719 137329
 7 B6        200     1065 213000
 8 EV         55      229  12595
 9 B6        200      944 188800
10 B6        200     1028 205600
# … with 284,160 more rows
…
