Chapter 1 Getting Started with Data in R | Statistical Inference via Data Science
…
planes: Information about each of the 4,840 physical aircraft used.

weather: Hourly meteorological data for each of the three NYC airports. This data frame has 26,204 rows, roughly corresponding to the \(365 \times 24 \times 3 = 26,280\) possible hourly measurements one can observe at three locations over the course of a year.

airports: Names, codes, and locations of the 1,251 domestic destinations.

The nycflights23 package is an updated version of the classic nycflights13 R package. nycflights23 was authored by ModernDive co-author Chester Ismay using the anyflights R package developed by Simon Couch. Simon granted permission to the ModernDive team to create nycflights23 and submit the package to CRAN.

1.4.2 flights data frame

We’ll begin by exploring the flights data frame and get an idea of its structure. Run the following code in your console, either by typing it or by cutting-and-pasting it. It displays the contents of the flights data frame in your console. Note that depending on the size of your monitor, the output may vary slightly.

flights

# A tibble: 435,352 × 19
    year month   day dep_time sched_dep_time dep_delay arr_time sched_arr_time arr_delay carrier flight
   <int> <int> <int>    <int>          <int>     <dbl>    <int>          <int>     <dbl> <chr>    <int>
 1  2023     1     1        1           2038       203      328              3       205 UA         628
 2  2023     1     1       18           2300        78      228            135        53 DL         393
 3  2023     1     1       31           2344        47      500            426        34 B6         371
 4  2023     1     1       33           2140       173      238           2352       166 B6        1053
 5  2023     1     1       36           2048       228      223           2252       211 UA         219
 6  2023     1     1      503            500         3      808            815        -7 AA         499
 7  2023     1     1      520            510        10      948            949        -1 B6         996
 8  2023     1     1      524            530        -6      645            710       -25 AA         981
 9  2023     1     1      537            520        17      926            818        68 UA         206
10  2023     1     1      547            545         2      845            852        -7 NK         225
# ℹ 435,342 more rows
# ℹ 8 more variables: tailnum <chr>, origin <chr>, dest <chr>, air_time <dbl>, distance <dbl>, hour <dbl>,
#   minute <dbl>, time_hour <dttm>
…
