…
The `nycflights23` package is an updated version of [the classic `nycflights13` R package](https://nycflights13.tidyverse.org/). `nycflights23` was authored by ModernDive co-author Chester Ismay using the [`anyflights` R package](https://anyflights.netlify.app/) developed by [Simon Couch](https://www.simonpcouch.com/). Simon granted permission to the ModernDive team to create `nycflights23` and submit the package to CRAN.

### `flights` data frame

We'll begin by exploring the `flights` data frame and get an idea of its structure. Run the following code in your console, either by typing it or by cutting-and-pasting it. It displays the contents of the `flights` data frame in your console. Note that depending on the size of your monitor, the output may vary slightly. 


``` r
flights
```

```
# A tibble: 435,352 x 19
    year month   day dep_time sched_dep_time dep_delay arr_time
   <int> <int> <int>    <int>          <int>     <dbl>    <int>
 1  2023     1     1        1           2038       203      328
 2  2023     1     1       18           2300        78      228
 3  2023     1     1       31           2344        47      500
 4  2023     1     1       33           2140       173      238
 5  2023     1     1       36           2048       228      223
 6  2023     1     1      503            500         3      808
 7  2023     1     1      520            510        10      948
 8  2023     1     1      524            530        -6      645
 9  2023     1     1      537            520        17      926
10  2023     1     1      547            545         2      845
# i 435,342 more rows
# i 12 more variables: sched_arr_time <int>, arr_delay <dbl>,
#   carrier <chr>, flight <int>, tailnum <chr>, origin <chr>, dest <chr>,
#   air_time <dbl>, distance <dbl>, hour <dbl>, minute <dbl>,
#   time_hour <dttm>
```
…
This code is identical to the previous code that created `summary_windspeed`, but with an extra `group_by(month)` added before the `summarize()`. Grouping the `weather` dataset by `month` and then applying the `summarize()` functions yields a data frame that displays the mean and standard deviation wind speed split by the 12 months of the year.

It is important to note that the \index{R packages!dplyr!group\_by()} `group_by()` function doesn't change data frames by itself. Rather it changes the *meta-data*\index{meta-data}, or data about the data, specifically the grouping structure. Only after applying the `summarize()` function does the data frame change. 

As another example, consider the \index{R packages!ggplot2!diamonds} `diamonds` data frame included in the `ggplot2` package:


``` r
diamonds
```

```
# A tibble: 53,940 x 10
   carat cut       color clarity depth table price     x     y     z
   <dbl> <ord>     <ord> <ord>   <dbl> <dbl> <int> <dbl> <dbl> <dbl>
 1  0.23 Ideal     E     SI2      61.5    55   326  3.95  3.98  2.43
 2  0.21 Premium   E     SI1      59.8    61   326  3.89  3.84  2.31
 3  0.23 Good      E     VS1      56.9    65   327  4.05  4.07  2.31
 4  0.29 Premium   I     VS2      62.4    58   334  4.2   4.23  2.63
 5  0.31 Good      J     SI2      63.3    58   335  4.34  4.35  2.75
 6  0.24 Very Good J     VVS2     62.8    57   336  3.94  3.96  2.48
 7  0.24 Very Good I     VVS1     62.3    57   336  3.95  3.98  2.47
 8  0.26 Very Good H     SI1      61.9    55   337  4.07  4.11  2.53
 9  0.22 Fair      E     VS2      65.1    61   337  3.87  3.78  2.49
10  0.23 Very Good H     VS1      59.4    61   338  4     4.05  2.39
# i 53,930 more rows
```

Observe that the first line of the output reads ``# A tibble: 53,940 x 10 ``. This is an example of meta-data, in this case the number of observations/rows and variables/columns in `diamonds`. The actual data itself are the subsequent table of values. Now let's pipe the `diamonds` data frame into `group_by(cut)`:


``` r
diamonds |> 
  group_by(cut)
```

```
# A tibble: 53,940 x 10
# Groups:   cut [5]
   carat cut       color clarity depth table price     x     y     z
   <dbl> <ord>     <ord> <ord>   <dbl> <dbl> <int> <dbl> <dbl> <dbl>
 1  0.23 Ideal     E     SI2      61.5    55   326  3.95  3.98  2.43
 2  0.21 Premium   E     SI1      59.8    61   326  3.89  3.84  2.31
 3  0.23 Good      E     VS1      56.9    65   327  4.05  4.07  2.31
 4  0.29 Premium   I     VS2      62.4    58   334  4.2   4.23  2.63
 5  0.31 Good      J     SI2      63.3    58   335  4.34  4.35  2.75
 6  0.24 Very Good J     VVS2     62.8    57   336  3.94  3.96  2.48
 7  0.24 Very Good I     VVS1     62.3    57   336  3.95  3.98  2.47
 8  0.26 Very Good H     SI1      61.9    55   337  4.07  4.11  2.53
 9  0.22 Fair      E     VS2      65.1    61   337  3.87  3.78  2.49
10  0.23 Very Good H     VS1      59.4    61   338  4     4.05  2.39
# i 53,930 more rows
```
…
If you would like to remove this grouping structure meta-data, we can pipe the resulting data frame into the \index{R packages!dplyr!ungroup()} `ungroup()` function:


``` r
diamonds |> 
  group_by(cut) |> 
  ungroup()
```

```
# A tibble: 53,940 x 10
   carat cut       color clarity depth table price     x     y     z
   <dbl> <ord>     <ord> <ord>   <dbl> <dbl> <int> <dbl> <dbl> <dbl>
 1  0.23 Ideal     E     SI2      61.5    55   326  3.95  3.98  2.43
 2  0.21 Premium   E     SI1      59.8    61   326  3.89  3.84  2.31
 3  0.23 Good      E     VS1      56.9    65   327  4.05  4.07  2.31
 4  0.29 Premium   I     VS2      62.4    58   334  4.2   4.23  2.63
 5  0.31 Good      J     SI2      63.3    58   335  4.34  4.35  2.75
 6  0.24 Very Good J     VVS2     62.8    57   336  3.94  3.96  2.48
 7  0.24 Very Good I     VVS1     62.3    57   336  3.95  3.98  2.47
 8  0.26 Very Good H     SI1      61.9    55   337  4.07  4.11  2.53
 9  0.22 Fair      E     VS2      65.1    61   337  3.87  3.78  2.49
10  0.23 Very Good H     VS1      59.4    61   338  4     4.05  2.39
# i 53,930 more rows
```
…
- `drop_last` drops the last grouping variable,
- `drop` drops all grouping variables,
- `keep` keeps all grouping variables, and
- `rowwise` turns each row into a group.

In most circumstances, the default is `drop_last` which drops the last grouping variable. The message is informing us that the default behavior is to drop the last grouping variable, which in this case is `month`.


``` r
by_origin_monthly
```

```
# A tibble: 36 x 3
# Groups:   origin [3]
   origin month count
   <chr>  <int> <int>
 1 EWR        1 11623
 2 EWR        2 10991
 3 EWR        3 12593
 4 EWR        4 12022
 5 EWR        5 12371
 6 EWR        6 11339
 7 EWR        7 11646
 8 EWR        8 11561
 9 EWR        9 11373
10 EWR       10 11805
# i 26 more rows
```
…
One of the most commonly performed data wrangling tasks is to sort a data frame's rows in the alphanumeric order of one of the variables. The `dplyr` package's `arrange()` function \index{R packages!dplyr!arrange()} allows us to sort/reorder a data frame's rows according to the values of the specified variable.

Suppose we are interested in determining the most frequent destination airports for all domestic flights departing from New York City in 2023:


``` r
freq_dest <- flights |> 
  group_by(dest) |> 
  summarize(num_flights = n())
freq_dest
```

```
# A tibble: 118 x 2
   dest  num_flights
   <chr>       <int>
 1 ABQ           228
 2 ACK           916
 3 AGS            20
 4 ALB          1581
 5 ANC            95
 6 ATL         17570
 7 AUS          4848
 8 AVL          1617
 9 AVP           145
10 BDL           701
# i 108 more rows
```

Observe that by default the rows of the resulting `freq_dest` data frame are sorted in alphabetical order of `dest`ination. Say instead we would like to see the same data, but sorted from the most to the least number of flights (`num_flights`) instead:


``` r
freq_dest |> 
  arrange(num_flights)
```

```
# A tibble: 118 x 2
   dest  num_flights
   <chr>       <int>
 1 LEX             1
 2 AGS            20
 3 OGG            20
 4 SBN            24
 5 HDN            28
 6 PNS            71
 7 MTJ            77
 8 ANC            95
 9 VPS           109
10 AVP           145
# i 108 more rows
```

This is, however, the opposite of what we want. The rows are sorted with the least frequent destination airports displayed first. This is because `arrange()` always returns rows sorted in ascending order by default. To switch the ordering to be in "descending" order instead, we use the `desc()` \index{R packages!dplyr!desc()} function as so:


``` r
freq_dest |> 
  arrange(desc(num_flights))
```

```
# A tibble: 118 x 2
   dest  num_flights
   <chr>       <int>
 1 BOS         19036
 2 ORD         18200
 3 MCO         17756
 4 ATL         17570
 5 MIA         16076
 6 LAX         15968
 7 FLL         14239
 8 CLT         12866
 9 DFW         11675
10 SFO         11651
# i 108 more rows
```
…
Let's construct the chain of pipe operators `|>` that computes the number of flights from NYC to each destination, but also includes information about each destination airport:


``` r
named_dests <- flights |>
  group_by(dest) |>
  summarize(num_flights = n()) |>
  arrange(desc(num_flights)) |>
  inner_join(airports, by = c("dest" = "faa")) |>
  rename(airport_name = name)
named_dests
```

```
# A tibble: 114 x 9
   dest  num_flights airport_name        lat    lon   alt    tz dst   tzone
   <chr>       <int> <chr>             <dbl>  <dbl> <dbl> <dbl> <chr> <chr>
 1 BOS         19036 General Edward L~  42.4  -71.0    20    -5 A     Amer~
 2 ORD         18200 Chicago O'Hare I~  42.0  -87.9   672    -6 A     Amer~
 3 MCO         17756 Orlando Internat~  28.4  -81.3    96    -5 A     Amer~
 4 ATL         17570 Hartsfield Jacks~  33.6  -84.4  1026    -5 A     Amer~
 5 MIA         16076 Miami Internatio~  25.8  -80.3     8    -5 A     Amer~
 6 LAX         15968 Los Angeles Inte~  33.9 -118.    125    -8 A     Amer~
 7 FLL         14239 Fort Lauderdale ~  26.1  -80.2     9    -5 A     Amer~
 8 CLT         12866 Charlotte Dougla~  35.2  -80.9   748    -5 A     Amer~
 9 DFW         11675 Dallas Fort Wort~  32.9  -97.0   607    -6 A     Amer~
10 SFO         11651 San Francisco In~  37.6 -122.     13    -8 A     Amer~
# i 104 more rows
```
…
We'll cover two methods for importing `.csv` and `.xlsx` spreadsheet data in R: one using the console and the other using RStudio's graphical user interface, abbreviated as "GUI."

### Using the console

First, let's import a Comma Separated Values `.csv` file that exists on the internet. The `.csv` file `dem_score.csv` contains ratings of the level of democracy in different countries spanning 1952 to 1992 and is accessible at <https://moderndive.com/data/dem_score.csv>. Let's use the `read_csv()` function from the `readr` \index{R packages!readr!read\_csv()} [@R-readr] package to read it off the web, import it into R, and save it in a data frame called `dem_score`.


``` r
library(readr)
dem_score <- read_csv("https://moderndive.com/data/dem_score.csv")
dem_score
```

```
# A tibble: 96 x 10
   country   `1952` `1957` `1962` `1967` `1972` `1977` `1982` `1987` `1992`
   <chr>      <dbl>  <dbl>  <dbl>  <dbl>  <dbl>  <dbl>  <dbl>  <dbl>  <dbl>
 1 Albania       -9     -9     -9     -9     -9     -9     -9     -9      5
 2 Argentina     -9     -1     -1     -9     -9     -9     -8      8      7
 3 Armenia       -9     -7     -7     -7     -7     -7     -7     -7      7
 4 Australia     10     10     10     10     10     10     10     10     10
 5 Austria       10     10     10     10     10     10     10     10     10
 6 Azerbaij~     -9     -7     -7     -7     -7     -7     -7     -7      1
 7 Belarus       -9     -7     -7     -7     -7     -7     -7     -7      7
 8 Belgium       10     10     10     10     10     10     10     10     10
 9 Bhutan       -10    -10    -10    -10    -10    -10    -10    -10    -10
10 Bolivia       -4     -3     -3     -4     -7     -7      8      9      9
# i 86 more rows
```
…
``` r
airline_safety
```

After reading the help file by running `?airline_safety`, we see that `airline_safety` is a data frame containing information on different airline companies' safety records. This data was originally reported on the data journalism website, FiveThirtyEight.com, in Nate Silver's article, ["Should Travelers Avoid Flying Airlines That Have Had Crashes in the Past?"](https://fivethirtyeight.com/features/should-travelers-avoid-flying-airlines-that-have-had-crashes-in-the-past/). Let's only consider the variables `airline` and those relating to fatalities for simplicity:


``` r
airline_safety_smaller <- airline_safety |> 
  select(airline, starts_with("fatalities"))
airline_safety_smaller
```

```
# A tibble: 56 x 3
   airline               fatalities_85_99 fatalities_00_14
   <chr>                            <int>            <int>
 1 Aer Lingus                           0                0
 2 Aeroflot                           128               88
 3 Aerolineas Argentinas                0                0
 4 Aeromexico                          64                0
 5 Air Canada                           0                0
 6 Air France                          79              337
 7 Air India                          329              158
 8 Air New Zealand                      0                7
 9 Alaska Airlines                      0               88
10 Alitalia                            50                0
# i 46 more rows
```
…
\caption{A bowl with red and white balls.}(\#fig:sampling-exercise-1)
\end{figure}

### The proportion of red balls in the bowl {#population-proportion}

We are interested in finding the proportion of red balls in the bowl. To find this proportion, we could count the number of red balls and divide this number by the total number of balls. The bowl seen in Figure \@ref(fig:sampling-exercise-1) is represented virtually by the data frame `bowl` included in the `moderndive` package. The first ten rows are shown here for illustration purposes:


``` r
bowl
```

```
# A tibble: 2,400 x 2
   ball_ID color
     <int> <chr>
 1       1 white
 2       2 white
 3       3 white
 4       4 red  
 5       5 white
 6       6 white
 7       7 red  
 8       8 white
 9       9 red  
10      10 white
# i 2,390 more rows
```

The `bowl` has 2400 rows representing the 2400 balls in the bowl shown in Figure \@ref(fig:sampling-exercise-1). You can view and scroll through the entire contents of the `bowl` in RStudio's data viewer by running `View(bowl)`. The first variable `ball_ID` is used as an *identification variable* as discussed in Subsection \@ref(identification-vs-measurement-variables); none of the balls in the actual bowl are marked with numbers. 

The second variable `color` indicates whether a particular virtual ball is red or white. We compute the proportion of red balls in the bowl using the `dplyr` data wrangling verbs presented in Chapter \@ref(wrangling). A few steps are needed in order to determine this proportion. We present these steps separately to remind you how they work but later introduce all the steps together and simplify some of the code. First, for each of the balls, we identify if it is red or not using a test for equality with the logical operator `==`. We do this by using the `mutate()` function from Section \@ref(mutate) that allows us to create a new Boolean variable called `is_red`.


``` r
bowl |> 
  mutate(is_red = (color == "red"))
```

```
# A tibble: 2,400 x 3
   ball_ID color is_red
     <int> <chr> <lgl> 
 1       1 white FALSE 
 2       2 white FALSE 
 3       3 white FALSE 
 4       4 red   TRUE  
 5       5 white FALSE 
 6       6 white FALSE 
 7       7 red   TRUE  
 8       8 white FALSE 
 9       9 red   TRUE  
10      10 white FALSE 
# i 2,390 more rows
```
…
\caption{Hand-drawn histogram of 10 sample proportions.}(\#fig:sampling-exercise-5)
\end{figure}

By looking at the histogram, we observe that the lowest proportion of red balls was between 0.20 and 0.25 while the highest was between 0.45 and 0.5. More importantly, the most frequently occurring proportions were between 0.30 and 0.35.

This activity performed by 33 students has the results stored in the `tactile_prop_red` data frame included in the `moderndive` package. The first 10 rows are printed below:


``` r
tactile_prop_red
```

```
# A tibble: 33 x 4
   group            replicate red_balls prop_red
   <chr>                <int>     <int>    <dbl>
 1 Ilyas, Yohan             1        21     0.42
 2 Morgan, Terrance         2        17     0.34
 3 Martin, Thomas           3        21     0.42
 4 Clark, Frank             4        21     0.42
 5 Riddhi, Karina           5        18     0.36
 6 Andrew, Tyler            6        19     0.38
 7 Julia                    7        19     0.38
 8 Rachel, Lauren           8        11     0.22
 9 Daniel, Caroline         9        15     0.3 
10 Josh, Maeve             10        17     0.34
# i 23 more rows
```
…
#### One virtual sample {-}

Recall that the bowl seen in Figure \@ref(fig:sampling-exercise-1) is represented by the data frame `bowl` included in the `moderndive` package. The virtual analog to the 50-ball shovel seen in Figure \@ref(fig:sampling-exercise-2) can be achieved using the `rep_slice_sample()` function included in the `moderndive` package. This function allows us to take `rep`eated (or `rep`licated) random `samples` of size `n`. We start by taking a single sample of 50 balls: 



``` r
virtual_shovel <- bowl |> 
  rep_slice_sample(n = 50)
virtual_shovel
```

```
# A tibble: 50 x 3
# Groups:   replicate [1]
   replicate ball_ID color
       <int>   <int> <chr>
 1         1    1970 white
 2         1     842 red  
 3         1    2287 white
 4         1     599 white
 5         1     108 white
 6         1     846 red  
 7         1     390 red  
 8         1     344 white
 9         1     910 white
10         1    1485 white
# i 40 more rows
```
…
Based on this random sample, 24% of the `virtual_shovel`'s 50 balls were red! We proceed finding the sample proportion for more random samples.

#### Thirty-three virtual samples {-}

In Section \@ref(sampling-activity), students got 33 samples and sample proportions. They repeated/replicated the sampling process 33 times. We do this virtually by again using the function `rep_slice_sample()` and this time adding the `reps = 33` argument as we want to retrieve 33 random samples. We save these samples in the data frame `virtual_samples`, as shown below, and then provide a preview of its first 10 rows. If you want to inspect the entire `virtual_samples` data frame, use RStudio's data viewer by running `View(virtual_samples)`. 


``` r
virtual_samples <- bowl |> 
  rep_slice_sample(n = 50, reps = 33)
virtual_samples
```

```
# A tibble: 1,650 x 3
# Groups:   replicate [33]
   replicate ball_ID color
       <int>   <int> <chr>
 1         1    1970 white
 2         1     842 red  
 3         1    2287 white
 4         1     599 white
 5         1     108 white
 6         1     846 red  
 7         1     390 red  
 8         1     344 white
 9         1     910 white
10         1    1485 white
# i 1,640 more rows
```
…
