Chapter 10 Inference for Regression | Statistical Inference via Data Science
…
1.8

82.6

1.26

0.542

We can retrieve this information for each observation.
Here we show the first few rows:

simple_model |>
  get_regression_points()

# A tibble: 183 × 5
      ID fert_rate life_exp fert_rate_hat residual
   <int>     <dbl>    <dbl>         <dbl>    <dbl>
 1     1       4.3    53.65         5.237   -0.937
 2     2       1.4    79.47         1.687   -0.287
 3     3       2.7    78.03         1.885    0.815
 4     4       5      62.11         4.074    0.926
 5     5       1.6    77.8          1.916   -0.316
 6     6       1.9    78.31         1.846    0.054
 7     7       1.6    76.13         2.146   -0.546
 8     8       1.6    83.09         1.189    0.411
 9     9       1.5    82.27         1.302    0.198
10    10       1.6    74.15         2.418   -0.818
# ℹ 173 more rows
…
As we did in Chapters 8 and 9, we use a sample to estimate the parameters in the population.
We use data collected from the Old Faithful Geyser in Yellowstone National Park in Wyoming, USA.
This dataset contains the duration of the geyser eruption in seconds and the waiting time to the next eruption in minutes.
The duration of the current eruption can help determine fairly well the waiting time to the next eruption.
For this example, we use a sample of data collected by volunteers and saved on the website https://geysertimes.org/ between June 1st, 2024 and August 19th, 2024.

These data are stored in the old_faithful_2024 data frame in the moderndive package.
While data collected by volunteers are not a random sample, as the volunteers could introduce some sort of bias, the eruptions selected by the volunteers had no specific patterns.
Further, beyond the individual skill of each volunteer measuring the times appropriately, no response bias or preference seems to be present.
Therefore, it seems safe to consider the data a random sample. The first ten rows are shown here:

old_faithful_2024

# A tibble: 114 × 6
   eruption_id date        time waiting webcam duration
         <dbl> <date>     <dbl>   <dbl> <chr>     <dbl>
 1     1473854 2024-08-19   538     180 Yes         235
 2     1473352 2024-08-15  1541     184 Yes         259
 3     1473337 2024-08-15  1425     116 Yes         137
 4     1473334 2024-08-15  1237     188 Yes         222
 5     1473331 2024-08-15  1131     106 Yes         105
 6     1473328 2024-08-15   944     187 Yes         180
 7     1473207 2024-08-14  1231     182 Yes         244
 8     1473201 2024-08-14  1041     190 Yes         278
 9     1473137 2024-08-13  1810     138 Yes         249
10     1473108 2024-08-13  1624     186 Yes         262
# ℹ 104 more rows
…
FIGURE 10.5: Example of observed value, fitted value, and residual.

We can calculate all the \(n = 114\) residuals by applying the get_regression_points() function to the regression model model_1.
Observe how the resulting values of residual are roughly equal to waiting - waiting_hat (there may be a slight difference due to rounding error).

# Fit regression model:
model_1 <- lm(waiting ~ duration, data = old_faithful_2024)
# Get regression points:
fitted_and_residuals <- get_regression_points(model_1)
fitted_and_residuals

# A tibble: 114 × 5
      ID waiting duration waiting_hat residual
   <int>   <dbl>    <dbl>       <dbl>    <dbl>
 1     1     180      235     166.666   13.334
 2     2     184      259     175.572    8.428
 3     3     116      137     130.299  -14.299
 4     4     188      222     161.842   26.158
 5     5     106      105     118.424  -12.424
 6     6     187      180     146.256   40.744
 7     7     182      244     170.006   11.994
 8     8     190      278     182.623    7.377
 9     9     138      249     171.861  -33.861
10    10     186      262     176.686    9.314
# ℹ 104 more rows
…
calculate() the summary statistic of interest: the fitted slope \(b_1\).

Using this bootstrap distribution, we’ll construct the 95% confidence interval using the percentile method and (if appropriate) the standard error method as well. It is important to note in this case that the bootstrapping with replacement is done row-by-row. Thus, the original pairs of waiting and duration values are always kept together, but different pairs of waiting and duration values may be resampled multiple times. The resulting confidence interval will denote a range of plausible values for the unknown population slope \(\beta_1\) quantifying the relationship between waiting times and duration for Old Faithful eruptions.

Let’s first construct the bootstrap distribution for the fitted slope \(b_1\):

bootstrap_distn_slope <- old_faithful_2024 |> 
  specify(formula = waiting ~ duration) |>
  generate(reps = 1000, type = "bootstrap") |> 
  calculate(stat = "slope")
bootstrap_distn_slope

Response: waiting (numeric)
Explanatory: duration (numeric)
# A tibble: 1,000 × 2
   replicate     stat
       <int>    <dbl>
 1         1 0.334197
 2         2 0.331819
 3         3 0.385334
 4         4 0.380571
 5         5 0.369226
 6         6 0.370921
 7         7 0.337145
 8         8 0.417517
 9         9 0.343136
10        10 0.359239
# ℹ 990 more rows
…
coffee_data <- coffee_quality |>
  select(aroma, 
         flavor, 
         moisture_percentage, 
         continent_of_origin, 
         total_cup_points) |>
  mutate(continent_of_origin = as.factor(continent_of_origin))

The first ten rows of coffee_data are shown here:

coffee_data

# A tibble: 207 × 5
   aroma flavor moisture_percentage continent_of_origin total_cup_points
   <dbl>  <dbl>               <dbl> <fct>                          <dbl>
 1  8.58   8.5                 11.8 South America                  89.33
 2  8.5    8.5                 10.5 Asia                           87.58
 3  8.33   8.42                10.4 Asia                           87.42
 4  8.08   8.17                11.8 North America                  87.17
 5  8.33   8.33                11.6 South America                  87.08
 6  8.33   8.33                10.7 North America                  87   
 7  8.33   8.17                 9.1 Asia                           86.92
 8  8.25   8.25                10   Asia                           86.75
 9  8.08   8.08                10.8 Asia                           86.67
10  8.08   8.17                11   Africa                         86.5 
# ℹ 197 more rows
…
generate() replicates by using bootstrap resampling with replacement
from the original sample of 207 coffees. We generate
reps = 1000 replicates using type = "bootstrap" for a total of
\(207 \cdot 1000 = 207,000\)
rows.

coffee_data |>
  specify(
    total_cup_points ~ continent_of_origin + aroma + flavor + moisture_percentage
  ) |>
  generate(reps = 1000, type = "bootstrap")

Response: total_cup_points (numeric)
Explanatory: continent_of_origin (factor), aroma (numeric), flavor (numeric), mo...
# A tibble: 207,000 × 6
# Groups:   replicate [1,000]
   replicate total_cup_points continent_of_origin aroma flavor moisture_percentage
       <int>            <dbl> <fct>               <dbl>  <dbl>               <dbl>
 1         1            83.25 Africa               7.92   7.67                10.4
 2         1            83.67 Asia                 7.58   7.75                 9.2
 3         1            85.5  Asia                 8.17   8.08                10.6
 4         1            82    North America        7.42   7.42                11.5
 5         1            84.42 Asia                 7.83   8                   10.1
 6         1            86.08 Asia                 8.17   8.08                10.2
 7         1            84.08 North America        7.67   7.83                11  
 8         1            83.67 Asia                 7.83   7.83                10.2
 9         1            82.75 North America        7.33   7.5                 11.8
10         1            84.33 North America        7.83   7.83                10.3
# ℹ 206,990 more rows

Lastly, fit() models for each of the replicates in the boot_distribution_mlr variable. Here, mlr stands for multiple linear regression.

boot_distribution_mlr <- coffee_quality |>
  specify(
    total_cup_points ~ continent_of_origin + aroma + flavor + moisture_percentage
  ) |>
  generate(reps = 1000, type = "bootstrap") |>
  fit()
boot_distribution_mlr

# A tibble: 7,000 × 3
# Groups:   replicate [1,000]
   replicate term                                estimate
       <int> <chr>                                  <dbl>
 1         1 intercept                        37.4459    
 2         1 continent_of_originAsia          -0.267451  
 3         1 continent_of_originNorth America -0.203579  
 4         1 continent_of_originSouth America -0.458541  
 5         1 aroma                             1.80789   
 6         1 flavor                            4.20492   
 7         1 moisture_percentage              -0.00643938
 8         2 intercept                        34.3890    
 9         2 continent_of_originAsia          -0.425770  
10         2 continent_of_originNorth America -0.237750  
# ℹ 6,990 more rows
…
Null distribution for the partial slopes

We can also compute the null distribution for the partial slopes using the infer workflow. We will shuffle the values of the response variable total_cup_points across the values of the regressors continent_of_origin, aroma, flavor, and moisture_percentage in the coffee_data dataset. This is done under the assumption of independence between the response and the regressors. The syntax is similar to constructing the bootstrap distribution, but we use type = "permute" and set hypothesize to null = "independence". We set our pseudo-random number generation seed to 2024 in order for the reader to get the same results with the shuffling.

set.seed(2024)
null_distribution_mlr <- coffee_quality |>
  specify(total_cup_points ~ continent_of_origin + aroma + 
      flavor + moisture_percentage) |>
  hypothesize(null = "independence") |>
  generate(reps = 1000, type = "permute") |>
  fit()
null_distribution_mlr

# A tibble: 7,000 × 3
# Groups:   replicate [1,000]
   replicate term                               estimate
       <int> <chr>                                 <dbl>
 1         1 intercept                        82.3301   
 2         1 continent_of_originAsia          -0.193739 
 3         1 continent_of_originNorth America -0.371403 
 4         1 continent_of_originSouth America -0.0830341
 5         1 aroma                            -1.21891  
 6         1 flavor                            1.52397  
 7         1 moisture_percentage              -0.0747986
 8         2 intercept                        82.8068   
 9         2 continent_of_originAsia          -0.239054 
10         2 continent_of_originNorth America -0.617409 
# ℹ 6,990 more rows
…
