Chapter 7 Sampling | Statistical Inference via Data Science
…
FIGURE 7.1: A bowl with red and white balls.

7.1.1 The proportion of red balls in the bowl

We are interested in finding the proportion of red balls in the bowl. To find this proportion, we could count the number of red balls and divide this number by the total number of balls. The bowl seen in Figure 7.1 is represented virtually by the data frame bowl included in the moderndive package. The first ten rows are shown here for illustration purposes:

bowl

# A tibble: 2,400 × 2
   ball_ID color
     <int> <chr>
 1       1 white
 2       2 white
 3       3 white
 4       4 red  
 5       5 white
 6       6 white
 7       7 red  
 8       8 white
 9       9 red  
10      10 white
# ℹ 2,390 more rows

The bowl has 2400 rows representing the 2400 balls in the bowl shown in Figure 7.1. You can view and scroll through the entire contents of the bowl in RStudio’s data viewer by running View(bowl). The first variable ball_ID is used as an identification variable as discussed in Subsection 1.4.4; none of the balls in the actual bowl are marked with numbers.

The second variable color indicates whether a particular virtual ball is red or white. We compute the proportion of red balls in the bowl using the dplyr data wrangling verbs presented in Chapter 3. A few steps are needed in order to determine this proportion. We present these steps separately to remind you how they work but later introduce all the steps together and simplify some of the code. First, for each of the balls, we identify if it is red or not using a test for equality with the logical operator ==. We do this by using the mutate() function from Section 3.5 that allows us to create a new Boolean variable called is_red.

bowl |> 
  mutate(is_red = (color == "red"))

# A tibble: 2,400 × 3
   ball_ID color is_red
     <int> <chr> <lgl> 
 1       1 white FALSE 
 2       2 white FALSE 
 3       3 white FALSE 
 4       4 red   TRUE  
 5       5 white FALSE 
 6       6 white FALSE 
 7       7 red   TRUE  
 8       8 white FALSE 
 9       9 red   TRUE  
10      10 white FALSE 
# ℹ 2,390 more rows
…
FIGURE 7.6: Hand-drawn histogram of 10 sample proportions.

By looking at the histogram, we observe that the lowest proportion of red balls was between 0.20 and 0.25 while the highest was between 0.45 and 0.5. More importantly, the most frequently occurring proportions were between 0.30 and 0.35.

This activity performed by 33 students has the results stored in the tactile_prop_red data frame included in the moderndive package. The first 10 rows are printed below:

tactile_prop_red

# A tibble: 33 × 4
   group            replicate red_balls prop_red
   <chr>                <int>     <int>    <dbl>
 1 Ilyas, Yohan             1        21     0.42
 2 Morgan, Terrance         2        17     0.34
 3 Martin, Thomas           3        21     0.42
 4 Clark, Frank             4        21     0.42
 5 Riddhi, Karina           5        18     0.36
 6 Andrew, Tyler            6        19     0.38
 7 Julia                    7        19     0.38
 8 Rachel, Lauren           8        11     0.22
 9 Daniel, Caroline         9        15     0.3 
10 Josh, Maeve             10        17     0.34
# ℹ 23 more rows
…
7.1.3 Virtual sampling

In the previous Subsection 7.1.2, we performed a tactile sampling activity: students took physical samples using a real shovel from a bowl with white and red balls by hand. We now extend the entire process using simulations on a computer, a sort of virtual sampling activity.

The use of simulations permits us to study not only 33 random samples but thousands, tens of thousands, or even more samples. When a large number of random samples is retrieved, we can gain a better understanding of the sampling distribution and the sampling variation of sample proportions. In addition, we are not limited by samples of 50 balls, as we can simulate sampling with any desired sample size. We are going to do all this in this subsection. We start by mimicking our manual activity.

One virtual sample

Recall that the bowl seen in Figure 7.1 is represented by the data frame bowl included in the moderndive package. The virtual analog to the 50-ball shovel seen in Figure 7.2 can be achieved using the rep_slice_sample() function included in the moderndive package. This function allows us to take repeated (or replicated) random samples of size n. We start by taking a single sample of 50 balls:

virtual_shovel <- bowl |> 
  rep_slice_sample(n = 50)
virtual_shovel

# A tibble: 50 × 3
# Groups:   replicate [1]
   replicate ball_ID color
       <int>   <int> <chr>
 1         1    1970 white
 2         1     842 red  
 3         1    2287 white
 4         1     599 white
 5         1     108 white
 6         1     846 red  
 7         1     390 red  
 8         1     344 white
 9         1     910 white
10         1    1485 white
# ℹ 40 more rows
…
Based on this random sample, 24% of the virtual_shovel’s 50 balls were red! We proceed finding the sample proportion for more random samples.

Thirty-three virtual samples

In Section 7.1, students got 33 samples and sample proportions. They repeated/replicated the sampling process 33 times. We do this virtually by again using the function rep_slice_sample() and this time adding the reps = 33 argument as we want to retrieve 33 random samples. We save these samples in the data frame virtual_samples, as shown below, and then provide a preview of its first 10 rows. If you want to inspect the entire virtual_samples data frame, use RStudio’s data viewer by running View(virtual_samples).

virtual_samples <- bowl |> 
  rep_slice_sample(n = 50, reps = 33)
virtual_samples

# A tibble: 1,650 × 3
# Groups:   replicate [33]
   replicate ball_ID color
       <int>   <int> <chr>
 1         1    1970 white
 2         1     842 red  
 3         1    2287 white
 4         1     599 white
 5         1     108 white
 6         1     846 red  
 7         1     390 red  
 8         1     344 white
 9         1     910 white
10         1    1485 white
# ℹ 1,640 more rows

Observe in the data viewer that the first 50 rows of replicate are equal to 1, the next 50 rows of replicate are equal to 2, and so on. The first 50 rows correspond to the first sample of 50 balls while the next 50 rows correspond to the second sample of 50 balls. This pattern continues for all reps = 33 replicates, and thus virtual_samples has 33 \(\cdot\) 50 = 1650 rows.

Using virtual_samples we find the proportion of red balls for each replicate. We use the same dplyr verbs as before. In particular, we add group_by() of the replicate variable. Recall from Section 3.4 that by assigning the grouping variable “meta-data” before summarize(), we perform the calculations needed for each replicate separately. The other line of code, as explained in the case of one sample, calculates the sample proportion of red balls. A preview of the first 10 rows is presented below:

virtual_prop_red <- virtual_samples |> 
  group_by(replicate) |> 
  summarize(prop_red = mean(color == "red")) 
virtual_prop_red

# A tibble: 33 × 2
   replicate prop_red
       <int>    <dbl>
 1         1     0.24
 2         2     0.46
 3         3     0.38
 4         4     0.36
 5         5     0.38
 6         6     0.3 
 7         7     0.42
 8         8     0.42
 9         9     0.32
10        10     0.48
# ℹ 23 more rows

Actually, the function rep_slice_sample() already groups the data by replicate, so it is not necessary to include group_by() in the code. Moreover, using dplyr pipes in R we could simplify the work and write everything at once:

using rep_slice_sample(), we have 33 replicates (each being a random sample of 50 balls) and

using summarize() with mean() on the Boolean values, we determine the proportion of red balls for each sample.

We store these proportions on the data frame virtual_prop_red and print the first 10 sample proportions (for the first 10 samples) as an illustration:

virtual_prop_red <- bowl |> 
  rep_slice_sample(n = 50, reps = 33) |>
  summarize(prop_red = mean(color == "red"))
virtual_prop_red

# A tibble: 33 × 2
   replicate prop_red
       <int>    <dbl>
 1         1     0.24
 2         2     0.46
 3         3     0.38
 4         4     0.36
 5         5     0.38
 6         6     0.3 
 7         7     0.42
 8         8     0.42
 9         9     0.32
10        10     0.48
# ℹ 23 more rows
…
(LC7.3) Why couldn’t we study the effects of sampling variation when we used the virtual shovel only once? Why did we need to take more than one virtual sample (in our case, 33 virtual samples)?

One thousand virtual samples

It was helpful to observe how sampling variation affects sample proportions in 33 samples. It was also interesting to note that while the 33 virtual samples provide different sample proportions than the 33 physical samples, the overall patterns were fairly similar. Because the samples were taken at random in both cases, any other set of 33 samples, virtual or physical, would provide a different set of sample proportions due to sampling variation, but the overall patterns would still be similar. Still, 33 samples are not enough to fully understand these patterns.

This is why we now study the sampling distribution and the effects of sampling variation with 1000 random samples. Trying to do this manually could be impractical but getting virtual samples can be done quickly and efficiently. Additionally, we have already developed the tools for this. We repeat the steps performed earlier using the rep_slice_sample() function with a sample size set to be 50. This time however, we set the number of replicates reps to 1000, and use summarize() and mean() again on the Boolean values to calculate the sample proportions. We compute virtual_prop_red with the count of red balls and the corresponding sample proportion for all 1000 random samples. The proportions for the first 10 samples are shown below:

virtual_prop_red <- bowl |> 
  rep_slice_sample(n = 50, reps = 1000) |> 
  summarize(prop_red = mean(color == "red"))
virtual_prop_red

# A tibble: 1,000 × 2
   replicate prop_red
       <int>    <dbl>
 1         1     0.24
 2         2     0.46
 3         3     0.38
 4         4     0.36
 5         5     0.38
 6         6     0.3 
 7         7     0.42
 8         8     0.42
 9         9     0.32
10        10     0.48
# ℹ 990 more rows
…
FIGURE 7.13: Three sampling distributions with population proportion \(p\) marked by vertical line.

The results shown seem to agree with the theory. We can further check, using the simulation results, by finding the average of the 1000 sample proportions. We start with the histogram on the left:

virtual_prop_red_25

# A tibble: 1,000 × 3
   replicate prop_red     n
       <int>    <dbl> <int>
 1         1     0.32    25
 2         2     0.24    25
 3         3     0.16    25
 4         4     0.32    25
 5         5     0.44    25
 6         6     0.36    25
 7         7     0.32    25
 8         8     0.36    25
 9         9     0.2     25
10        10     0.32    25
# ℹ 990 more rows
…
FIGURE 7.18: A bowl of chocolate-covered almonds.

For ease of exposition we refer to each chocolate-covered almond simply as an almond. We are now interested in the average weight in grams of all the almonds in the bowl; this is the population average weight or population mean weight.

7.4.1 The population mean weight of almonds in the bowl

The population of interest is given by all the almonds in the bowl. The bowl is represented virtually by the data frame almonds_bowl included in the moderndive package. The first ten rows are shown here for illustration purposes:

almonds_bowl

# A tibble: 5,000 × 2
      ID weight
   <int>  <dbl>
 1     1    3.8
 2     2    4.2
 3     3    3.2
 4     4    3.1
 5     5    4.1
 6     6    3.9
 7     7    3.4
 8     8    4.2
 9     9    3.5
10    10    3.4
# ℹ 4,990 more rows
…
The sample mean weight was not too far from the population mean weight of 3.64 grams. The difference between the statistic (sample mean weight) and the parameter (population mean weight) was due to sampling variation.

7.4.3 Virtual sampling

We now perform sampling virtually. The data frame almonds_bowl has 5000 rows, each representing an almond in the bowl. As we did in Section 7.1.3 we use again the rep_slice_sample() function to retrieve 1000 random samples with a sample size set to be 25, and with the number of replicates reps set to 1000. Be sure to scroll through the contents of virtual_samples in RStudio’s viewer.

virtual_samples_almonds <- almonds_bowl |> 
  rep_slice_sample(n = 25, reps = 1000)
virtual_samples_almonds

# A tibble: 25,000 × 3
# Groups:   replicate [1,000]
   replicate    ID weight
       <int> <int>  <dbl>
 1         1  3467    3.7
 2         1  3784    4.2
 3         1  4653    4.2
 4         1  2216    4.1
 5         1    98    3.5
 6         1  2286    3.6
 7         1  4597    3.6
 8         1  2385    4.3
 9         1  3959    3.7
10         1  1497    3.9
# ℹ 24,990 more rows

Observe that now virtual_samples_almonds has 1000 \(\cdot\) 25 = 25,000 rows. Using the appropriate data wrangling code, the virtual_mean_weight data frame produces the sample mean almond weight for each random sample, a total of 1000 sample means.

virtual_mean_weight <- virtual_samples_almonds |> 
  summarize(mean_weight = mean(weight))
virtual_mean_weight

# A tibble: 1,000 × 2
   replicate mean_weight
       <int>       <dbl>
 1         1        3.79
 2         2        3.45
 3         3        3.67
 4         4        3.5 
 5         5        3.67
 6         6        3.63
 7         7        3.62
 8         8        3.59
 9         9        3.56
10        10        3.78
# ℹ 990 more rows
…
Using random variables, we now let uppercase \(X_1\) to be the random variable that represents the weight of the first almond before it has been selected, \(X_2\) the weight of the second almond, and so on. These are random variables because they can take any possible almond weight value from the bowl.
After the first trial is completed, the value of \(X_1\) is realized as the weight in grams of the first almond selected. We can represent this value by the lowercase \(x_1\) as it is no longer a random variable but a number and we can write \(X_1 = x_1\). After the second trial is completed, \(X_2 = x_2\), where lowercase \(x_2\) is the observe almond weight, and so on.
Since our experiment is to perform 25 trials and then find the average of them, this average or mean, before the trials are carried out, can also be expressed as a random variable:

\[\overline X = \frac{X_1+X_2+\dots+X_{25}}{25}.\]

Observe that \(\overline X\) is the average, or mean, of these 25 trials. This is again why \(\overline X\) is called the sample mean. Recall that when dealing with proportions, the trials are Bernoulli trials, represented only with zeros or ones. In this context, sample proportions are a special case of sample means. The trials we use now are not restricted to zeros and ones, and the sample means are no longer sample proportions.

For example, let’s focus on the sample of 25 almond weights used earlier and their sample mean:

almonds_sample

# A tibble: 25 × 3
# Groups:   replicate [1]
   replicate    ID weight
       <int> <int>  <dbl>
 1         1  4645    3  
 2         1  3629    3.9
 3         1  4796    4  
 4         1  2669    3.8
 5         1  3488    4.3
 6         1   105    4.1
 7         1  1762    3.6
 8         1  1035    4.2
 9         1  4880    3.2
10         1   398    4  
# ℹ 15 more rows
…
virtual_prop_red <- bowl |> 
  rep_slice_sample(n = 50, reps = 1000) |> 
  summarize(prop_red = mean(color == "red"))
virtual_prop_almond <- almonds_bowl |>
  rep_slice_sample(n = 60, reps = 1000) |>
  summarize(prop_almond = mean(weight > 3.8))
prop_joined <- virtual_prop_red |>
  inner_join(virtual_prop_almond, by = "replicate") |>
  mutate(prop_diff = prop_red - prop_almond)

The results are stored in the data frame prop_joined. The variable prop_diff in this data frame represents the difference in sample proportions. We present here the first 10 values of this data frame:

prop_joined

# A tibble: 1,000 × 4
   replicate prop_red prop_almond prop_diff
       <int>    <dbl>       <dbl>     <dbl>
 1         1     0.24       0.45    -0.21  
 2         2     0.46       0.5     -0.0400
 3         3     0.38       0.35     0.0300
 4         4     0.36       0.433   -0.0733
 5         5     0.38       0.367    0.0133
 6         6     0.3        0.317   -0.0167
 7         7     0.42       0.383    0.0367
 8         8     0.42       0.483   -0.0633
 9         9     0.32       0.5     -0.18  
10        10     0.48       0.433    0.0467
# ℹ 990 more rows
…
