Chapter 3 Data Wrangling | Statistical Inference via Data Science
…
This code is identical to the previous code that created summary_windspeed, but with an extra group_by(month) added before the summarize(). Grouping the weather dataset by month and then applying the summarize() functions yields a data frame that displays the mean and standard deviation wind speed split by the 12 months of the year.

It is important to note that the group_by() function doesn’t change data frames by itself. Rather it changes the meta-data, or data about the data, specifically the grouping structure. Only after applying the summarize() function does the data frame change.

As another example, consider the diamonds data frame included in the ggplot2 package:

diamonds

# A tibble: 53,940 × 10
   carat cut       color clarity depth table price     x     y     z
   <dbl> <ord>     <ord> <ord>   <dbl> <dbl> <int> <dbl> <dbl> <dbl>
 1  0.23 Ideal     E     SI2      61.5    55   326  3.95  3.98  2.43
 2  0.21 Premium   E     SI1      59.8    61   326  3.89  3.84  2.31
 3  0.23 Good      E     VS1      56.9    65   327  4.05  4.07  2.31
 4  0.29 Premium   I     VS2      62.4    58   334  4.2   4.23  2.63
 5  0.31 Good      J     SI2      63.3    58   335  4.34  4.35  2.75
 6  0.24 Very Good J     VVS2     62.8    57   336  3.94  3.96  2.48
 7  0.24 Very Good I     VVS1     62.3    57   336  3.95  3.98  2.47
 8  0.26 Very Good H     SI1      61.9    55   337  4.07  4.11  2.53
 9  0.22 Fair      E     VS2      65.1    61   337  3.87  3.78  2.49
10  0.23 Very Good H     VS1      59.4    61   338  4     4.05  2.39
# ℹ 53,930 more rows

Observe that the first line of the output reads # A tibble: 53,940 x 10. This is an example of meta-data, in this case the number of observations/rows and variables/columns in diamonds. The actual data itself are the subsequent table of values. Now let’s pipe the diamonds data frame into group_by(cut):

diamonds |> 
  group_by(cut)

# A tibble: 53,940 × 10
# Groups:   cut [5]
   carat cut       color clarity depth table price     x     y     z
   <dbl> <ord>     <ord> <ord>   <dbl> <dbl> <int> <dbl> <dbl> <dbl>
 1  0.23 Ideal     E     SI2      61.5    55   326  3.95  3.98  2.43
 2  0.21 Premium   E     SI1      59.8    61   326  3.89  3.84  2.31
 3  0.23 Good      E     VS1      56.9    65   327  4.05  4.07  2.31
 4  0.29 Premium   I     VS2      62.4    58   334  4.2   4.23  2.63
 5  0.31 Good      J     SI2      63.3    58   335  4.34  4.35  2.75
 6  0.24 Very Good J     VVS2     62.8    57   336  3.94  3.96  2.48
 7  0.24 Very Good I     VVS1     62.3    57   336  3.95  3.98  2.47
 8  0.26 Very Good H     SI1      61.9    55   337  4.07  4.11  2.53
 9  0.22 Fair      E     VS2      65.1    61   337  3.87  3.78  2.49
10  0.23 Very Good H     VS1      59.4    61   338  4     4.05  2.39
# ℹ 53,930 more rows
…
If you would like to remove this grouping structure meta-data, we can pipe the resulting data frame into the ungroup() function:

diamonds |> 
  group_by(cut) |> 
  ungroup()

# A tibble: 53,940 × 10
   carat cut       color clarity depth table price     x     y     z
   <dbl> <ord>     <ord> <ord>   <dbl> <dbl> <int> <dbl> <dbl> <dbl>
 1  0.23 Ideal     E     SI2      61.5    55   326  3.95  3.98  2.43
 2  0.21 Premium   E     SI1      59.8    61   326  3.89  3.84  2.31
 3  0.23 Good      E     VS1      56.9    65   327  4.05  4.07  2.31
 4  0.29 Premium   I     VS2      62.4    58   334  4.2   4.23  2.63
 5  0.31 Good      J     SI2      63.3    58   335  4.34  4.35  2.75
 6  0.24 Very Good J     VVS2     62.8    57   336  3.94  3.96  2.48
 7  0.24 Very Good I     VVS1     62.3    57   336  3.95  3.98  2.47
 8  0.26 Very Good H     SI1      61.9    55   337  4.07  4.11  2.53
 9  0.22 Fair      E     VS2      65.1    61   337  3.87  3.78  2.49
10  0.23 Very Good H     VS1      59.4    61   338  4     4.05  2.39
# ℹ 53,930 more rows
…
Note that an additional message appears here specifying the grouping done. The .groups argument to summarize() has four options: drop_last, drop, keep, and rowwise:

drop_last drops the last grouping variable,

drop drops all grouping variables,

keep keeps all grouping variables, and

rowwise turns each row into a group.

In most circumstances, the default is drop_last which drops the last grouping variable. The message is informing us that the default behavior is to drop the last grouping variable, which in this case is month.

by_origin_monthly

# A tibble: 36 × 3
# Groups:   origin [3]
   origin month count
   <chr>  <int> <int>
 1 EWR        1 11623
 2 EWR        2 10991
 3 EWR        3 12593
 4 EWR        4 12022
 5 EWR        5 12371
 6 EWR        6 11339
 7 EWR        7 11646
 8 EWR        8 11561
 9 EWR        9 11373
10 EWR       10 11805
# ℹ 26 more rows
…
(LC3.12) What can we say about the distribution of gain? Describe it in a few sentences using the plot and the gain_summary data frame values.

3.6 arrange and sort rows

One of the most commonly performed data wrangling tasks is to sort a data frame’s rows in the alphanumeric order of one of the variables. The dplyr package’s arrange() function allows us to sort/reorder a data frame’s rows according to the values of the specified variable.

Suppose we are interested in determining the most frequent destination airports for all domestic flights departing from New York City in 2023:

freq_dest <- flights |> 
  group_by(dest) |> 
  summarize(num_flights = n())
freq_dest

# A tibble: 118 × 2
   dest  num_flights
   <chr>       <int>
 1 ABQ           228
 2 ACK           916
 3 AGS            20
 4 ALB          1581
 5 ANC            95
 6 ATL         17570
 7 AUS          4848
 8 AVL          1617
 9 AVP           145
10 BDL           701
# ℹ 108 more rows

Observe that by default the rows of the resulting freq_dest data frame are sorted in alphabetical order of destination. Say instead we would like to see the same data, but sorted from the most to the least number of flights (num_flights) instead:

freq_dest |> 
  arrange(num_flights)

# A tibble: 118 × 2
   dest  num_flights
   <chr>       <int>
 1 LEX             1
 2 AGS            20
 3 OGG            20
 4 SBN            24
 5 HDN            28
 6 PNS            71
 7 MTJ            77
 8 ANC            95
 9 VPS           109
10 AVP           145
# ℹ 108 more rows

This is, however, the opposite of what we want. The rows are sorted with the least frequent destination airports displayed first. This is because arrange() always returns rows sorted in ascending order by default. To switch the ordering to be in “descending” order instead, we use the desc() function as so:

freq_dest |> 
  arrange(desc(num_flights))

# A tibble: 118 × 2
   dest  num_flights
   <chr>       <int>
 1 BOS         19036
 2 ORD         18200
 3 MCO         17756
 4 ATL         17570
 5 MIA         16076
 6 LAX         15968
 7 FLL         14239
 8 CLT         12866
 9 DFW         11675
10 SFO         11651
# ℹ 108 more rows
…
flights_with_airport_names <- flights |> 
  inner_join(airports, by = c("dest" = "faa"))
View(flights_with_airport_names)

Let’s construct the chain of pipe operators |> that computes the number of flights from NYC to each destination, but also includes information about each destination airport:

named_dests <- flights |>
  group_by(dest) |>
  summarize(num_flights = n()) |>
  arrange(desc(num_flights)) |>
  inner_join(airports, by = c("dest" = "faa")) |>
  rename(airport_name = name)
named_dests

# A tibble: 114 × 9
   dest  num_flights airport_name                                          lat    lon   alt    tz dst   tzone           
   <chr>       <int> <chr>                                               <dbl>  <dbl> <dbl> <dbl> <chr> <chr>           
 1 BOS         19036 General Edward Lawrence Logan International Airport  42.4  -71.0    20    -5 A     America/New_York
 2 ORD         18200 Chicago O'Hare International Airport                 42.0  -87.9   672    -6 A     America/Chicago 
 3 MCO         17756 Orlando International Airport                        28.4  -81.3    96    -5 A     America/New_York
 4 ATL         17570 Hartsfield Jackson Atlanta International Airport     33.6  -84.4  1026    -5 A     America/New_York
 5 MIA         16076 Miami International Airport                          25.8  -80.3     8    -5 A     America/New_York
 6 LAX         15968 Los Angeles International Airport                    33.9 -118.    125    -8 A     America/Los_Ang…
 7 FLL         14239 Fort Lauderdale Hollywood International Airport      26.1  -80.2     9    -5 A     America/New_York
 8 CLT         12866 Charlotte Douglas International Airport              35.2  -80.9   748    -5 A     America/New_York
 9 DFW         11675 Dallas Fort Worth International Airport              32.9  -97.0   607    -6 A     America/Chicago 
10 SFO         11651 San Francisco International Airport                  37.6 -122.     13    -8 A     America/Los_Ang…
# ℹ 104 more rows
…
