11 Inference for Regression | An Introduction to Statistical and Data Sciences via R
…
11.1 Simulation-based Inference for Regression

We can also use the concept of permuting to determine the standard error of our null distribution and conduct a hypothesis test for a population slope. Let’s go back to our example on teacher evaluations Chapters 6 and 7. We’ll begin in the basic regression setting to test to see if we have evidence that a statistically significant positive relationship exists between teaching and beauty scores for the University of Texas professors. As we did in Chapter 6, teaching score will act as our outcome variable and bty_avg will be our explanatory variable. We will set up this hypothesis testing process as we have each before via the “There is Only One Test” diagram in Figure 10.1 using the infer package.

11.1.1 Data

Our data is stored in evals and we are focused on the measurements of the score and bty_avg variables there. Note that we don’t choose a subset of variables here since we will specify() the variables of interest using infer.

evals %>% 
  specify(score ~ bty_avg)

Response: score (numeric)
Explanatory: bty_avg (numeric)
# A tibble: 463 x 2
   score bty_avg
   <dbl>   <dbl>
 1   4.7    5   
 2   4.1    5   
 3   3.9    5   
 4   4.8    5   
 5   4.6    3   
 6   4.3    3   
 7   2.8    3   
 8   4.1    3.33
 9   3.4    3.33
10   4.5    3.17
# … with 453 more rows
…
