8 Sampling | An Introduction to Statistical and Data Sciences via R
…
8.3 Virtual sampling simulation

Now let’s mimic the above tactile sampling, but with virtual sampling. We’ll resort to virtual sampling because while collecting 33 tactile samples manually is feasible, for large numbers like 1000, things start getting tiresome! That’s where a computer can really help: computers excel at performing mundane tasks repeatedly; think of what accounting software must be like!

In other words:

Instead of considering the tactile bowl shown in Figure 8.1 above and using a tactile shovel to draw samples of size \(n=50\)

Let’s use a virtual bowl saved in a computer and use R’s random number generator as a virtual shovel to draw samples of size \(n=50\)

First, we describe our virtual bowl. In the moderndive package, we’ve included a data frame called bowl that has 2400 rows corresponding to the \(N=2400\) balls in the physical bowl. Run View(bowl) in RStudio to convince yourselves that bowl is indeed a virtual version of the tactile bowl in the previous section.

bowl

# A tibble: 2,400 x 2
   ball_ID color
     <int> <chr>
 1       1 white
 2       2 white
 3       3 white
 4       4 red  
 5       5 white
 6       6 white
 7       7 red  
 8       8 white
 9       9 red  
10      10 white
# … with 2,390 more rows
…
