9 Confidence Intervals | An Introduction to Statistical and Data Sciences via R
…
9.1 Bootstrapping

9.1.1 Data explanation

The moderndive package contains a sample of 40 pennies collected and minted in the United States. Let’s explore this sample data first:

pennies_sample

# A tibble: 40 x 2
    year age_in_2011
   <int>       <int>
 1  2005           6
 2  1981          30
 3  1977          34
 4  1992          19
 5  2005           6
 6  2006           5
 7  2000          11
 8  1992          19
 9  1988          23
10  1996          15
# … with 30 more rows
…
We’ve denoted this sample mean as \(\bar{x}\), which is the standard symbol for denoting the mean of a sample. Our point estimate is, thus, \(\bar{x} = 25.1\). Note that this is just one sample though providing just one guess at the population mean. What if we’d like to have another guess?

This should all sound similar to what we did in Chapter 8. There instead of collecting just a single scoop of balls we had many different students use the shovel to scoop different samples of red and white balls. We then calculated a sample statistic (the sample proportion) from each sample. But, we don’t have a population to pull from here with the pennies. We only have this one sample.

The process of bootstrapping allows us to use a single sample to generate many different samples that will act as our way of approximating a sampling distribution using a created bootstrap distribution instead. We will pull ourselves up from our bootstraps using a single sample (pennies_sample) to get an idea of the grander sampling distribution.

9.1.3 The Bootstrapping Process

Bootstrapping uses a process of sampling with replacement from our original sample to create new bootstrap samples of the same size as our original sample. We can again make use of the rep_sample_n() function to explore what one such bootstrap sample would look like. Remember that we are randomly sampling from the original sample here with replacement and that we always use the same sample size for the bootstrap samples as the size of the original sample (pennies_sample).

bootstrap_sample1 <- pennies_sample %>% 
  rep_sample_n(size = 40, replace = TRUE, reps = 1)
bootstrap_sample1

# A tibble: 40 x 3
# Groups:   replicate [1]
   replicate  year age_in_2011
       <int> <int>       <int>
 1         1  1983          28
 2         1  2000          11
 3         1  2004           7
 4         1  1981          30
 5         1  1993          18
 6         1  2006           5
 7         1  1981          30
 8         1  2004           7
 9         1  1992          19
10         1  1994          17
# … with 30 more rows
…
The specify() function is used primarily to choose which variables will be the focus of the statistical inference. In addition, a setting of which variable will act as the explanatory and which acts as the response variable is done here. For proportion problems to those in Chapter 8, we can also give which of the different levels we would like to have as a success. We’ll see further examples of these options in this chapter, Chapter 10, and in Appendix B.

To begin to create a confidence interval for the population mean age of US pennies in 2011, we start by using specify() to choose which variable in our pennies_sample data we’d like to work with. This can be done in one of two ways:

Using the response argument:

pennies_sample %>% 
  specify(response = age_in_2011)

Response: age_in_2011 (integer)
# A tibble: 40 x 1
   age_in_2011
         <int>
 1           6
 2          30
 3          34
 4          19
 5           6
 6           5
 7          11
 8          19
 9          23
10          15
# … with 30 more rows

Using formula notation:

pennies_sample %>% 
  specify(formula = age_in_2011 ~ NULL)

Response: age_in_2011 (integer)
# A tibble: 40 x 1
   age_in_2011
         <int>
 1           6
 2          30
 3          34
 4          19
 5           6
 6           5
 7          11
 8          19
 9          23
10          15
# … with 30 more rows
…
After specify()ing the variables we’d like in our inferential analysis, we next feed that into the generate() verb. The generate() verb’s main argument is reps, which is used to give how many different repetitions one would like to perform. Another argument here is type, which is automatically determined by the kinds of variables passed into specify(). We can also be explicit and set this type to be type = "bootstrap". This type argument will be further used in hypothesis testing in Chapter 10 as well. Make sure to check out ?generate to see the options here and use the ? operator to better understand other verbs as well.

Let’s generate() 1000 bootstrap samples:

thousand_bootstrap_samples <- pennies_sample %>% 
  specify(response = age_in_2011) %>% 
  generate(reps = 1000)

We can use the dplyr count() function to help us understand what the thousand_bootstrap_samples data frame looks like:

thousand_bootstrap_samples %>% count(replicate)

# A tibble: 1,000 x 2
# Groups:   replicate [1,000]
   replicate     n
       <int> <int>
 1         1    40
 2         2    40
 3         3    40
 4         4    40
 5         5    40
 6         6    40
 7         7    40
 8         8    40
 9         9    40
10        10    40
# … with 990 more rows
…
After generate()ing many different samples, we next want to condense those samples down into a single statistic for each replicated sample. As seen in the diagram, the calculate() function is helpful here.

As we did at the beginning of this chapter, we now want to calculate the mean age_in_2011 for each bootstrap sample. To do so, we use the stat argument and set it to "mean" below. The stat argument has a variety of different options here and we will see further examples of this throughout the remaining chapters.

bootstrap_distribution <- pennies_sample %>% 
  specify(response = age_in_2011) %>% 
  generate(reps = 1000) %>% 
  calculate(stat = "mean")
bootstrap_distribution

# A tibble: 1,000 x 2
   replicate  stat
       <int> <dbl>
 1         1  26.5
 2         2  25.4
 3         3  26.0
 4         4  26  
 5         5  25.2
 6         6  29.0
 7         7  22.8
 8         8  26.4
 9         9  24.9
10        10  28.1
# … with 990 more rows
…
Back to our pennies example

After this elaboration on what the level corresponds to in a confidence interval, let’s conclude by providing an interpretation of the original confidence interval result we found in Subsection 9.3.1.

Interpretation: We are 95% confident that the true mean age of pennies in circulation in 2011 is between 20.972 and 29.252 years. This level of confidence is based on the percentile-based method including the true mean 95% of the time if many different samples (not just the one we used) were collected and confidence intervals were created.

9.6 EXAMPLE: One proportion

Let’s revisit our exercise of trying to estimate the proportion of red balls in the bowl from Chapter 8. We are now interested in determining a confidence interval for population parameter \(p\), the proportion of balls that are red out of the total \(N = 2400\) red and white balls.

We will use the first sample reported from Ilyas and Yohan in Subsection 8.2.2 for our point estimate. They observed 21 red balls out of the 50 in their shovel. This data is stored in the tactile_shovel1 data frame in the moderndive package.

tactile_shovel1

# A tibble: 50 x 1
   color
   <chr>
 1 red  
 2 red  
 3 white
 4 red  
 5 white
 6 red  
 7 red  
 8 white
 9 red  
10 white
# … with 40 more rows
…
Figure 9.3: 100 confidence intervals based on 100 virtual samples of size n=50

We see that of our 100 confidence intervals based on samples of size \(n=50\), 96 of them captured the true \(p = 900/2400\), whereas 4 of them missed. As we create more and more confidence intervals based on more and more samples, about 95% of these intervals will capture. In other words our procedure is “95% reliable.”

Theoretical methods like this have largely been used in the past since we didn’t have the computing power to perform the simulation-based methods such as bootstrapping. They are still commonly used though and if the normality assumptions are met, they can provide a nice option for finding confidence intervals and performing hypothesis tests as we will see in Chapter 10.

9.7 EXAMPLE: Comparing two proportions

If you see someone else yawn, are you more likely to yawn? In an episode of the show Mythbusters, they tested the myth that yawning is contagious. The snippet from the show is available to view in the United States on the Discovery Network website here. More information about the episode is also available on IMDb here.

Fifty adults who thought they were being considered for an appearance on the show were interviewed by a show recruiter (“confederate”) who either yawned or did not. Participants then sat by themselves in a large van and were asked to wait. While in the van, the Mythbusters watched via hidden camera to see if the unaware participants yawned. The data frame containing the results is available at mythbusters_yawn in the moderndive package. Let’s check it out.

mythbusters_yawn

# A tibble: 50 x 3
    subj group   yawn 
   <int> <chr>   <chr>
 1     1 seed    yes  
 2     2 control yes  
 3     3 seed    no   
 4     4 seed    yes  
 5     5 seed    no   
 6     6 control no   
 7     7 seed    yes  
 8     8 control no   
 9     9 control no   
10    10 seed    no   
# … with 40 more rows
…
9.7.1 Compute the point estimate

mythbusters_yawn %>% 
  specify(formula = yawn ~ group)

Error: A level of the response variable `yawn` needs to be specified for the `success` argument in `specify()`.

Note that the success argument must be specified in situations such as this where the response variable has only two levels.

mythbusters_yawn %>% 
  specify(formula = yawn ~ group, success = "yes")

Response: yawn (factor)
Explanatory: group (factor)
# A tibble: 50 x 2
   yawn  group  
   <fct> <fct>  
 1 yes   seed   
 2 yes   control
 3 no    seed   
 4 yes   seed   
 5 no    seed   
 6 no    control
 7 yes   seed   
 8 no    control
 9 no    control
10 no    seed   
# … with 40 more rows
…
