Chapter 8 Sampling | Statistical Inference via Data Science
…
8.2 Computer simulation of sampling

What we performed in Section 8.1 is a simulation of sampling. In other words, we were not in a real-life sampling scenario in order to answer a real-life question, but rather we were mimicking such a scenario with our bowl and shovel. The crowd-sourced Wikipedia definition of simulation states: “A simulation is an approximate imitation of the operation of a process or system.” One example of simulations in practice is flight simulators: before pilots in training are allowed to fly an actual plane, they first practice on a computer that attempts to mimic the reality of flying an actual plane as best as possible.

Now you might be thinking that simulations must necessarily take place on a computer. However, this is not necessarily true. Take for example crash test dummies: before cars are made available to the market, automobile engineers test their safety by mimicking the reality for passengers of being in an automobile crash. To distinguish between these two simulation types, we’ll term a simulation performed in real-life as a “tactile” simulation done with your hands and to the touch as opposed to a “virtual” simulation performed on a computer.

So while in Section 8.1 we performed a “tactile” simulation of sampling using an actual bowl and an actual shovel with our hands, in this section we’ll perform a “virtual” simulation using a “virtual” bowl and a “virtual” shovel with our computers.

8.2.1 Using the virtual shovel once

Let’s start by performing the virtual analogue of the tactile sampling simulation we performed in 8.1. We first need a virtual analogue of the bowl seen in Figure 8.1. To this end, we included a data frame bowl in the moderndive package whose rows correspond exactly with the contents of the actual bowl.

bowl

# A tibble: 2,400 x 2
   ball_ID color
     <int> <chr>
 1       1 white
 2       2 white
 3       3 white
 4       4 red  
 5       5 white
 6       6 white
 7       7 red  
 8       8 white
 9       9 red  
10      10 white
# … with 2,390 more rows
…
1

1485

white

The ball_ID variable identifies which of the balls from bowl are included in our sample of 50 balls and color denotes its color. However what does the replicate variable indicate? In virtual_shovel’s case, replicate is equal to 1 for all 50 rows. This is telling us that these 50 rows correspond to a first repeated/replicated use of the shovel, in our case our first sample. We’ll see below when we “virtually” take 33 samples, replicate will take values between 1 and 33. Before we do this, let’s compute the proportion of balls in our virtual sample of size 50 that are red using the dplyr data wrangling verbs you learned in Chapter 4. Let’s breakdown the steps individually:

First, for each of our 50 sampled balls, identify if it is red using a test for equality using ==. For every row where color == "red", the Boolean TRUE is returned and for every row where color is not equal to "red", the Boolean FALSE is returned. Let’s create a new Boolean variable is_red using the mutate() function from Section 4.5:

virtual_shovel %>% 
  mutate(is_red = (color == "red"))

# A tibble: 50 x 4
# Groups:   replicate [1]
   replicate ball_ID color is_red
       <int>   <int> <chr> <lgl> 
 1         1    1970 white FALSE 
 2         1     842 red   TRUE  
 3         1    2287 white FALSE 
 4         1     599 white FALSE 
 5         1     108 white FALSE 
 6         1     846 red   TRUE  
 7         1     390 red   TRUE  
 8         1     344 white FALSE 
 9         1     910 white FALSE 
10         1    1485 white FALSE 
# … with 40 more rows
…
