D Learning Check Solutions | Statistical Inference via Data Science
…
(LC5.2) What makes “tidy” datasets useful for organizing data?

Solution: Tidy datasets are an organized way of viewing data. This format is required for the ggplot2 and dplyr packages for data visualization and wrangling.

(LC5.3) Take a look the airline_safety data frame included in the fivethirtyeight data. Run the following:

airline_safety

After reading the help file by running ?airline_safety, we see that airline_safety is a data frame containing information on different airlines companies’ safety records. This data was originally reported on the data journalism website FiveThirtyEight.com in Nate Silver’s article “Should Travelers Avoid Flying Airlines That Have Had Crashes in the Past?”. Let’s ignore the incl_reg_subsidiaries and avail_seat_km_per_week variables for simplicity:

airline_safety_smaller <- airline_safety %>% 
  select(-c(incl_reg_subsidiaries, avail_seat_km_per_week))
airline_safety_smaller

# A tibble: 56 x 7
   airline incidents_85_99 fatal_accidents… fatalities_85_99 incidents_00_14
   <chr>             <int>            <int>            <int>           <int>
 1 Aer Li…               2                0                0               0
 2 Aerofl…              76               14              128               6
 3 Aeroli…               6                0                0               1
 4 Aerome…               3                1               64               5
 5 Air Ca…               2                0                0               2
 6 Air Fr…              14                4               79               6
 7 Air In…               2                1              329               4
 8 Air Ne…               3                0                0               5
 9 Alaska…               5                0                0               5
10 Alital…               7                2               50               4
# … with 46 more rows, and 2 more variables: fatal_accidents_00_14 <int>,
#   fatalities_00_14 <int>

This data frame is not in “tidy” format. How would you convert this data frame to be in “tidy” format, in particular so that it has a variable incident_type_years indicating the indicent type/year and a variable count of the counts?

Solution: Using the gather() function from the tidyr package:

airline_safety_smaller_tidy <- airline_safety_smaller %>% 
  gather(key = incident_type_years, value = count, -airline)
airline_safety_smaller_tidy

# A tibble: 336 x 3
   airline               incident_type_years count
   <chr>                 <chr>               <int>
 1 Aer Lingus            incidents_85_99         2
 2 Aeroflot              incidents_85_99        76
 3 Aerolineas Argentinas incidents_85_99         6
 4 Aeromexico            incidents_85_99         3
 5 Air Canada            incidents_85_99         2
 6 Air France            incidents_85_99        14
 7 Air India             incidents_85_99         2
 8 Air New Zealand       incidents_85_99         3
 9 Alaska Airlines       incidents_85_99         5
10 Alitalia              incidents_85_99         7
# … with 326 more rows
…
