Chapter 10 Hypothesis Testing | Statistical Inference via Data Science
…
10.1.1 Does gender affect promotions at bank?

Say you are working at a bank in the 1970’s and you are submitting your resume to apply for a promotion. Will your gender affect your chances of getting promoted? To answer this question, we’ll focus on a study published in the “Journal of Applied Psychology” in 1974 and previously used in the OpenIntro series of statistics textbooks.

To begin the study, 48 bank supervisors were asked to assume the role of a hypothetical personnel director of a bank with multiple branches. Every one of the bank supervisors was given a resume and asked whether or not the candidate on the resume was fit to be promoted to a new position in one of their branches.

However, each of these 48 resumes were identical in all respects except one: the name of the applicant at the top of the resume. 24 of the supervisors were randomly given resumes with stereotypically “male” names while 24 of the supervisors were randomly given resumes with stereotypically “female” names. Since only (binary) gender varied from resume to resume, researchers could isolate the effect of this variable in promotion rates.

Note: While many people today (including the authors) disagree with such a binary view of gender, it is important to remember that this study was conducted at a time where more nuanced views of gender were not as prevalent. Despite this imperfection, we decided to still use this example as we feel it still demonstrates relevant insight about the nature of the workplace.

The moderndive package contains the data on the 48 applicants in the promotions data frame. Let’s explore this data first:

promotions

# A tibble: 48 x 3
      id decision gender
   <int> <fct>    <fct> 
 1     1 promoted male  
 2     2 promoted male  
 3     3 promoted male  
 4     4 promoted male  
 5     5 promoted male  
 6     6 promoted male  
 7     7 promoted male  
 8     8 promoted male  
 9     9 promoted male  
10    10 promoted male  
# … with 38 more rows
…
FIGURE 10.3: Shuffling deck cards.

We’ve saved one such shuffling/permutation in the promotions_shuffled data frame of the moderndive package. If you view both the original promotions and the shuffled promotions_shuffled data frames and compare them, you’ll see that while the decision variables are identical, the gender variables are indeed different.

promotions_shuffled

# A tibble: 48 x 3
      id decision gender
   <int> <fct>    <fct> 
 1     1 promoted female
 2     2 promoted female
 3     3 promoted male  
 4     4 promoted female
 5     5 promoted male  
 6     6 promoted male  
 7     7 promoted male  
 8     8 promoted female
 9     9 promoted male  
10    10 promoted female
# … with 38 more rows
…
Furthermore, we’ll use a pre-specified significance level \(\alpha\) = 0.001 for this hypothesis test. Let’s leave the justification of this choice of \(\alpha\) until later on in Section 10.4.

10.3.1 infer package workflow

1. specify variables

Recall that we use the specify()  verb to denote the response and, if needed, explanatory variables for our study. In this case, since we are interested in any potential effects of gender on promotion decisions, we set decision as the response variable and gender as the explanatory variable using the formula argument using the notation <response> ~ <explanatory> where <response> is the name of the response variable in the data frame and <explanatory> is the name of the explanatory variable. So in our case it is decision ~ gender. Lastly, since we are interested in the proportions of resumes "promoted" and not proportions of resumes not promoted, we set the argument success = "promoted"

promotions %>% 
  specify(formula = decision ~ gender, success = "promoted")

Response: decision (factor)
Explanatory: gender (factor)
# A tibble: 48 x 2
   decision gender
   <fct>    <fct> 
 1 promoted male  
 2 promoted male  
 3 promoted male  
 4 promoted male  
 5 promoted male  
 6 promoted male  
 7 promoted male  
 8 promoted male  
 9 promoted male  
10 promoted male  
# … with 38 more rows
…
In other words, the null hypothesis \(H_0\) corresponding to our “hypothesized universe” stated that there was no difference in gender-based discrimination rates. We set this null hypothesis \(H_0\) in our infer workflow by setting the null argument of the hypothesize() function to either:

"point" for hypotheses involving a single sample or

"independence" for hypotheses involving two samples

In our case, since we have two samples (the “male” and “female” applicants), we set null = "independence".

promotions %>% 
  specify(formula = decision ~ gender, success = "promoted") %>% 
  hypothesize(null = "independence")

# A tibble: 48 x 2
   decision gender
   <fct>    <fct> 
 1 promoted male  
 2 promoted male  
 3 promoted male  
 4 promoted male  
 5 promoted male  
 6 promoted male  
 7 promoted male  
 8 promoted male  
 9 promoted male  
10 promoted male  
# … with 38 more rows
…
The term “independence” relates to the fact that for two groups of observations, you are testing whether or not the response variable is independent of the explanatory variable that assigns the group. In our case, we are testing whether the decision response variable is “independent” of the explanatory variable gender that assigns each resume to either one of the two groups.

3. generate replicates

After we have set the null hypothesis, we simulate observations assuming the null hypothesis is true by repeating the shuffling exercise you performed in Section 10.1 several times. Instead of merely doing it 16 times as our groups of friends did, let’s use the computer to repeat this 1000 times by setting reps = 1000 in the generate()  function. However, unlike with confidence intervals where we generated replicates using type = "bootstrap" resampling with replacement, we’ll now perform shuffles/permutations by setting type = "permute". Recall that shuffles/permutations are a form of resampling without replacement.

promotions %>% 
  specify(formula = decision ~ gender, success = "promoted") %>% 
  hypothesize(null = "independence") %>% 
  generate(reps = 1000, type = "permute")

Response: decision (factor)
Explanatory: gender (factor)
Null Hypothesis: independence
# A tibble: 48,000 x 3
# Groups:   replicate [1,000]
   decision gender replicate
   <fct>    <fct>      <int>
 1 promoted male           1
 2 not      male           1
 3 promoted male           1
 4 promoted female         1
 5 promoted female         1
 6 promoted female         1
 7 promoted female         1
 8 promoted female         1
 9 promoted female         1
10 not      female         1
# … with 47,990 more rows
…
4. calculate summary statistics

Now that we have 1000 replicated “shuffles” assuming the null hypothesis that both “male” and “female” applicants were promoted at the same rate, let’s calculate()  the appropriate summary statistic for each of our 1000 shuffles. Recall from Section 10.2 that point estimates/summary statistics relating to hypothesis testing have a specific name: test statistics. Since the unknown population parameter of interest is the difference in population proportions \(p_{m} - p_{f}\), the test statistic of interest here is the difference in sample proportions \(\widehat{p}_{m} - \widehat{p}_{f}\).

For each of our 1000 shuffles, we can calculate this test statistic by setting stat = "diff in props". Furthermore, since we are interested in \(\widehat{p}_{m} - \widehat{p}_{f}\) and not the reverse-ordered \(\widehat{p}_{f} - \widehat{p}_{m}\), we set order = c("male", "female"). Let’s save the result in a data frame called null_distribution:

null_distribution <- promotions %>% 
  specify(formula = decision ~ gender, success = "promoted") %>% 
  hypothesize(null = "independence") %>% 
  generate(reps = 1000, type = "permute") %>% 
  calculate(stat = "diff in props", order = c("male", "female"))
null_distribution

# A tibble: 1,000 x 2
   replicate       stat
       <int>      <dbl>
 1         1 -0.208333 
 2         2  0.291667 
 3         3  0.125    
 4         4 -0.208333 
 5         5 -0.125    
 6         6  0.0416667
 7         7 -0.0416667
 8         8  0.291667 
 9         9  0.0416667
10        10  0.125    
# … with 990 more rows
…
(LC10.7) What is the purpose of hypothesis testing?

(LC10.8) What are some flaws with hypothesis testing? How could we alleviate them?

10.5 Case study: Are action or romance movies rated higher?

Let’s apply our knowledge of hypothesis testing to answer the question: “Are action or romance movies rated higher on IMDb?” IMDb is an internet movie database providing information on movie and television show casts, plot summaries, trivia, and ratings. We’ll investigate if on average action or romance movies get a higher rating on IMDb.

10.5.1 IMDb ratings data

The movies dataset in the ggplot2movies package contains information on 58,788 movies that have been rated by users of IMDB.com.

movies

# A tibble: 58,788 x 24
   title  year length budget rating votes    r1    r2    r3    r4    r5    r6
   <chr> <int>  <int>  <int>  <dbl> <int> <dbl> <dbl> <dbl> <dbl> <dbl> <dbl>
 1 $      1971    121     NA  6.4     348   4.5   4.5   4.5   4.5  14.5  24.5
 2 $100…  1939     71     NA  6        20   0    14.5   4.5  24.5  14.5  14.5
 3 $21 …  1941      7     NA  8.200     5   0     0     0     0     0    24.5
 4 $40,…  1996     70     NA  8.200     6  14.5   0     0     0     0     0  
 5 $50,…  1975     71     NA  3.4      17  24.5   4.5   0    14.5  14.5   4.5
 6 $pent  2000     91     NA  4.3      45   4.5   4.5   4.5  14.5  14.5  14.5
 7 $win…  2002     93     NA  5.3     200   4.5   0     4.5   4.5  24.5  24.5
 8 '15'   2002     25     NA  6.7      24   4.5   4.5   4.5   4.5   4.5  14.5
 9 '38    1987     97     NA  6.6      18   4.5   4.5   4.5   0     0     0  
10 '49-…  1917     61     NA  6        51   4.5   0     4.5   4.5   4.5  44.5
# … with 58,778 more rows, and 12 more variables: r7 <dbl>, r8 <dbl>, r9 <dbl>,
#   r10 <dbl>, mpaa <chr>, Action <int>, Animation <int>, Comedy <int>,
#   Drama <int>, Documentary <int>, Romance <int>, Short <int>

We’ll focus on a random sample of 68 movies that are classified as either “action” or “romance” movies but not both. We disregard movies that are classified as both so that we can assign all 68 movies into either category. Furthermore, since the original movies dataset was a little messy, we provided a pre-wrangled version of our data in the movies_sample data frame included in the moderndive package (you can look at the code to do this data wrangling here):

movies_sample

# A tibble: 68 x 4
   title                     year rating genre  
   <chr>                    <int>  <dbl> <chr>  
 1 Underworld                1985    3.1 Action 
 2 Love Affair               1932    6.3 Romance
 3 Junglee                   1961    6.8 Romance
 4 Eversmile, New Jersey     1989    5   Romance
 5 Search and Destroy        1979    4   Action 
 6 Secreto de Romelia, El    1988    4.9 Romance
 7 Amants du Pont-Neuf, Les  1991    7.4 Romance
 8 Illicit Dreams            1995    3.5 Action 
 9 Kabhi Kabhie              1976    7.7 Romance
10 Electric Horseman, The    1979    5.8 Romance
# … with 58 more rows
…
In other words, the null hypothesis \(H_0\) suggests that both romance and action movies have the same mean rating. This is the “hypothesized universe” we’ll assume is true. The alternative hypothesis \(H_A\) suggests on the other hand that there is a difference. Note that unlike the one-sided alternative we used in the promotions exercise \(H_a: p_m - p_f > 0\), we are now considering a two-sided alternative of \(H_A: \mu_a - \mu_r \neq 0\).

Furthermore, we’ll pre-specify a relatively high significance level \(\alpha\) = 0.2. By setting this value high, all things being equal there is a higher chance that the p-value will be less than this value, and thus there is a higher chance that we’ll reject the null hypothesis \(H_0\) in favor of the alternative hypothesis \(H_A\). In other words, we’ll reject the hypothesis that there is no difference in mean ratings for all action and romance movies even if we only have mild evidence.

1. specify variables

We first specify() the variables of interest in the movies_sample data frame using the rating ~ genre. This tells infer that the numerical variable rating is the outcome variable while the binary categorical variable genre is the explanatory variable. Note here however, than unlike when we are interested in proportions, since we are interested in the mean of a numerical variable, we do not need to set the success argument.

movies_sample %>% 
  specify(formula = rating ~ genre)

Response: rating (numeric)
Explanatory: genre (factor)
# A tibble: 68 x 2
   rating genre  
    <dbl> <fct>  
 1    3.1 Action 
 2    6.3 Romance
 3    6.8 Romance
 4    5   Romance
 5    4   Action 
 6    4.9 Romance
 7    7.4 Romance
 8    3.5 Action 
 9    7.7 Romance
10    5.8 Romance
# … with 58 more rows

2. hypothesize the null

We set the null hypothesis \(H_0: \mu_a - \mu_r = 0\) by using the hypothesize() function. Since we have two samples, the action and romance movies, we set null = "independence" as we described in Section 10.3.

movies_sample %>% 
  specify(formula = rating ~ genre) %>% 
  hypothesize(null = "independence")

# A tibble: 68 x 2
   rating genre  
    <dbl> <fct>  
 1    3.1 Action 
 2    6.3 Romance
 3    6.8 Romance
 4    5   Romance
 5    4   Action 
 6    4.9 Romance
 7    7.4 Romance
 8    3.5 Action 
 9    7.7 Romance
10    5.8 Romance
# … with 58 more rows

3. generate replicates

After we have set the null hypothesis, we simulate observations assuming the null hypothesis is true by repeating the shuffling/permutation exercise you performed in Section 10.1. We’ll repeat this resampling of type = "permute" a total of reps = 1000 times .

movies_sample %>% 
  specify(formula = rating ~ genre) %>% 
  hypothesize(null = "independence") %>% 
  generate(reps = 1000, type = "permute")

Response: rating (numeric)
Explanatory: genre (factor)
Null Hypothesis: independence
# A tibble: 68,000 x 3
# Groups:   replicate [1,000]
   rating genre   replicate
    <dbl> <fct>       <int>
 1  4.4   Action          1
 2  5.2   Romance         1
 3  7.3   Romance         1
 4  4.9   Romance         1
 5  4.100 Action          1
 6  7.4   Romance         1
 7  5     Romance         1
 8  5.100 Action          1
 9  4.4   Romance         1
10  8     Romance         1
# … with 67,990 more rows
…
4. calculate summary statistics

Now that we have 1000 replicated “shuffles” assuming the null hypothesis that both Action and Romance movies on average have the same ratings on IMDb, let’s calculate() the appropriate summary statistic for each of our 1000 shuffles. Recall from Section 10.2 that point estimates/summary statistics relating to hypothesis testing have a specific name: test statistics. Since the unknown population parameter of interest is the difference in population means \(\mu_{a} - \mu_{r}\), the test statistic of interest here is the difference in sample means \(\overline{x}_{a} - \overline{x}_{r}\).

For each of our 1000 shuffles, we can calculate this test statistic by setting stat = "diff in means". Furthermore, since we are interested in \(\overline{x}_{a} - \overline{x}_{r}\) and not the reverse-ordered \(\overline{x}_{r} - \overline{x}_{a}\), we set order = c("Action", "Romance"). Let’s save the result in a data frame called null_distribution_movies:

null_distribution_movies <- movies_sample %>% 
  specify(formula = rating ~ genre) %>% 
  hypothesize(null = "independence") %>% 
  generate(reps = 1000, type = "permute") %>% 
  calculate(stat = "diff in means", order = c("Action", "Romance"))
null_distribution_movies

# A tibble: 1,000 x 2
   replicate      stat
       <int>     <dbl>
 1         1 -0.923264
 2         2  0.363542
 3         3  0.404861
 4         4  0.463889
 5         5 -0.610417
 6         6 -0.279861
 7         7 -0.262153
 8         8 -0.291667
 9         9 -0.114583
10        10  0.398958
# … with 990 more rows
…
