Chapter 5 Data Importing & “Tidy” Data | Statistical Inference via Data Science
…
An Excel .xlsx file. This format is based on Microsoft’s proprietary Excel software. As opposed to a bare-bones .csv files, .xlsx Excel files contain a lot of meta-data, or put more simply, data about the data. (Recall we saw a previous example of meta-data in Section 4.4 when adding “group structure” meta-data to a data frame by using the group_by() verb.) Some examples of spreadsheet meta-data include the use of bold and italic fonts, colored cells, different column widths, and formula macros.

A Google Sheets file, which is a “cloud” or online-based way to work with a spreadsheet. Google Sheets allows you to download your data in both comma separated values .csv and Excel .xlsx formats however: go to the Google Sheets menu bar -> File -> Download as -> Select “Microsoft Excel” or “Comma-separated values.”

We’ll cover two methods for importing .csv and .xlsx spreadsheet data in R: one using the R console and the other using RStudio’s graphical user interface, abbreviated a GUI.

5.1.1 Using the console

First, let’s import a Comma Separated Values .csv file of data directly off the internet. The .csv file dem_score.csv accessible at https://moderndive.com/data/dem_score.csv contains ratings of the level of democracy in different countries spanning 1952 to 1992. Let’s use the read_csv() function from the readr  package to read it off the web, import it into R, and save it in a data frame called dem_score.

library(readr)
dem_score <- read_csv("https://moderndive.com/data/dem_score.csv")
dem_score

# A tibble: 96 x 10
   country    `1952` `1957` `1962` `1967` `1972` `1977` `1982` `1987` `1992`
   <chr>       <dbl>  <dbl>  <dbl>  <dbl>  <dbl>  <dbl>  <dbl>  <dbl>  <dbl>
 1 Albania        -9     -9     -9     -9     -9     -9     -9     -9      5
 2 Argentina      -9     -1     -1     -9     -9     -9     -8      8      7
 3 Armenia        -9     -7     -7     -7     -7     -7     -7     -7      7
 4 Australia      10     10     10     10     10     10     10     10     10
 5 Austria        10     10     10     10     10     10     10     10     10
 6 Azerbaijan     -9     -7     -7     -7     -7     -7     -7     -7      1
 7 Belarus        -9     -7     -7     -7     -7     -7     -7     -7      7
 8 Belgium        10     10     10     10     10     10     10     10     10
 9 Bhutan        -10    -10    -10    -10    -10    -10    -10    -10    -10
10 Bolivia        -4     -3     -3     -4     -7     -7      8      9      9
# … with 86 more rows
…
FIGURE 5.1: Reading in an Excel file to R.

After clicking on the “Import”  button on the bottom right RStudio, RStudio will save this spreadsheet’s data in a data frame called dem_score and display its contents in the spreadsheet viewer. Furthermore, note in the bottom right of the above image there exists a “Code Preview”: you can copy and paste this code to reload your data again later automatically instead of repeating the above manual point-and-click process.

5.2 Tidy data

Let’s now switch gears and learn about the concept of “tidy” data format by starting with a motivating example. Let’s consider the drinks data frame included in the fivethirtyeight data. Run the following:

drinks

# A tibble: 193 x 5
   country      beer_servings spirit_servings wine_servings total_litres_of_pur…
   <chr>                <int>           <int>         <int>                <dbl>
 1 Afghanistan              0               0             0                  0  
 2 Albania                 89             132            54                  4.9
 3 Algeria                 25               0            14                  0.7
 4 Andorra                245             138           312                 12.4
 5 Angola                 217              57            45                  5.9
 6 Antigua & B…           102             128            45                  4.9
 7 Argentina              193              25           221                  8.3
 8 Armenia                 21             179            11                  3.8
 9 Australia              261              72           212                 10.4
10 Austria                279              75           191                  9.7
# … with 183 more rows
…
Converting “wide” format data to “tidy” format often confuses new R users. The only way to learn to get comfortable with the gather() function is with practice, practice, and more practice. For example, see the examples in the bottom of the help file for gather() by running ?gather. We’ll show another example of using gather() to convert a “wide” formatted data frame to “tidy” format in Section 5.3. For other examples of converting a dataset into “tidy” format, check out the different functions available for data tidying and a case study using data from the World Health Organization in R for Data Science (Grolemund and Wickham 2016).

Learning check

(LC5.3) Take a look the airline_safety data frame included in the fivethirtyeight data package. Run the following:

airline_safety

After reading the help file by running ?airline_safety, we see that airline_safety is a data frame containing information on different airlines companies’ safety records. This data was originally reported on the data journalism website FiveThirtyEight.com in Nate Silver’s article “Should Travelers Avoid Flying Airlines That Have Had Crashes in the Past?”. Let’s ignore the incl_reg_subsidiaries and avail_seat_km_per_week variables for simplicity:

airline_safety_smaller <- airline_safety %>% 
  select(-c(incl_reg_subsidiaries, avail_seat_km_per_week))
airline_safety_smaller

# A tibble: 56 x 7
   airline incidents_85_99 fatal_accidents… fatalities_85_99 incidents_00_14
   <chr>             <int>            <int>            <int>           <int>
 1 Aer Li…               2                0                0               0
 2 Aerofl…              76               14              128               6
 3 Aeroli…               6                0                0               1
 4 Aerome…               3                1               64               5
 5 Air Ca…               2                0                0               2
 6 Air Fr…              14                4               79               6
 7 Air In…               2                1              329               4
 8 Air Ne…               3                0                0               5
 9 Alaska…               5                0                0               5
10 Alital…               7                2               50               4
# … with 46 more rows, and 2 more variables: fatal_accidents_00_14 <int>,
#   fatalities_00_14 <int>
…
