ModernDive
…
(LC5.7) What can we say about the distribution of gain? Describe it in a few sentences using the plot and the gain_summary data frame values.

5.2.4 Reorder the data frame using arrange

As you may have thought about with the data frames we’ve worked with so far in the book, one of the most common things you’d like to do is sort the data frames by a specific column. Have you ever been asked to calculate a median by hand? This requires you to put the data in order from smallest to highest in value. The dplyr package has a function called arrange that we will use to sort/reorder our data according to the values of the specified variable. This is most frequently used after we have used the group_by and summarize functions as we will see.

Let’s suppose we were interested in determining the most frequent destination airports from New York City in 2013:

freq_dest <- flights %>% 
  group_by(dest) %>% 
  summarize(num_flights = n())
freq_dest

## # A tibble: 105 × 2
##     dest num_flights
##    <chr>       <int>
## 1    ABQ         254
## 2    ACK         265
## 3    ALB         439
## 4    ANC           8
## 5    ATL       17215
## 6    AUS        2439
## 7    AVL         275
## 8    BDL         443
## 9    BGR         375
## 10   BHM         297
## # ... with 95 more rows

You’ll see that by default the values of dest are displayed in alphabetical order here. Remember to use View() in the R Console to look at all the values of freq_dest in spreadsheet format. We are interested in finding those airports that appear most:

freq_dest %>% 
  arrange(num_flights)

## # A tibble: 105 × 2
##     dest num_flights
##    <chr>       <int>
## 1    LEX           1
## 2    LGA           1
## 3    ANC           8
## 4    SBN          10
## 5    HDN          15
## 6    MTJ          15
## 7    EYW          17
## 8    PSP          19
## 9    JAC          25
## 10   BZN          36
## # ... with 95 more rows

This is actually giving us the opposite of what we are looking for. It tells us the least frequent destination airports first. To switch the ordering to be descending instead of ascending we use the desc function:

freq_dest %>% 
  arrange(desc(num_flights))

## # A tibble: 105 × 2
##     dest num_flights
##    <chr>       <int>
## 1    ORD       17283
## 2    ATL       17215
## 3    LAX       16174
## 4    BOS       15508
## 5    MCO       14082
## 6    CLT       14064
## 7    SFO       13331
## 8    FLL       12055
## 9    MIA       11728
## 10   DCA        9705
## # ... with 95 more rows
…
We see from View(airports) that airports contains a lot of other information about 1458. We are only really interested here in the faa and name columns. Let’s use the select function to only use those variables:

airports_small <- airports %>% select(faa, name)

So if we identify the names of the airports we can use the inner_join function to bring two different data frames together. Note that we will also rename the subsequent column name as airport_name:

named_freq_dests <- flights %>%
  group_by(dest) %>%
  summarize(num_flights = n()) %>%
  arrange(desc(num_flights)) %>%
  inner_join(airports_small, by = c("dest" = "faa")) %>%
  rename(airport_name = name)
named_freq_dests

## # A tibble: 101 × 3
##     dest num_flights                       airport_name
##    <chr>       <int>                              <chr>
## 1    ORD       17283                 Chicago Ohare Intl
## 2    ATL       17215    Hartsfield Jackson Atlanta Intl
## 3    LAX       16174                   Los Angeles Intl
## 4    BOS       15508 General Edward Lawrence Logan Intl
## 5    MCO       14082                       Orlando Intl
## 6    CLT       14064             Charlotte Douglas Intl
## 7    SFO       13331                 San Francisco Intl
## 8    FLL       12055     Fort Lauderdale Hollywood Intl
## 9    MIA       11728                         Miami Intl
## 10   DCA        9705      Ronald Reagan Washington Natl
## # ... with 91 more rows
…
##  [1] "month"          "day"            "dep_time"       "sched_dep_time"
##  [5] "dep_delay"      "arr_time"       "sched_arr_time" "arr_delay"     
##  [9] "carrier"        "flight"         "tailnum"        "origin"        
## [13] "dest"           "air_time"       "distance"       "hour"          
## [17] "minute"         "time_hour"

The names function gives a listing of all the columns in a data frame. We see that year has been removed. This was done using a - in front of the name of the column we’d like to remove.

We could also select specific columns (instead of deselecting columns) by listing them out:

flight_dep_times <- flights %>% 
  select(month, day, dep_time, sched_dep_time)
flight_dep_times

## # A tibble: 336,776 × 4
##    month   day dep_time sched_dep_time
##    <int> <int>    <int>          <int>
## 1      1     1      517            515
## 2      1     1      533            529
## 3      1     1      542            540
## 4      1     1      544            545
## 5      1     1      554            600
## 6      1     1      554            558
## 7      1     1      555            600
## 8      1     1      557            600
## 9      1     1      557            600
## 10     1     1      558            600
## # ... with 336,766 more rows

Or we could specify a ranges of columns:

flight_arr_times <- flights %>% 
  select(month:day, arr_time:sched_arr_time)
flight_arr_times

## # A tibble: 336,776 × 4
##    month   day arr_time sched_arr_time
##    <int> <int>    <int>          <int>
## 1      1     1      830            819
## 2      1     1      850            830
## 3      1     1      923            850
## 4      1     1     1004           1022
## 5      1     1      812            837
## 6      1     1      740            728
## 7      1     1      913            854
## 8      1     1      709            723
## 9      1     1      838            846
## 10     1     1      753            745
## # ... with 336,766 more rows
…
##  [1] "month"          "day"            "hour"           "minute"        
##  [5] "time_hour"      "year"           "dep_time"       "sched_dep_time"
##  [9] "dep_delay"      "arr_time"       "sched_arr_time" "arr_delay"     
## [13] "carrier"        "flight"         "tailnum"        "origin"        
## [17] "dest"           "air_time"       "distance"

Lastly, the helper functions starts_with, ends_with, and contains can be used to choose column names that match those conditions:

flights_begin_a <- flights %>% 
  select(starts_with("a"))
flights_begin_a

## # A tibble: 336,776 × 3
##    arr_time arr_delay air_time
##       <int>     <dbl>    <dbl>
## 1       830        11      227
## 2       850        20      227
## 3       923        33      160
## 4      1004       -18      183
## 5       812       -25      116
## 6       740        12      150
## 7       913        19      158
## 8       709       -14       53
## 9       838        -8      140
## 10      753         8      138
## # ... with 336,766 more rows

flights_delays <- flights %>% 
  select(ends_with("delay"))
flights_delays

## # A tibble: 336,776 × 2
##    dep_delay arr_delay
##        <dbl>     <dbl>
## 1          2        11
## 2          4        20
## 3          2        33
## 4         -1       -18
## 5         -6       -25
## 6         -4        12
## 7         -5        19
## 8         -3       -14
## 9         -3        -8
## 10        -2         8
## # ... with 336,766 more rows

flights_time <- flights %>% 
  select(contains("time"))
flights_time

## # A tibble: 336,776 × 6
##    dep_time sched_dep_time arr_time sched_arr_time air_time
##       <int>          <int>    <int>          <int>    <dbl>
## 1       517            515      830            819      227
## 2       533            529      850            830      227
## 3       542            540      923            850      160
## 4       544            545     1004           1022      183
## 5       554            600      812            837      116
## 6       554            558      740            728      150
## 7       555            600      913            854      158
## 8       557            600      709            723       53
## 9       557            600      838            846      140
## 10      558            600      753            745      138
## # ... with 336,766 more rows, and 1 more variables: time_hour <dttm>
…
