Chapter 9 Bootstrapping and Confidence Intervals | Statistical Inference via Data Science
…
FIGURE 9.3: 50 US pennies labelled.

The moderndive  package contains this data on our 50 sampled pennies. Let’s explore this sample data first:

pennies_sample

# A tibble: 50 x 2
      ID  year
   <int> <dbl>
 1     1  2002
 2     2  1986
 3     3  2017
 4     4  1988
 5     5  2008
 6     6  1983
 7     7  2008
 8     8  1996
 9     9  2004
10    10  2000
# … with 40 more rows
…
FIGURE 9.11: Snapshot of shared spreadsheet of resampled pennies.

For your convenience, we’ve taken these 35 \(\times\) 50 = 1750 values and saved them in virtual_resamples, a “tidy” data frame included in the moderndive package:

pennies_resamples

# A tibble: 1,750 x 3
   replicate name   year
       <int> <chr> <dbl>
 1         1 A      1988
 2         1 A      2002
 3         1 A      2015
 4         1 A      1998
 5         1 A      1979
 6         1 A      1971
 7         1 A      1971
 8         1 A      2015
 9         1 A      1988
10         1 A      1979
# … with 1,740 more rows

What did each of our 35 friends obtain as the mean year? dplyr to the rescue once more! After grouping the rows by name, we summarize each group of rows with their mean year:

resampled_means <- pennies_resamples %>% 
  group_by(name) %>% 
  summarize(mean_year = mean(year))
resampled_means

# A tibble: 35 x 2
   name  mean_year
   <chr>     <dbl>
 1 A       1992.5 
 2 AA      1995.86
 3 B       1996.42
 4 BB      1992.4 
 5 C       1996.32
 6 CC      1995.88
 7 D       1996.9 
 8 DD      1997.46
 9 E       1991.22
10 EE      1998.44
# … with 25 more rows
…
As when we did our tactile resampling, the resulting mean year is different than that mean year of our 50 originally sampled pennies of 1995.44.

9.2.2 Virtually resampling 35 times

Let’s now have 35 virtual friends perform our virtual resampling exercise. Using these results, we’ll be able to study the variability in the sample means from 35 resamples of size 50. Let’s first add a reps = 35 argument to rep_sample_n()  to indicate we would like 35 replicates, or in other words, repeat the resampling with the replacement of 50 pennies 35 times.

virtual_resamples <- pennies_sample %>% 
  rep_sample_n(size = 50, replace = TRUE, reps = 35)
virtual_resamples

# A tibble: 1,750 x 3
# Groups:   replicate [35]
   replicate    ID  year
       <int> <int> <dbl>
 1         1    21  1981
 2         1    34  1985
 3         1     4  1988
 4         1    11  1994
 5         1    26  1979
 6         1     8  1996
 7         1    19  1983
 8         1    21  1981
 9         1    49  2006
10         1     2  1986
# … with 1,740 more rows

The resulting virtual_resamples data frame has 35 \(\times\) 50 = 1750 rows corresponding to 35 resamples of 50 pennies. What did each of our 35 virtual friends obtain as the mean year? We’ll use the same dplyr verbs as we did in the previous section, but computing the mean for each of our virtual friends separately by adding a group_by(replicate):

virtual_resampled_means <- virtual_resamples %>% 
  group_by(replicate) %>% 
  summarize(mean_year = mean(year))
virtual_resampled_means

# A tibble: 35 x 2
   replicate mean_year
       <int>     <dbl>
 1         1   1995.58
 2         2   1999.74
 3         3   1993.7 
 4         4   1997.1 
 5         5   1999.42
 6         6   1995.12
 7         7   1994.94
 8         8   1997.78
 9         9   1991.26
10        10   1996.88
# … with 25 more rows
…
# Compute 1000 sample means
virtual_resampled_means <- virtual_resamples %>% 
  group_by(replicate) %>% 
  summarize(mean_year = mean(year))

However, in the interest of brevity, going forward let’s combine the above two operations into a single chain of %>% pipe operators:

virtual_resampled_means <- pennies_sample %>% 
  rep_sample_n(size = 50, replace = TRUE, reps = 1000) %>% 
  group_by(replicate) %>% 
  summarize(mean_year = mean(year))
virtual_resampled_means

# A tibble: 1,000 x 2
   replicate mean_year
       <int>     <dbl>
 1         1   1992.6 
 2         2   1994.78
 3         3   1994.74
 4         4   1997.88
 5         5   1990   
 6         6   1999.48
 7         7   1990.26
 8         8   1993.2 
 9         9   1994.88
10        10   1996.3 
# … with 990 more rows
…
FIGURE 9.19: Diagram of specify() variables.

The specify()  function is used to choose which variables in a data frame will be the focus of the statistical inference. We do this by specifying the response argument. For example, in our pennies_sample data frame of the 50 pennies sampled from the bank, the variable of interest is year:

pennies_sample %>% 
  specify(response = year)

Response: year (numeric)
# A tibble: 50 x 1
    year
   <dbl>
 1  2002
 2  1986
 3  2017
 4  1988
 5  2008
 6  1983
 7  2008
 8  1996
 9  2004
10  2000
# … with 40 more rows
…
FIGURE 9.20: Diagram of generate() replicates.

After we specify() the variables of interest, we pipe the results into the generate() function to generate resampling replicates, or in other words, repeat the resampling process a large number of times. The generate()  function’s first argument is reps, which is used to give how many different repetitions one would like to perform. The second argument type determines the type of resampling we’d like to perform.

In our case, since we want to resample the 50 pennies in pennies_sample with replacement 1000 times, we set reps = 1000 and type = "bootstrap" indicating that we want to perform bootstrap resampling.

pennies_sample %>% 
  specify(response = year) %>% 
  generate(reps = 1000, type = "bootstrap")

Response: year (numeric)
# A tibble: 50,000 x 2
# Groups:   replicate [1,000]
   replicate  year
       <int> <dbl>
 1         1  1996
 2         1  1988
 3         1  1979
 4         1  1978
 5         1  1983
 6         1  1981
 7         1  1993
 8         1  1996
 9         1  1992
10         1  1978
# … with 49,990 more rows
…
FIGURE 9.21: Diagram of calculate() summary statistics.

After we generate() many replicates of bootstrap resampling with replacement, we next want to condense each of 1000 resamples of size 50 to a single statistic value. As seen in the diagram, the calculate()  function does this.

In our case as we did earlier, we want to calculate the mean year for each bootstrap resample of size 50. To do so, we set the stat argument to "mean". You can also set the stat argument to a variety of other common summary statistics, like "median", "sum", "sd" (standard deviation), and "prop" (proportion); we’ll see examples of their use throughout the remaining chapters. Let’s save the result in a data frame called bootstrap_distribution:

bootstrap_distribution <- pennies_sample %>% 
  specify(response = year) %>% 
  generate(reps = 1000) %>% 
  calculate(stat = "mean")
bootstrap_distribution

# A tibble: 1,000 x 2
   replicate    stat
       <int>   <dbl>
 1         1 1993.48
 2         2 1993.8 
 3         3 1996.88
 4         4 1995.34
 5         5 1996.98
 6         6 1995.72
 7         7 1995.36
 8         8 1992.6 
 9         9 1994.24
10        10 1993.16
# … with 990 more rows
…
At this point you might be asking yourself: If we already know that \(p\) = 0.375 = 37.5% of the bowl’s balls are red, then why are we sampling to estimate this value, to begin with? Your skepticism is merited! Recall from Section 8.2, that this was virtual “simulation” used to study sampling. In any real-world setting, however, we would not know the value of the population proportion \(p\) and hence we have no choice but use sampling to estimate it.

Bringing the discussion back to confidence intervals constructed based on samples from the bowl, we have to ask ourselves: Does the interval include \(p\) = 0.375 = 37.5% or not? Alternatively, going back to our “fishing with a spear” versus “fishing with a net” analogy from Section 9.3, we have to ask ourselves: Did our net capture the fish or not?

9.5.1 Did the net capture the fish?

Recall from in Table 8.1 that we had 33 groups of friends repeat this sampling simulation, each taking samples of size 50 from the bowl and compute the sample proportion of red \(\widehat{p}\), resulting in 33 such estimates of \(p\). Let’s focus on Ilyas and Yohan’s sample in Table 8.1 where they observed 21 red balls out of the 50 in their shovel, in other words, their sample proportion \(\widehat{p}\) = 21/50 = 0.42 = 42%. This data is stored in the bowl_sample_1 data frame in the moderndive package:

bowl_sample_1

# A tibble: 50 x 1
   color
   <chr>
 1 white
 2 white
 3 red  
 4 red  
 5 white
 6 white
 7 red  
 8 white
 9 white
10 white
# … with 40 more rows
…
First, we specify() the response variable of interest color:

bowl_sample_1 %>% 
  specify(response = color)

Error: A level of the response variable `color` needs to be specified for the `success`
argument in `specify()`.

Whoops! We need to define which event is of interest! red or white balls? Since we are interested in proportions red, let’s set success to be "red":

bowl_sample_1 %>% 
  specify(response = color, success = "red")

Response: color (factor)
# A tibble: 50 x 1
   color
   <fct>
 1 white
 2 white
 3 red  
 4 red  
 5 white
 6 white
 7 red  
 8 white
 9 white
10 white
# … with 40 more rows
…
Note the resulting data frame has 50,000 rows. This is because we performed resampling of 50 balls with replacement 1000 times and thus 50,000 = 1000 \(\times\) 50. Accordingly, the variable replicate, indicating which resample each row belongs to, has the value 1 50 times, the value 2 50 times, all the way through to the value 1000 50 times. Recall generating 1000 replicates means we are repeating the resampling 1000 times so that we can study the sampling variation from resampling to resample!

3. calculate summary statistics

Third, we summarize each of 1000 resamples of size 50 with their proportion of “successes”, in other words, the proportion of the balls that are "red". Let’s save the result in a data frame called sample_1_bootstrap:

sample_1_bootstrap <- bowl_sample_1 %>% 
  specify(response = color, success = "red") %>% 
  generate(reps = 1000, type = "bootstrap") %>% 
  calculate(stat = "prop")
sample_1_bootstrap

# A tibble: 1,000 x 2
   replicate  stat
       <int> <dbl>
 1         1  0.36
 2         2  0.42
 3         3  0.52
 4         4  0.38
 5         5  0.38
 6         6  0.38
 7         7  0.46
 8         8  0.3 
 9         9  0.5 
10        10  0.46
# … with 990 more rows
…
FIGURE 9.28: Bootstrap distribution.

Did Ilyas and Yohan’s net capture the fish? In other words, did the 95% confidence interval for \(p\) based on the 50 balls they sampled contain the true value of \(p\), the population proportion of the bowl’s balls that are red? Yes! 0.375 is between the endpoints of our confidence interval (0.28, 0.54).

However, will every 95% confidence interval for \(p\) capture this value? In other words, if we had a different sample of size 50 and constructed a confidence interval using the same method, would we be guaranteed that it contained the population proportion \(p\) as well? Let’s study the effect of sampling variation by randomly sampling another 50 balls from our virtual bowl using our virtual shovel:

bowl_sample_2 <- bowl %>% 
  rep_sample_n(size = 50)
bowl_sample_2

# A tibble: 50 x 3
# Groups:   replicate [1]
   replicate ball_ID color
       <int>   <int> <chr>
 1         1    1665 red  
 2         1    1312 red  
 3         1    2105 red  
 4         1     810 white
 5         1     189 white
 6         1    1429 white
 7         1    2294 red  
 8         1    1233 white
 9         1    1951 white
10         1    2061 white
# … with 40 more rows

Let’s perform the same steps of the infer pipeline we did on bowl_sample_1 to generate another 95% confidence interval for \(p\) based on the new sample of 50 balls in bowl_sample_2. First we create the bootstrap distribution of the sample proportion \(\widehat{p}\) and save the results in sample_2_bootstrap:

sample_2_bootstrap <- bowl_sample_2 %>% 
  specify(response = color, success = "red") %>% 
  generate(reps = 1000, type = "bootstrap") %>% 
  calculate(stat = "prop")
sample_2_bootstrap

# A tibble: 1,000 x 2
   replicate  stat
       <int> <dbl>
 1         1  0.36
 2         2  0.38
 3         3  0.42
 4         4  0.26
 5         5  0.5 
 6         6  0.32
 7         7  0.4 
 8         8  0.32
 9         9  0.5 
10        10  0.44
# … with 990 more rows
…
We visualized these results in Figure 8.15 where we compared the sampling distributions for \(\widehat{p}\) based on samples of size \(n\) equal 25, 50, 100. Furthermore, we could quantify the spread of these sampling distributions using their standard deviation, which as a special name: the standard error. As the sample size increases, the standard error decreases.

In fact, the standard error is a related factor in confidence interval width, which we explore in Subsection 9.7.2 when we discuss theoretically constructed confidence intervals using mathematical formulas.

9.6 Case study: Is yawning contagious?

Let’s apply our knowledge of confidence intervals to answer the question: “Is yawning contagious?” If you see someone else yawn, are you more likely to yawn? In an episode of the US show Mythbusters, the hosts conducted an experiment to answer this question. The episode is available to view in the United States on the Discovery Network website here and more information about the episode is also available on IMDb.

9.6.1 Mythbusters study data

Fifty adult participants who thought they were being considered for an appearance on the show were interviewed by a show recruiter who either yawned or did not. Participants then sat by themselves in a large van and were asked to wait. While in the van, the Mythbusters watched via hidden camera to see if the participants yawned. The data frame containing the results is available in the mythbusters_yawn data frame included in the moderndive package: 

mythbusters_yawn

# A tibble: 50 x 3
    subj group   yawn 
   <int> <chr>   <chr>
 1     1 seed    yes  
 2     2 control yes  
 3     3 seed    no   
 4     4 seed    yes  
 5     5 seed    no   
 6     6 control no   
 7     7 seed    yes  
 8     8 control no   
 9     9 control no   
10    10 seed    no   
# … with 40 more rows
…
mythbusters_yawn %>% 
  specify(formula = yawn ~ group)

Error: A level of the response variable `yawn` needs to be 
specified for the `success` argument in `specify()`.

Alas, we got an error message. infer is telling us that one of the levels of the categorical variable yawn needs to be defined as the success, or the event of interest we are trying to count and compute proportions. Are we interested in those participants who "yes" yawned or are we interested in those participants who "no" didn’t yawn? This isn’t clear. So we set the success argument to "yes" as follows:

mythbusters_yawn %>% 
  specify(formula = yawn ~ group, success = "yes")

Response: yawn (factor)
Explanatory: group (factor)
# A tibble: 50 x 2
   yawn  group  
   <fct> <fct>  
 1 yes   seed   
 2 yes   control
 3 no    seed   
 4 yes   seed   
 5 no    seed   
 6 no    control
 7 yes   seed   
 8 no    control
 9 no    control
10 no    seed   
# … with 40 more rows
…
We can see that in this bootstrap sample generated from the first six rows of mythbusters_yawn, we have some rows repeated. The same is true when we perform the generate() step in infer as done below. Next, we generate 1000 replicates, or in other words, we bootstrap resample the 50 participants with replacement 1000 times. This is what will inject sampling variation into our results.

mythbusters_yawn %>% 
  specify(formula = yawn ~ group, success = "yes") %>% 
  generate(reps = 1000, type = "bootstrap")

Response: yawn (factor)
Explanatory: group (factor)
# A tibble: 50,000 x 3
# Groups:   replicate [1,000]
   replicate yawn  group  
       <int> <fct> <fct>  
 1         1 no    seed   
 2         1 no    seed   
 3         1 yes   control
 4         1 yes   seed   
 5         1 no    control
 6         1 yes   seed   
 7         1 no    control
 8         1 no    seed   
 9         1 no    seed   
10         1 no    seed   
# … with 49,990 more rows
…
Error: Statistic is based on a difference; specify the `order` in which to
subtract the levels of the explanatory variable.

We see another error here. We need to specify the order of the subtraction. Is it \(\widehat{p}_{seed} - \widehat{p}_{control}\) or \(\widehat{p}_{control} - \widehat{p}_{seed}\). We specify it to be \(\widehat{p}_{seed} - \widehat{p}_{control}\) by setting order = c("seed", "control"). You can also set order = c("control", "seed"); it makes no difference in the analysis. However, whatever order you choose, it is important to stay consistent throughout your analysis.

Let’s save the output in a data frame bootstrap_distribution_yawning:

bootstrap_distribution_yawning <- mythbusters_yawn %>% 
  specify(formula = yawn ~ group, success = "yes") %>% 
  generate(reps = 1000, type = "bootstrap") %>% 
  calculate(stat = "diff in props", order = c("seed", "control"))
bootstrap_distribution_yawning

# A tibble: 1,000 x 2
   replicate       stat
       <int>      <dbl>
 1         1 -0.0213904
 2         2  0.0459770
 3         3  0        
 4         4 -0.0129870
 5         5  0.326765 
 6         6  0.122807 
 7         7  0.293718 
 8         8  0.0761905
 9         9  0.0679117
10        10 -0.0231729
# … with 990 more rows
…
Right endpoint of the confidence interval upper_ci

conf_ints <- tactile_prop_red %>% 
  rename(p_hat = prop_red) %>% 
  mutate(
    n = 50,
    SE = sqrt(p_hat * (1 - p_hat) / n),
    MoE = 1.96 * SE,
    lower_ci = p_hat - MoE,
    upper_ci = p_hat + MoE
  )
conf_ints

# A tibble: 33 x 9
   group    replicate red_balls p_hat     n        SE      MoE lower_ci upper_ci
   <chr>        <int>     <int> <dbl> <dbl>     <dbl>    <dbl>    <dbl>    <dbl>
 1 Ilyas, …         1        21  0.42    50 0.0697997 0.136807 0.283193 0.556807
 2 Morgan,…         2        17  0.34    50 0.0669925 0.131305 0.208695 0.471305
 3 Martin,…         3        21  0.42    50 0.0697997 0.136807 0.283193 0.556807
 4 Clark, …         4        21  0.42    50 0.0697997 0.136807 0.283193 0.556807
 5 Riddhi,…         5        18  0.36    50 0.0678823 0.133049 0.226951 0.493049
 6 Andrew,…         6        19  0.38    50 0.0686440 0.134542 0.245458 0.514542
 7 Julia            7        19  0.38    50 0.0686440 0.134542 0.245458 0.514542
 8 Rachel,…         8        11  0.22    50 0.0585833 0.114823 0.105177 0.334823
 9 Daniel,…         9        15  0.3     50 0.0648074 0.127023 0.172977 0.427023
10 Josh, M…        10        17  0.34    50 0.0669925 0.131305 0.208695 0.471305
# … with 23 more rows
…
