ModernDive
…
(LC5.12) What can we say about the distribution of gain? Describe it in a few sentences using the plot and the gain_summary data frame values.

5.2.5 5MV#5: Reorder the data frame using arrange

As you may have thought about with the data frames we’ve worked with so far in the book, one of the most common things you’d like to do is sort the data frames by a specific variable in a column. Have you ever been asked to calculate a median by hand? This requires you to put the data in order from smallest to highest in value. The dplyr package has a function called arrange that we will use to sort/reorder our data according to the values of the specified variable. This is often used after we have used the group_by and summarize functions as we will see.

Let’s suppose we were interested in determining the most frequent destination airports from New York City in 2013:

freq_dest <- flights %>% 
  group_by(dest) %>% 
  summarize(num_flights = n())
freq_dest

## # A tibble: 105 x 2
##     dest num_flights
##    <chr>       <int>
##  1   ABQ         254
##  2   ACK         265
##  3   ALB         439
##  4   ANC           8
##  5   ATL       17215
##  6   AUS        2439
##  7   AVL         275
##  8   BDL         443
##  9   BGR         375
## 10   BHM         297
## # ... with 95 more rows

You’ll see that by default the values of dest are displayed in alphabetical order here. We are interested in finding those airports that appear most:

freq_dest %>% arrange(num_flights)

## # A tibble: 105 x 2
##     dest num_flights
##    <chr>       <int>
##  1   LEX           1
##  2   LGA           1
##  3   ANC           8
##  4   SBN          10
##  5   HDN          15
##  6   MTJ          15
##  7   EYW          17
##  8   PSP          19
##  9   JAC          25
## 10   BZN          36
## # ... with 95 more rows

This is actually giving us the opposite of what we are looking for. It tells us the least frequent destination airports first. To switch the ordering to be descending instead of ascending we use the desc function:

freq_dest %>% arrange(desc(num_flights))

## # A tibble: 105 x 2
##     dest num_flights
##    <chr>       <int>
##  1   ORD       17283
##  2   ATL       17215
##  3   LAX       16174
##  4   BOS       15508
##  5   MCO       14082
##  6   CLT       14064
##  7   SFO       13331
##  8   FLL       12055
##  9   MIA       11728
## 10   DCA        9705
## # ... with 95 more rows
…
