Chapter 10 Hypothesis Testing | Statistical Inference via Data Science
…
We will be looking to analyze “Are men and women rated for promotions differently?” We note again here as we did in Section 7.1 that this study from 1974 only focused on the gender binary of "male" and "female". We proceed with the example here to help to motivate the concepts of hypothesis testing via an interesting social question, but we again understand that a segment of our readers will not be included in this binary gender classification.

This data from this study in the “Journal of Applied Psychology” has been loaded into the moderndive package as gender_promotions. The study looks into different personnel decisions including promotion, professional development, and whether or not a grant a leave of absence based on gender. For our purposes, we will focus on the promotion portion based on the decisions from 48 male bank supervisors in 1972.

To begin the study, the bank supervisors were asked to assume the role of a hypothetical personnel director of a bank with multiple branches. Every one of the bank supervisors was given a resume and asked whether or not the candidate on the resume was fit to be promoted to a new position in one of their branches. Each of these resumes was the same in terms of content and style with the only difference being that of the name at the top of the resume.

It was hypothesized based on other studies at the time and commonly held assumptions that male supervisors were more likely to grant male candidates promotions than female candidates. Does this study also back up this claim? Or does it not provide evidence that there is a difference in the proportion of males and females promoted based on reviews by male supervisors?

10.1.2 What did we actually observe?

The moderndive package contains data from this 1974 study on the role of binary gender on promotions at banks in the gender_promotions data frame. Let’s look at what the data shows in this sample as a table using the janitor package we saw in Section 9.7.

gender_promotions

# A tibble: 48 x 3
      id decision gender
   <int> <fct>    <fct> 
 1     1 promoted female
 2     2 not      female
 3     3 not      female
 4     4 promoted male  
 5     5 promoted male  
 6     6 promoted male  
 7     7 promoted male  
 8     8 promoted male  
 9     9 promoted female
10    10 promoted male  
# … with 38 more rows
…
Remember that our goal here is to generate many different samples, assuming the null hypothesis is true. In doing so we will create a null distribution. This null distribution is similar to what we have seen so far with the sampling distribution in Chapter 8 and the bootstrap distribution in Chapter 9. Here though we have one more condition to apply in that we assume the null hypothesis is true, thus where the name of the null distribution comes from. The null distribution is still used to look at the variability from one sample to the next, but now we are interested in seeing where what we actually saw would fall on the “chance distribution.” In doing so, we’ll have a good sense for whether random chance is a good explanation for seeing the results in our observed sample or if there is something else going on which better aligns with \(H_a\), the alternative hypothesis.

Let’s explore the infer pipeline one more time here:

Choose the variables of interest

We use the specify() verb to denote the response and, if needed, explanatory variables for our study. In this case, we are investigating decision as the response variable and gender as the explanatory variable. Recall that for the formula argument we use the notation <response> ~ <explanatory> where <response> is the name of the response variable in the data frame and <explanatory> is the name of the explanatory variable. Note also the importance of including which of the two levels here "promoted" or "not" is what we are defining as a success from the decision (response) variable.

gender_promotions %>% 
  specify(formula = decision ~ gender, success = "promoted")

Response: decision (factor)
Explanatory: gender (factor)
# A tibble: 48 x 2
   decision gender
   <fct>    <fct> 
 1 promoted female
 2 not      female
 3 not      female
 4 promoted male  
 5 promoted male  
 6 promoted male  
 7 promoted male  
 8 promoted male  
 9 promoted female
10 promoted male  
# … with 38 more rows

Set the model for the null hypothesis

The next step after specify() for hypothesis tests is a new one: hypothesize(). Here the argument null gives which type of null hypothesis we are working with. In this case, we are testing for the independence of the two variables so we set null = "independence".

gender_promotions %>% 
  specify(formula = decision ~ gender, success = "promoted")
  hypothesize(null = "independence")

# A tibble: 48 x 2
   decision gender
   <fct>    <fct> 
 1 promoted female
 2 not      female
 3 not      female
 4 promoted male  
 5 promoted male  
 6 promoted male  
 7 promoted male  
 8 promoted male  
 9 promoted female
10 promoted male  
# … with 38 more rows

Replicate samples assuming the null hypothesis is true

After we have set the model for the null hypothesis, we simulate the null hypothesis being true by permuting our original sample in much the same way as we did with index cards in Section 10.1. We’ll now let the computer do this shuffling many times. Let’s use the 1000 reps argument we’ve used before in the generate() verb, but this time generating permutations with type = "permute" instead of type = "bootstrap" that we used previously for confidence intervals in Chapter 9.

gender_promotions %>% 
  specify(formula = decision ~ gender, success = "promoted")
  hypothesize(null = "independence") %>% 
  generate(reps = 1000, type = "permute")

Response: decision (factor)
Explanatory: gender (factor)
Null Hypothesis: independence
# A tibble: 48,000 x 3
# Groups:   replicate [1,000]
   decision gender replicate
   <fct>    <fct>      <int>
 1 promoted female         1
 2 promoted female         1
 3 not      female         1
 4 promoted male           1
 5 promoted male           1
 6 promoted male           1
 7 promoted male           1
 8 promoted male           1
 9 promoted female         1
10 promoted male           1
# … with 47,990 more rows

Compute the statistic for each replicate

Now that we have 1000 replicated samples assuming the null hypothesis of independence of the two variables decision and gender, we calculate() the difference in proportions ("diff in props") for each permutation. We finish this step by including the order in which we’d like to take the difference. In this case, we’ve chosen \(`male` - `female`\).

null_distribution_two_props <- gender_promotions %>% 
  specify(formula = decision ~ gender, success = "promoted")
  hypothesize(null = "independence") %>% 
  generate(reps = 1000, type = "permute") %>% 
  calculate(stat = "diff in props", order = c("male", "female"))
null_distribution_two_props

# A tibble: 1,000 x 2
   replicate       stat
       <int>      <dbl>
 1         1  0.0416667
 2         2  0.0416667
 3         3 -0.125    
 4         4  0.0416667
 5         5  0.0416667
 6         6 -0.125    
 7         7  0.125    
 8         8  0.0416667
 9         9  0.208333 
10        10  0.0416667
# … with 990 more rows
…
