Chapter 10 Inference for Regression | Statistical Inference via Data Science
…
10.1.3 Using a sample for inference

As we did in Chapters 8 and 9, we use a sample to estimate the parameters in the population.
We use data collected from the Old Faithful Geyser in Yellowstone National Park in Wyoming, USA.
This dataset contains the duration of the geyser eruption in seconds and the waiting time to the next eruption in minutes.
The duration of the current eruption can help determine fairly well the waiting time to the next eruption.
For this example, we use a sample of data collected by volunteers and saved on the website https://geysertimes.org/ between June 1st, 2024 and August 19th, 2024.
These data are stored in the old_faithful_2024 data frame in the moderndive package.
While data collected by volunteers are not a random sample, as the volunteers could introduce some sort of bias, the eruptions selected by the volunteers had no specific patterns.
Further, beyond the individual skill of each volunteer measuring the times appropriately, no response bias or preference seems to be present.
Therefore, for illustration purposes, it seems safe to consider the data a random sample. The first ten rows are shown here:

old_faithful_2024

# A tibble: 114 × 6
   eruption_id date        time waiting webcam duration
         <dbl> <date>     <dbl>   <dbl> <chr>     <dbl>
 1     1473854 2024-08-19   538     180 Yes         235
 2     1473352 2024-08-15  1541     184 Yes         259
 3     1473337 2024-08-15  1425     116 Yes         137
 4     1473334 2024-08-15  1237     188 Yes         222
 5     1473331 2024-08-15  1131     106 Yes         105
 6     1473328 2024-08-15   944     187 Yes         180
 7     1473207 2024-08-14  1231     182 Yes         244
 8     1473201 2024-08-14  1041     190 Yes         278
 9     1473137 2024-08-13  1810     138 Yes         249
10     1473108 2024-08-13  1624     186 Yes         262
# ℹ 104 more rows
…
FIGURE 10.4: Example of observed value, fitted value, and residual.

We can obtain all the \(n = 114\) residuals by applying the get_regression_points() function to the regression model model_1.
Observe how the resulting values of residual are roughly equal to waiting - waiting_hat (there may be a slight difference due to rounding error).

# Fit regression model:
model_1 <- lm(waiting ~ duration, data = old_faithful_2024)
# Get regression points:
fitted_and_residuals <- get_regression_points(model_1)
fitted_and_residuals

# A tibble: 114 × 5
      ID waiting duration waiting_hat residual
   <int>   <dbl>    <dbl>       <dbl>    <dbl>
 1     1     180      235     166.666   13.334
 2     2     184      259     175.572    8.428
 3     3     116      137     130.299  -14.299
 4     4     188      222     161.842   26.158
 5     5     106      105     118.424  -12.424
 6     6     187      180     146.256   40.744
 7     7     182      244     170.006   11.994
 8     8     190      278     182.623    7.377
 9     9     138      249     171.861  -33.861
10    10     186      262     176.686    9.314
# ℹ 104 more rows
…
We plan to regress total_cup_points (response variable) on the numerical explanatory variables aroma, flavor, and moisture_percentage and the categorical explanatory variable with four categories; Africa, Asia, North America, and South America.
Before proceeding, we construct a new data frame called coffee_data by keeping the variables of interest.
In addition, the variable continent_of_origin has been read into R with type character, and we want to make it type factor.
We do this by using dplyr verbs and including the command as.factor() inside mutate() to make continent_of_origin a factor with the ordering of "Africa", "Asia", "North America", and "South America".

coffee_data <- coffee_quality |>
  select(aroma, flavor, moisture_percentage, 
         continent_of_origin, total_cup_points) |>
  mutate(continent_of_origin = as.factor(continent_of_origin))

The first ten rows of coffee_data are shown here for illustration purposes:

coffee_data

# A tibble: 207 × 5
   aroma flavor moisture_percentage continent_of_origin total_cup_points
   <dbl>  <dbl>               <dbl> <fct>                          <dbl>
 1  8.58   8.5                 11.8 South America                  89.33
 2  8.5    8.5                 10.5 Asia                           87.58
 3  8.33   8.42                10.4 Asia                           87.42
 4  8.08   8.17                11.8 North America                  87.17
 5  8.33   8.33                11.6 South America                  87.08
 6  8.33   8.33                10.7 North America                  87   
 7  8.33   8.17                 9.1 Asia                           86.92
 8  8.25   8.25                10   Asia                           86.75
 9  8.08   8.08                10.8 Asia                           86.67
10  8.08   8.17                11   Africa                         86.5 
# ℹ 197 more rows
…
calculate() the summary statistic of interest: the fitted slope \(b_1\).

Using this bootstrap distribution, we’ll construct the 95% confidence interval using the percentile method and (if appropriate) the standard error method as well. It is important to note in this case that the bootstrapping with replacement is done row-by-row. Thus, the original pairs of waiting and duration values are always kept together, but different pairs of waiting and duration values may be resampled multiple times. The resulting confidence interval will denote a range of plausible values for the unknown population slope \(\beta_1\) quantifying the relationship between waiting times and duration for Old Faithful eruptions.

Let’s first construct the bootstrap distribution for the fitted slope \(b_1\):

bootstrap_distn_slope <- old_faithful_2024 %>% 
  specify(formula = waiting ~ duration) %>%
  generate(reps = 1000, type = "bootstrap") %>% 
  calculate(stat = "slope")
bootstrap_distn_slope

Response: waiting (numeric)
Explanatory: duration (numeric)
# A tibble: 1,000 × 2
   replicate     stat
       <int>    <dbl>
 1         1 0.334197
 2         2 0.331819
 3         3 0.385334
 4         4 0.380571
 5         5 0.369226
 6         6 0.370921
 7         7 0.337145
 8         8 0.417517
 9         9 0.343136
10        10 0.359239
# ℹ 990 more rows
…
