ModernDive
…
airlines: translation between two letter IATA carrier codes and names (16 in total)

planes: construction information about each of 3,322 planes used

weather: hourly meteorological data (about 8710 observations) for each of the three NYC airports

airports: airport names and locations

2.4.2 flights data frame

We will begin by exploring the flights data frame that is included in the nycflights13 package and getting an idea of its structure. Run the following in your code in your console: it loads in the flights dataset into your Console. Note depending on the size of your monitor, the output may vary slightly.

flights

# A tibble: 336,776 x 19
    year month   day dep_time sched_dep_time dep_delay arr_time sched_arr_time
   <int> <int> <int>    <int>          <int>     <dbl>    <int>          <int>
 1  2013     1     1      517            515         2      830            819
 2  2013     1     1      533            529         4      850            830
 3  2013     1     1      542            540         2      923            850
 4  2013     1     1      544            545        -1     1004           1022
 5  2013     1     1      554            600        -6      812            837
 6  2013     1     1      554            558        -4      740            728
 7  2013     1     1      555            600        -5      913            854
 8  2013     1     1      557            600        -3      709            723
 9  2013     1     1      557            600        -3      838            846
10  2013     1     1      558            600        -2      753            745
# ... with 336,766 more rows, and 11 more variables: arr_delay <dbl>,
#   carrier <chr>, flight <int>, tailnum <chr>, origin <chr>, dest <chr>,
#   air_time <dbl>, distance <dbl>, hour <dbl>, minute <dbl>, time_hour <dttm>
…
