A MODERN DIVE into Data with R
…
Figure 4.19: Hard to read scatterplot

We see that this plot is difficult to understand based on the sheer number of points plotted. We see some outlier points with more than 500 minutes of arrival delay, but even some jittering and transparency is not going to help us here.

Instead of plotting all of the values for each hour for all flights, it might make sense to plot the average value for each day in terms of arrival delays. Of course, we also need to address which average we should use: mean or median. With there being some outliers here, we have chosen to use the median arrival delay (since the mean is heavily influence by outliers).

You may think that this is a difficult task but the group_by and summarize functions make this a breeze. You’ll see more examples using these two functions in Chapter 5. Here we will create a new variable, which corresponds to the month and day combined, from the time_hour column using the mutate function and create a new dataframe called flights_day. Notice from running View(flights_day) that the new variable added called date appears on the far right of the dataset.

flights_day <- mutate(flights, date = as.Date(time_hour))

flights_summarized <- flights_day %>% group_by(date) %>%
  summarize(median_arr_delay = median(arr_delay, na.rm = TRUE))
flights_summarized

## # A tibble: 365 × 2
##          date median_arr_delay
##        <date>            <dbl>
## 1  2013-01-01                3
## 2  2013-01-02                4
## 3  2013-01-03                1
## 4  2013-01-04               -8
## 5  2013-01-05               -7
## 6  2013-01-06               -1
## 7  2013-01-07              -10
## 8  2013-01-08               -7
## 9  2013-01-09               -6
## 10 2013-01-10              -11
## # ... with 355 more rows
…
