Statistical Inference via Data Science in R
…
In the weather example in LC3.8, the combination of origin, year, month, day, hour are identification variables as they identify the observation in question.

Anything else pertains to observations: temp, humid, wind_speed, etc.

(LC4.4) Convert the dem_score data frame into a tidy data frame and assign the name of dem_score_tidy to the resulting long-formatted data frame.

Solution: Running the following in the console:

dem_score_tidy <- gather(data = dem_score, key = year, value = democracy_score, - country)

Let’s now compare the dem_score and dem_score_tidy. dem_score has democracy score information for each year in columns, whereas in dem_score_tidy there are explicit variables year and democracy_score. While both representations of the data contain the same information, we can only use ggplot() to create plots using the dem_score_tidy data frame.

dem_score

# A tibble: 96 x 10
   country    `1952` `1957` `1962` `1967` `1972` `1977` `1982` `1987` `1992`
   <chr>       <int>  <int>  <int>  <int>  <int>  <int>  <int>  <int>  <int>
 1 Albania        -9     -9     -9     -9     -9     -9     -9     -9      5
 2 Argentina      -9     -1     -1     -9     -9     -9     -8      8      7
 3 Armenia        -9     -7     -7     -7     -7     -7     -7     -7      7
 4 Australia      10     10     10     10     10     10     10     10     10
 5 Austria        10     10     10     10     10     10     10     10     10
 6 Azerbaijan     -9     -7     -7     -7     -7     -7     -7     -7      1
 7 Belarus        -9     -7     -7     -7     -7     -7     -7     -7      7
 8 Belgium        10     10     10     10     10     10     10     10     10
 9 Bhutan        -10    -10    -10    -10    -10    -10    -10    -10    -10
10 Bolivia        -4     -3     -3     -4     -7     -7      8      9      9
# ... with 86 more rows

dem_score_tidy

# A tibble: 864 x 3
   country    year  democracy_score
   <chr>      <chr>           <int>
 1 Albania    1952               -9
 2 Argentina  1952               -9
 3 Armenia    1952               -9
 4 Australia  1952               10
 5 Austria    1952               10
 6 Azerbaijan 1952               -9
 7 Belarus    1952               -9
 8 Belgium    1952               10
 9 Bhutan     1952              -10
10 Bolivia    1952               -4
# ... with 854 more rows

(LC4.5) Read in the life expectancy data stored at https://moderndive.com/data/le_mess.csv and convert it to a tidy data frame.

Solution: The code is similar

life_expectancy <- read_csv('https://moderndive.com/data/le_mess.csv')
life_expectancy_tidy <- gather(data = life_expectancy, key = year, value = life_expectancy, -country)

We observe the same construct structure with respect to year in life_expectancy vs life_expectancy_tidy as we did in dem_score vs dem_score_tidy:

life_expectancy

# A tibble: 202 x 67
   country `1951` `1952` `1953` `1954` `1955` `1956` `1957` `1958` `1959` `1960`
   <chr>    <dbl>  <dbl>  <dbl>  <dbl>  <dbl>  <dbl>  <dbl>  <dbl>  <dbl>  <dbl>
 1 Afghan…   27.1   27.7   28.2   28.7   29.3   29.8   30.3   30.9   31.4   31.9
 2 Albania   54.7   55.2   55.8   56.6   57.4   58.4   59.5   60.6   61.8   62.9
 3 Algeria   43.0   43.5   44.0   44.4   44.9   45.4   45.9   46.4   47.0   47.5
 4 Angola    31.0   31.6   32.1   32.7   33.2   33.8   34.3   34.9   35.4   36.0
 5 Antigu…   58.3   58.8   59.3   59.9   60.4   60.9   61.4   62.0   62.5   63.0
 6 Argent…   61.9   62.5   63.1   63.6   64.0   64.4   64.7   65     65.2   65.4
 7 Armenia   62.7   63.1   63.6   64.1   64.5   65     65.4   65.9   66.4   66.9
 8 Aruba     59.0   60.0   61.0   61.9   62.7   63.4   64.1   64.7   65.2   65.7
 9 Austra…   68.7   69.1   69.7   69.8   70.2   70.0   70.3   70.9   70.4   70.9
10 Austria   65.2   66.8   67.3   67.3   67.6   67.7   67.5   68.5   68.4   68.8
# ... with 192 more rows, and 56 more variables: `1961` <dbl>, `1962` <dbl>,
#   `1963` <dbl>, `1964` <dbl>, `1965` <dbl>, `1966` <dbl>, `1967` <dbl>,
#   `1968` <dbl>, `1969` <dbl>, `1970` <dbl>, `1971` <dbl>, `1972` <dbl>,
#   `1973` <dbl>, `1974` <dbl>, `1975` <dbl>, `1976` <dbl>, `1977` <dbl>,
#   `1978` <dbl>, `1979` <dbl>, `1980` <dbl>, `1981` <dbl>, `1982` <dbl>,
#   `1983` <dbl>, `1984` <dbl>, `1985` <dbl>, `1986` <dbl>, `1987` <dbl>,
#   `1988` <dbl>, `1989` <dbl>, `1990` <dbl>, `1991` <dbl>, `1992` <dbl>,
#   `1993` <dbl>, `1994` <dbl>, `1995` <dbl>, `1996` <dbl>, `1997` <dbl>,
#   `1998` <dbl>, `1999` <dbl>, `2000` <dbl>, `2001` <dbl>, `2002` <dbl>,
#   `2003` <dbl>, `2004` <dbl>, `2005` <dbl>, `2006` <dbl>, `2007` <dbl>,
#   `2008` <dbl>, `2009` <dbl>, `2010` <dbl>, `2011` <dbl>, `2012` <dbl>,
#   `2013` <dbl>, `2014` <dbl>, `2015` <dbl>, `2016` <dbl>

life_expectancy_tidy

# A tibble: 13,332 x 3
   country             year  life_expectancy
   <chr>               <chr>           <dbl>
 1 Afghanistan         1951             27.1
 2 Albania             1951             54.7
 3 Algeria             1951             43.0
 4 Angola              1951             31.0
 5 Antigua and Barbuda 1951             58.3
 6 Argentina           1951             61.9
 7 Armenia             1951             62.7
 8 Aruba               1951             59.0
 9 Australia           1951             68.7
10 Austria             1951             65.2
# ... with 13,322 more rows
…
