A MODERN DIVE into Data with R
…
##  [1] "month"          "day"            "dep_time"       "sched_dep_time"
##  [5] "dep_delay"      "arr_time"       "sched_arr_time" "arr_delay"     
##  [9] "carrier"        "flight"         "tailnum"        "origin"        
## [13] "dest"           "air_time"       "distance"       "hour"          
## [17] "minute"         "time_hour"

Here we have specified that the first argument to select is the .data argument. (Remember that you can get an idea for what arguments a function requires by using the ? operator. In this case ?select will show you information about the select function in the dplyr package.) We will likely avoid specifying this going forward since the .data argument is implied to be the first argument in many cases. The names function gives a listing of all the columns in a data frame. We see that year has been removed. This was done using a - in front of the name of the column we’d like to remove.

We could also select specific columns (instead of deselecting columns) by listing them out:

flight_dep_times <- select(flights, month, day, dep_time, sched_dep_time)
flight_dep_times

## # A tibble: 336,776 × 4
##    month   day dep_time sched_dep_time
##    <int> <int>    <int>          <int>
## 1      1     1      517            515
## 2      1     1      533            529
## 3      1     1      542            540
## 4      1     1      544            545
## 5      1     1      554            600
## 6      1     1      554            558
## 7      1     1      555            600
## 8      1     1      557            600
## 9      1     1      557            600
## 10     1     1      558            600
## # ... with 336,766 more rows

Or we could specify a ranges of columns:

flight_arr_times <- select(flights, month:day, arr_time:sched_arr_time)
flight_arr_times

## # A tibble: 336,776 × 4
##    month   day arr_time sched_arr_time
##    <int> <int>    <int>          <int>
## 1      1     1      830            819
## 2      1     1      850            830
## 3      1     1      923            850
## 4      1     1     1004           1022
## 5      1     1      812            837
## 6      1     1      740            728
## 7      1     1      913            854
## 8      1     1      709            723
## 9      1     1      838            846
## 10     1     1      753            745
## # ... with 336,766 more rows
…
flights_reorder <- select(flights, month:day, hour:time_hour, everything())
names(flights_reorder)

##  [1] "month"          "day"            "hour"           "minute"        
##  [5] "time_hour"      "dep_time"       "sched_dep_time" "dep_delay"     
##  [9] "arr_time"       "sched_arr_time" "arr_delay"      "carrier"       
## [13] "flight"         "tailnum"        "origin"         "dest"          
## [17] "air_time"       "distance"

Lastly, the helper functions starts_with, ends_with, and contains can be used to choose column names that match those conditions:

flights_begin_a <- select(flights, starts_with("a"))
flights_begin_a

## # A tibble: 336,776 × 3
##    arr_time arr_delay air_time
##       <int>     <dbl>    <dbl>
## 1       830        11      227
## 2       850        20      227
## 3       923        33      160
## 4      1004       -18      183
## 5       812       -25      116
## 6       740        12      150
## 7       913        19      158
## 8       709       -14       53
## 9       838        -8      140
## 10      753         8      138
## # ... with 336,766 more rows

flights_delays <- select(flights, ends_with("delay"))
flights_delays

## # A tibble: 336,776 × 2
##    dep_delay arr_delay
##        <dbl>     <dbl>
## 1          2        11
## 2          4        20
## 3          2        33
## 4         -1       -18
## 5         -6       -25
## 6         -4        12
## 7         -5        19
## 8         -3       -14
## 9         -3        -8
## 10        -2         8
## # ... with 336,766 more rows

flights_time <- select(flights, contains("time"))
flights_time

## # A tibble: 336,776 × 6
##    dep_time sched_dep_time arr_time sched_arr_time air_time
##       <int>          <int>    <int>          <int>    <dbl>
## 1       517            515      830            819      227
## 2       533            529      850            830      227
## 3       542            540      923            850      160
## 4       544            545     1004           1022      183
## 5       554            600      812            837      116
## 6       554            558      740            728      150
## 7       555            600      913            854      158
## 8       557            600      709            723       53
## 9       557            600      838            846      140
## 10      558            600      753            745      138
## # ... with 336,766 more rows, and 1 more variables: time_hour <dttm>
…
Figure 5.2: Filter diagram from Data Wrangling with dplyr and tidyr cheatsheet

All of the FMVs follow the same syntax with the first argument to the function/verb being the name of the data frame and then the other arguments specifying which criteria you’d like the verb to work with.

The filter function here works much like the “Filter” option in Microsoft Excel. It allows you to specify criteria about values of a variable in your data set and then chooses only those rows that match that criteria. We begin by focusing only on flights from New York City to Portland, Oregon. The dest code (or airport code) for Portland, Oregon is "PDX":

portland_flights <- filter(flights, dest == "PDX")
portland_flights

## # A tibble: 1,354 × 18
##    month   day dep_time sched_dep_time dep_delay arr_time
##    <int> <int>    <int>          <int>     <dbl>    <int>
## 1      1     1     1739           1740        -1     2051
## 2      1     1     1805           1757         8     2117
## 3      1     1     2052           2029        23     2349
## 4      1     2      804            805        -1     1039
## 5      1     2     1552           1550         2     1853
## 6      1     2     1727           1720         7     2042
## 7      1     2     1738           1740        -2     2028
## 8      1     2     2024           2029        -5     2314
## 9      1     3     1755           1745        10     2110
## 10     1     3     1814           1727        47     2108
## # ... with 1,344 more rows, and 12 more variables:
## #   sched_arr_time <int>, arr_delay <dbl>, carrier <chr>, flight <int>,
## #   tailnum <chr>, origin <chr>, dest <chr>, air_time <dbl>,
## #   distance <dbl>, hour <dbl>, minute <dbl>, time_hour <dttm>

Note the second equals sign here. You are almost guaranteed to make the mistake at least once of only including one equals sign. Let’s see what happens when we make this error:

portland_flights <- filter(flights, dest = "PDX")

Error: filter() takes unnamed arguments. Do you need `==`?

We see that there were 1354 flights from New York City to Portland in 2013. Let’s combine this with what we saw in the previous subsection to ensure that Portland flights were selected:

reordered_flights <- select(flights, dest, everything())
pdx_flights <- filter(reordered_flights, dest == "PDX")
pdx_flights

## # A tibble: 1,354 × 18
##     dest month   day dep_time sched_dep_time dep_delay arr_time
##    <chr> <int> <int>    <int>          <int>     <dbl>    <int>
## 1    PDX     1     1     1739           1740        -1     2051
## 2    PDX     1     1     1805           1757         8     2117
## 3    PDX     1     1     2052           2029        23     2349
## 4    PDX     1     2      804            805        -1     1039
## 5    PDX     1     2     1552           1550         2     1853
## 6    PDX     1     2     1727           1720         7     2042
## 7    PDX     1     2     1738           1740        -2     2028
## 8    PDX     1     2     2024           2029        -5     2314
## 9    PDX     1     3     1755           1745        10     2110
## 10   PDX     1     3     1814           1727        47     2108
## # ... with 1,344 more rows, and 11 more variables:
## #   sched_arr_time <int>, arr_delay <dbl>, carrier <chr>, flight <int>,
## #   tailnum <chr>, origin <chr>, air_time <dbl>, distance <dbl>,
## #   hour <dbl>, minute <dbl>, time_hour <dttm>
…
To see many of these in action, let’s select all flights that left JFK airport heading to Burlington, Vermont ("BTV") or Seattle, Washington ("SEA") in the months of October, November, or December:

btv_sea_flights_fall <- filter(flights,
                               origin == "JFK", 
                               (dest == "BTV") | (dest == "SEA"),
                               month >= 10)

Another example uses the ! to pick rows that DON’T match a condition. Here we are referring to excluding the Northern Hemisphere summer months of June, July, and August.

not_summer_flights <- filter(flights,
                             !between(month, 6, 8))
not_summer_flights

## # A tibble: 249,781 × 18
##    month   day dep_time sched_dep_time dep_delay arr_time
##    <int> <int>    <int>          <int>     <dbl>    <int>
## 1      1     1      517            515         2      830
## 2      1     1      533            529         4      850
## 3      1     1      542            540         2      923
## 4      1     1      544            545        -1     1004
## 5      1     1      554            600        -6      812
## 6      1     1      554            558        -4      740
## 7      1     1      555            600        -5      913
## 8      1     1      557            600        -3      709
## 9      1     1      557            600        -3      838
## 10     1     1      558            600        -2      753
## # ... with 249,771 more rows, and 12 more variables:
## #   sched_arr_time <int>, arr_delay <dbl>, carrier <chr>, flight <int>,
## #   tailnum <chr>, origin <chr>, dest <chr>, air_time <dbl>,
## #   distance <dbl>, hour <dbl>, minute <dbl>, time_hour <dttm>
…
(LC5.9) Could we create the dep_delay and arr_delay columns by simply subtracting dep_time from sched_dep_time and similarly for arrivals? Try the code out and explain any differences between the result and what actually appears in flights.

(LC5.10) What can we say about the distribution of gain? Describe it in a few sentences using the plot and the gain_summary data frame values.

5.1.5 Reorder the data frame using arrange

As you may have thought about with the data frames we’ve worked with so far in the book, one of the most common things you’d like to do is sort the data frames by a specific column. Have you ever been asked to calculate a median by hand? This requires you to put the data in order from smallest to highest in value. The dplyr package has a function called arrange that we will use to sort/reorder our data according to the values of the specified variable. This is most frequently used after we have used the group_by and summarize functions as we will see.

Let’s suppose we were interested in determining the most frequent destination airports from New York City in 2013:

by_dest <- group_by(flights, dest)
freq_dest <- summarize(by_dest, num_flights = n())
freq_dest

## # A tibble: 105 × 2
##     dest num_flights
##    <chr>       <int>
## 1    ABQ         254
## 2    ACK         265
## 3    ALB         439
## 4    ANC           8
## 5    ATL       17215
## 6    AUS        2439
## 7    AVL         275
## 8    BDL         443
## 9    BGR         375
## 10   BHM         297
## # ... with 95 more rows

You’ll see that by default the values of dest are displayed in alphabetical order here. Remember to use View() in the R Console to look at all the values of freq_dest in spreadsheet format. We are interested in finding those airports that appear most:

arrange(freq_dest, num_flights)

## # A tibble: 105 × 2
##     dest num_flights
##    <chr>       <int>
## 1    LEX           1
## 2    LGA           1
## 3    ANC           8
## 4    SBN          10
## 5    HDN          15
## 6    MTJ          15
## 7    EYW          17
## 8    PSP          19
## 9    JAC          25
## 10   BZN          36
## # ... with 95 more rows

This is actually giving us the opposite of what we are looking for. It tells us the least frequent destination airports first. To switch the ordering to be descending instead of ascending we use the desc function:

arrange(freq_dest, desc(num_flights))

## # A tibble: 105 × 2
##     dest num_flights
##    <chr>       <int>
## 1    ORD       17283
## 2    ATL       17215
## 3    LAX       16174
## 4    BOS       15508
## 5    MCO       14082
## 6    CLT       14064
## 7    SFO       13331
## 8    FLL       12055
## 9    MIA       11728
## 10   DCA        9705
## # ... with 95 more rows
…
