An Introduction to Statistical and Data Sciences via R
…
LGA
104662

We see that Newark ("EWR") had the most flights departing in 2013 followed by "JFK" and lastly by LaGuardia ("LGA"). Note there is a subtle but important difference between sum() and n(). While sum() simply adds up a large set of numbers, the latter counts the number of times each of many different values occur.

5.5.1 Grouping by more than one variable

You are not limited to grouping by one variable! Say you wanted to know the number of flights leaving each of the three New York City airports for each month, we can also group by a second variable month: group_by(origin, month).

by_origin_monthly <- flights %>% 
  group_by(origin, month) %>% 
  summarize(count = n())
by_origin_monthly

# A tibble: 36 x 3
# Groups:   origin [?]
   origin month count
   <chr>  <int> <int>
 1 EWR        1  9893
 2 EWR        2  9107
 3 EWR        3 10420
 4 EWR        4 10531
 5 EWR        5 10592
 6 EWR        6 10175
 7 EWR        7 10475
 8 EWR        8 10359
 9 EWR        9  9550
10 EWR       10 10104
# ... with 26 more rows

We see there are 36 rows to by_origin_monthly because there are 12 months times 3 airports (EWR, JFK, and LGA). Let’s now pose two questions. First, what if we reverse the order of the grouping i.e. we group_by(month, origin)?

by_monthly_origin <- flights %>% 
  group_by(month, origin) %>% 
  summarize(count = n())
by_monthly_origin

# A tibble: 36 x 3
# Groups:   month [?]
   month origin count
   <int> <chr>  <int>
 1     1 EWR     9893
 2     1 JFK     9161
 3     1 LGA     7950
 4     2 EWR     9107
 5     2 JFK     8421
 6     2 LGA     7423
 7     3 EWR    10420
 8     3 JFK     9697
 9     3 LGA     8717
10     4 EWR    10531
# ... with 26 more rows
…
The standard deviation is a quantification of spread and variability. We see that the period in November, December, and January has the most variation in weather, so you can expect very different temperatures on different days.

(LC5.6) What code would be required to get the mean and standard deviation temperature for each day in 2013 for NYC?

summary_temp_by_day <- weather %>% 
  group_by(year, month, day) %>% 
  summarize(
          mean = mean(temp, na.rm = TRUE),
          std_dev = sd(temp, na.rm = TRUE)
          )
summary_temp_by_day

# A tibble: 364 x 5
# Groups:   year, month [?]
    year month   day  mean std_dev
   <dbl> <dbl> <int> <dbl>   <dbl>
 1  2013     1     1  37.0    4.00
 2  2013     1     2  28.7    3.45
 3  2013     1     3  30.0    2.58
 4  2013     1     4  34.9    2.45
 5  2013     1     5  37.2    4.01
 6  2013     1     6  40.1    4.40
 7  2013     1     7  40.6    3.68
 8  2013     1     8  40.1    5.77
 9  2013     1     9  43.2    5.40
10  2013     1    10  43.8    2.95
# ... with 354 more rows
…
(LC5.12) What can we say about the distribution of gain? Describe it in a few sentences using the plot and the gain_summary data frame values. Most of the time the gain is a little under zero, most of the time the gain is between -50 and 50 minutes. There are some extreme cases however!

5.7 5MV#5: Reorder the data frame using arrange

One of the most common things people working with data would like to do is sort the data frames by a specific variable in a column. Have you ever been asked to calculate a median by hand? This requires you to put the data in order from smallest to highest in value. The dplyr package has a function called arrange that we will use to sort/reorder our data according to the values of the specified variable. This is often used after we have used the group_by and summarize functions as we will see.

Let’s suppose we were interested in determining the most frequent destination airports from New York City in 2013:

freq_dest <- flights %>% 
  group_by(dest) %>% 
  summarize(num_flights = n())
freq_dest

# A tibble: 105 x 2
   dest  num_flights
   <chr>       <int>
 1 ABQ           254
 2 ACK           265
 3 ALB           439
 4 ANC             8
 5 ATL         17215
 6 AUS          2439
 7 AVL           275
 8 BDL           443
 9 BGR           375
10 BHM           297
# ... with 95 more rows

You’ll see that by default the values of dest are displayed in alphabetical order here. We are interested in finding those airports that appear most:

freq_dest %>% 
  arrange(num_flights)

# A tibble: 105 x 2
   dest  num_flights
   <chr>       <int>
 1 LEX             1
 2 LGA             1
 3 ANC             8
 4 SBN            10
 5 HDN            15
 6 MTJ            15
 7 EYW            17
 8 PSP            19
 9 JAC            25
10 BZN            36
# ... with 95 more rows

This is actually giving us the opposite of what we are looking for. It tells us the least frequent destination airports first. To switch the ordering to be descending instead of ascending we use the desc (descending) function:

freq_dest %>% 
  arrange(desc(num_flights))

# A tibble: 105 x 2
   dest  num_flights
   <chr>       <int>
 1 ORD         17283
 2 ATL         17215
 3 LAX         16174
 4 BOS         15508
 5 MCO         14082
 6 CLT         14064
 7 SFO         13331
 8 FLL         12055
 9 MIA         11728
10 DCA          9705
# ... with 95 more rows
…
flights %>% 
  inner_join(airports, by = c("dest" = "faa"))

Let’s construct the sequence of commands that computes the number of flights from NYC to each destination, but also includes information about each destination airport:

named_dests <- flights %>%
  group_by(dest) %>%
  summarize(num_flights = n()) %>%
  arrange(desc(num_flights)) %>%
  inner_join(airports, by = c("dest" = "faa")) %>%
  rename(airport_name = name)
named_dests

# A tibble: 101 x 9
   dest  num_flights airport_name         lat    lon   alt    tz dst   tzone   
   <chr>       <int> <chr>              <dbl>  <dbl> <int> <dbl> <chr> <chr>   
 1 ORD         17283 Chicago Ohare Intl  42.0  -87.9   668    -6 A     America…
 2 ATL         17215 Hartsfield Jackso…  33.6  -84.4  1026    -5 A     America…
 3 LAX         16174 Los Angeles Intl    33.9 -118.    126    -8 A     America…
 4 BOS         15508 General Edward La…  42.4  -71.0    19    -5 A     America…
 5 MCO         14082 Orlando Intl        28.4  -81.3    96    -5 A     America…
 6 CLT         14064 Charlotte Douglas…  35.2  -80.9   748    -5 A     America…
 7 SFO         13331 San Francisco Intl  37.6 -122.     13    -8 A     America…
 8 FLL         12055 Fort Lauderdale H…  26.1  -80.2     9    -5 A     America…
 9 MIA         11728 Miami Intl          25.8  -80.3     8    -5 A     America…
10 DCA          9705 Ronald Reagan Was…  38.9  -77.0    15    -5 A     America…
# ... with 91 more rows

In case you didn’t know, "ORD" is the airport code of Chicago O’Hare airport and "FLL" is the main airport in Fort Lauderdale, Florida, which we can now see in our named_dests data frame.

5.8.3 Joining by multiple “key” variables

Say instead we are in a situation where we need to join by multiple varibles. For example, in Figure 5.7 above we see that in order to join the flights and weather data frames, we need more than one key variable: year, month, day, hour, and origin. This is because the combination of these 5 variables act to uniquely identify each observational unit in the weather data frame: hourly weather recordings at each of the 3 NYC airports.

We achieve this by specifying a vector of key variables to join by using the c() concatenate function. Note the individual variables need to be wrapped in quotation marks.

flights_weather_joined <- flights %>%
  inner_join(weather, by = c("year", "month", "day", "hour", "origin"))
flights_weather_joined

# A tibble: 335,220 x 32
    year month   day dep_time sched_dep_time dep_delay arr_time sched_arr_time
   <dbl> <dbl> <int>    <int>          <int>     <dbl>    <int>          <int>
 1  2013     1     1      517            515         2      830            819
 2  2013     1     1      533            529         4      850            830
 3  2013     1     1      542            540         2      923            850
 4  2013     1     1      544            545        -1     1004           1022
 5  2013     1     1      554            600        -6      812            837
 6  2013     1     1      554            558        -4      740            728
 7  2013     1     1      555            600        -5      913            854
 8  2013     1     1      557            600        -3      709            723
 9  2013     1     1      557            600        -3      838            846
10  2013     1     1      558            600        -2      753            745
# ... with 335,210 more rows, and 24 more variables: arr_delay <dbl>,
#   carrier <chr>, flight <int>, tailnum <chr>, origin <chr>, dest <chr>,
#   air_time <dbl>, distance <dbl>, hour <dbl>, minute <dbl>,
#   time_hour.x <dttm>, gain <dbl>, hours <dbl>, gain_per_hour <dbl>,
#   temp <dbl>, dewp <dbl>, humid <dbl>, wind_dir <dbl>, wind_speed <dbl>,
#   wind_gust <dbl>, precip <dbl>, pressure <dbl>, visib <dbl>,
#   time_hour.y <dttm>
…
(LC5.18) Create a new data frame that shows the top 5 airports with the largest arrival delays from NYC in 2013.

Learning Check Solutions

(LC5.15) What are some ways to select all three of the dest, air_time, and distance variables from flights? Give the code showing how to do this in at least three different ways.

library(dplyr)
library(nycflights13)

# The regular way:
flights %>% 
  select(dest, air_time, distance)

# A tibble: 336,776 x 3
   dest  air_time distance
   <chr>    <dbl>    <dbl>
 1 IAH        227     1400
 2 IAH        227     1416
 3 MIA        160     1089
 4 BQN        183     1576
 5 ATL        116      762
 6 ORD        150      719
 7 FLL        158     1065
 8 IAD         53      229
 9 MCO        140      944
10 ORD        138      733
# ... with 336,766 more rows

# Since they are sequential columns in the dataset
flights %>% 
  select(dest:distance)

# A tibble: 336,776 x 3
   dest  air_time distance
   <chr>    <dbl>    <dbl>
 1 IAH        227     1400
 2 IAH        227     1416
 3 MIA        160     1089
 4 BQN        183     1576
 5 ATL        116      762
 6 ORD        150      719
 7 FLL        158     1065
 8 IAD         53      229
 9 MCO        140      944
10 ORD        138      733
# ... with 336,766 more rows

# Not as effective, by removing everything else
flights %>% 
  select(-year, -month, -day, -dep_time, -sched_dep_time, -dep_delay, -arr_time,
         -sched_arr_time, -arr_delay, -carrier, -flight, -tailnum, -origin, 
         -hour, -minute, -time_hour)

# A tibble: 336,776 x 6
   dest  air_time distance  gain hours gain_per_hour
   <chr>    <dbl>    <dbl> <dbl> <dbl>         <dbl>
 1 IAH        227     1400    -9 3.78          -2.38
 2 IAH        227     1416   -16 3.78          -4.23
 3 MIA        160     1089   -31 2.67         -11.6 
 4 BQN        183     1576    17 3.05           5.57
 5 ATL        116      762    19 1.93           9.83
 6 ORD        150      719   -16 2.5           -6.4 
 7 FLL        158     1065   -24 2.63          -9.11
 8 IAD         53      229    11 0.883         12.5 
 9 MCO        140      944     5 2.33           2.14
10 ORD        138      733   -10 2.3           -4.35
# ... with 336,766 more rows

(LC5.17) Why might we want to use the select function on a data frame?

# Anything that starts with "d"
flights %>% 
  select(starts_with("d"))

# A tibble: 336,776 x 5
     day dep_time dep_delay dest  distance
   <int>    <int>     <dbl> <chr>    <dbl>
 1     1      517         2 IAH       1400
 2     1      533         4 IAH       1416
 3     1      542         2 MIA       1089
 4     1      544        -1 BQN       1576
 5     1      554        -6 ATL        762
 6     1      554        -4 ORD        719
 7     1      555        -5 FLL       1065
 8     1      557        -3 IAD        229
 9     1      557        -3 MCO        944
10     1      558        -2 ORD        733
# ... with 336,766 more rows

# Anything related to delays:
flights %>% 
  select(ends_with("delay"))

# A tibble: 336,776 x 2
   dep_delay arr_delay
       <dbl>     <dbl>
 1         2        11
 2         4        20
 3         2        33
 4        -1       -18
 5        -6       -25
 6        -4        12
 7        -5        19
 8        -3       -14
 9        -3        -8
10        -2         8
# ... with 336,766 more rows

# Anything related to departures:
flights %>% 
  select(contains("dep"))

# A tibble: 336,776 x 3
   dep_time sched_dep_time dep_delay
      <int>          <int>     <dbl>
 1      517            515         2
 2      533            529         4
 3      542            540         2
 4      544            545        -1
 5      554            600        -6
 6      554            558        -4
 7      555            600        -5
 8      557            600        -3
 9      557            600        -3
10      558            600        -2
# ... with 336,766 more rows
…
Let’s now break this down step-by-step. To compute the available seat miles for a given flight, we need the distance variable from the flights data frame and the seats variable from the planes data frame, necessitating a join by the key variable tailnum as illustrated in Figure 5.7. To keep the resulting data frame easy to view, we’ll select() only these two variables and carrier:

flights %>% 
  inner_join(planes, by = "tailnum") %>% 
  select(carrier, seats, distance)

# A tibble: 284,170 x 3
   carrier seats distance
   <chr>   <int>    <dbl>
 1 UA        149     1400
 2 UA        149     1416
 3 AA        178     1089
 4 B6        200     1576
 5 DL        178      762
 6 UA        191      719
 7 B6        200     1065
 8 EV         55      229
 9 B6        200      944
10 B6        200     1028
# ... with 284,160 more rows

Now for each flight we can compute the available seat miles ASM by multiplying the number of seats by the distance via a mutate():

flights %>% 
  inner_join(planes, by = "tailnum") %>% 
  select(carrier, seats, distance) %>% 
  # Added:
  mutate(ASM = seats * distance)

# A tibble: 284,170 x 4
   carrier seats distance    ASM
   <chr>   <int>    <dbl>  <dbl>
 1 UA        149     1400 208600
 2 UA        149     1416 210984
 3 AA        178     1089 193842
 4 B6        200     1576 315200
 5 DL        178      762 135636
 6 UA        191      719 137329
 7 B6        200     1065 213000
 8 EV         55      229  12595
 9 B6        200      944 188800
10 B6        200     1028 205600
# ... with 284,160 more rows
…
