Statistical Inference via Data Science in R
…
In the weather example in LC3.8, the combination of origin, year, month, day, hour are identification variables as they identify the observation in question.

Anything else pertains to observations: temp, humid, wind_speed, etc.

(LC4.4) Convert the dem_score data frame into a tidy data frame and assign the name of dem_score_tidy to the resulting long-formatted data frame.

Solution: Running the following in the console:

dem_score_tidy <- gather(data = dem_score, key = year, value = democracy_score, - country)

Let’s now compare the dem_score and dem_score_tidy. dem_score has democracy score information for each year in columns, whereas in dem_score_tidy there are explicit variables year and democracy_score. While both representations of the data contain the same information, we can only use ggplot() to create plots using the dem_score_tidy data frame.

dem_score

# A tibble: 96 x 10
   country    `1952` `1957` `1962` `1967` `1972` `1977` `1982` `1987` `1992`
   <chr>       <int>  <int>  <int>  <int>  <int>  <int>  <int>  <int>  <int>
 1 Albania        -9     -9     -9     -9     -9     -9     -9     -9      5
 2 Argentina      -9     -1     -1     -9     -9     -9     -8      8      7
 3 Armenia        -9     -7     -7     -7     -7     -7     -7     -7      7
 4 Australia      10     10     10     10     10     10     10     10     10
 5 Austria        10     10     10     10     10     10     10     10     10
 6 Azerbaijan     -9     -7     -7     -7     -7     -7     -7     -7      1
 7 Belarus        -9     -7     -7     -7     -7     -7     -7     -7      7
 8 Belgium        10     10     10     10     10     10     10     10     10
 9 Bhutan        -10    -10    -10    -10    -10    -10    -10    -10    -10
10 Bolivia        -4     -3     -3     -4     -7     -7      8      9      9
# ... with 86 more rows

dem_score_tidy

# A tibble: 864 x 3
   country    year  democracy_score
   <chr>      <chr>           <int>
 1 Albania    1952               -9
 2 Argentina  1952               -9
 3 Armenia    1952               -9
 4 Australia  1952               10
 5 Austria    1952               10
 6 Azerbaijan 1952               -9
 7 Belarus    1952               -9
 8 Belgium    1952               10
 9 Bhutan     1952              -10
10 Bolivia    1952               -4
# ... with 854 more rows

(LC4.5) Read in the life expectancy data stored at https://moderndive.com/data/le_mess.csv and convert it to a tidy data frame.

Solution: The code is similar

life_expectancy <- read_csv('https://moderndive.com/data/le_mess.csv')
life_expectancy_tidy <- gather(data = life_expectancy, key = year, value = life_expectancy, -country)

We observe the same construct structure with respect to year in life_expectancy vs life_expectancy_tidy as we did in dem_score vs dem_score_tidy:

life_expectancy

# A tibble: 202 x 67
   country `1951` `1952` `1953` `1954` `1955` `1956` `1957` `1958` `1959` `1960`
   <chr>    <dbl>  <dbl>  <dbl>  <dbl>  <dbl>  <dbl>  <dbl>  <dbl>  <dbl>  <dbl>
 1 Afghan…   27.1   27.7   28.2   28.7   29.3   29.8   30.3   30.9   31.4   31.9
 2 Albania   54.7   55.2   55.8   56.6   57.4   58.4   59.5   60.6   61.8   62.9
 3 Algeria   43.0   43.5   44.0   44.4   44.9   45.4   45.9   46.4   47.0   47.5
 4 Angola    31.0   31.6   32.1   32.7   33.2   33.8   34.3   34.9   35.4   36.0
 5 Antigu…   58.3   58.8   59.3   59.9   60.4   60.9   61.4   62.0   62.5   63.0
 6 Argent…   61.9   62.5   63.1   63.6   64.0   64.4   64.7   65     65.2   65.4
 7 Armenia   62.7   63.1   63.6   64.1   64.5   65     65.4   65.9   66.4   66.9
 8 Aruba     59.0   60.0   61.0   61.9   62.7   63.4   64.1   64.7   65.2   65.7
 9 Austra…   68.7   69.1   69.7   69.8   70.2   70.0   70.3   70.9   70.4   70.9
10 Austria   65.2   66.8   67.3   67.3   67.6   67.7   67.5   68.5   68.4   68.8
# ... with 192 more rows, and 56 more variables: `1961` <dbl>, `1962` <dbl>,
#   `1963` <dbl>, `1964` <dbl>, `1965` <dbl>, `1966` <dbl>, `1967` <dbl>,
#   `1968` <dbl>, `1969` <dbl>, `1970` <dbl>, `1971` <dbl>, `1972` <dbl>,
#   `1973` <dbl>, `1974` <dbl>, `1975` <dbl>, `1976` <dbl>, `1977` <dbl>,
#   `1978` <dbl>, `1979` <dbl>, `1980` <dbl>, `1981` <dbl>, `1982` <dbl>,
#   `1983` <dbl>, `1984` <dbl>, `1985` <dbl>, `1986` <dbl>, `1987` <dbl>,
#   `1988` <dbl>, `1989` <dbl>, `1990` <dbl>, `1991` <dbl>, `1992` <dbl>,
#   `1993` <dbl>, `1994` <dbl>, `1995` <dbl>, `1996` <dbl>, `1997` <dbl>,
#   `1998` <dbl>, `1999` <dbl>, `2000` <dbl>, `2001` <dbl>, `2002` <dbl>,
#   `2003` <dbl>, `2004` <dbl>, `2005` <dbl>, `2006` <dbl>, `2007` <dbl>,
#   `2008` <dbl>, `2009` <dbl>, `2010` <dbl>, `2011` <dbl>, `2012` <dbl>,
#   `2013` <dbl>, `2014` <dbl>, `2015` <dbl>, `2016` <dbl>

life_expectancy_tidy

# A tibble: 13,332 x 3
   country             year  life_expectancy
   <chr>               <chr>           <dbl>
 1 Afghanistan         1951             27.1
 2 Albania             1951             54.7
 3 Algeria             1951             43.0
 4 Angola              1951             31.0
 5 Antigua and Barbuda 1951             58.3
 6 Argentina           1951             61.9
 7 Armenia             1951             62.7
 8 Aruba               1951             59.0
 9 Australia           1951             68.7
10 Austria             1951             65.2
# ... with 13,322 more rows
…
The standard deviation is a quantification of spread and variability. We see that the period in November, December, and January has the most variation in weather, so you can expect very different temperatures on different days.

(LC5.6) What code would be required to get the mean and standard deviation temperature for each day in 2013 for NYC?

Solution:

summary_temp_by_day <- weather %>% 
  group_by(year, month, day) %>% 
  summarize(
          mean = mean(temp, na.rm = TRUE),
          std_dev = sd(temp, na.rm = TRUE)
          )
summary_temp_by_day

# A tibble: 364 x 5
# Groups:   year, month [?]
    year month   day  mean std_dev
   <dbl> <dbl> <int> <dbl>   <dbl>
 1  2013     1     1  37.0    4.00
 2  2013     1     2  28.7    3.45
 3  2013     1     3  30.0    2.58
 4  2013     1     4  34.9    2.45
 5  2013     1     5  37.2    4.01
 6  2013     1     6  40.1    4.40
 7  2013     1     7  40.6    3.68
 8  2013     1     8  40.1    5.77
 9  2013     1     9  43.2    5.40
10  2013     1    10  43.8    2.95
# ... with 354 more rows
…
Solution: Because hour is simply a value between 0 and 23; to identify a specific hour, we need to know which year, month, day and at which airport.

(LC5.14) What surprises you about the top 10 destinations from NYC in 2013?

Solution: This question is subjective! What surprises me is the high number of flights to Boston. Wouldn’t it be easier and quicker to take the train?

(LC5.15) What are some ways to select all three of the dest, air_time, and distance variables from flights? Give the code showing how to do this in at least three different ways.

Solution:

# The regular way:
flights %>% 
  select(dest, air_time, distance)

# A tibble: 336,776 x 3
   dest  air_time distance
   <chr>    <dbl>    <dbl>
 1 IAH        227     1400
 2 IAH        227     1416
 3 MIA        160     1089
 4 BQN        183     1576
 5 ATL        116      762
 6 ORD        150      719
 7 FLL        158     1065
 8 IAD         53      229
 9 MCO        140      944
10 ORD        138      733
# ... with 336,766 more rows

# Since they are sequential columns in the dataset
flights %>% 
  select(dest:distance)

# A tibble: 336,776 x 3
   dest  air_time distance
   <chr>    <dbl>    <dbl>
 1 IAH        227     1400
 2 IAH        227     1416
 3 MIA        160     1089
 4 BQN        183     1576
 5 ATL        116      762
 6 ORD        150      719
 7 FLL        158     1065
 8 IAD         53      229
 9 MCO        140      944
10 ORD        138      733
# ... with 336,766 more rows

# Not as effective, by removing everything else
flights %>% 
  select(-year, -month, -day, -dep_time, -sched_dep_time, -dep_delay, -arr_time,
         -sched_arr_time, -arr_delay, -carrier, -flight, -tailnum, -origin, 
         -hour, -minute, -time_hour)

# A tibble: 336,776 x 6
   dest  air_time distance  gain hours gain_per_hour
   <chr>    <dbl>    <dbl> <dbl> <dbl>         <dbl>
 1 IAH        227     1400    -9 3.78          -2.38
 2 IAH        227     1416   -16 3.78          -4.23
 3 MIA        160     1089   -31 2.67         -11.6 
 4 BQN        183     1576    17 3.05           5.57
 5 ATL        116      762    19 1.93           9.83
 6 ORD        150      719   -16 2.5           -6.4 
 7 FLL        158     1065   -24 2.63          -9.11
 8 IAD         53      229    11 0.883         12.5 
 9 MCO        140      944     5 2.33           2.14
10 ORD        138      733   -10 2.3           -4.35
# ... with 336,766 more rows

(LC5.16) How could one use starts_with, ends_with, and contains to select columns from the flights data frame? Provide three different examples in total: one for starts_with, one for ends_with, and one for contains.

Solution:

# Anything that starts with "d"
flights %>% 
  select(starts_with("d"))

# A tibble: 336,776 x 5
     day dep_time dep_delay dest  distance
   <int>    <int>     <dbl> <chr>    <dbl>
 1     1      517         2 IAH       1400
 2     1      533         4 IAH       1416
 3     1      542         2 MIA       1089
 4     1      544        -1 BQN       1576
 5     1      554        -6 ATL        762
 6     1      554        -4 ORD        719
 7     1      555        -5 FLL       1065
 8     1      557        -3 IAD        229
 9     1      557        -3 MCO        944
10     1      558        -2 ORD        733
# ... with 336,766 more rows

# Anything related to delays:
flights %>% 
  select(ends_with("delay"))

# A tibble: 336,776 x 2
   dep_delay arr_delay
       <dbl>     <dbl>
 1         2        11
 2         4        20
 3         2        33
 4        -1       -18
 5        -6       -25
 6        -4        12
 7        -5        19
 8        -3       -14
 9        -3        -8
10        -2         8
# ... with 336,766 more rows

# Anything related to departures:
flights %>% 
  select(contains("dep"))

# A tibble: 336,776 x 3
   dep_time sched_dep_time dep_delay
      <int>          <int>     <dbl>
 1      517            515         2
 2      533            529         4
 3      542            540         2
 4      544            545        -1
 5      554            600        -6
 6      554            558        -4
 7      555            600        -5
 8      557            600        -3
 9      557            600        -3
10      558            600        -2
# ... with 336,766 more rows
…
Let’s now break this down step-by-step. To compute the available seat miles for a given flight, we need the distance variable from the flights data frame and the seats variable from the planes data frame, necessitating a join by the key variable tailnum as illustrated in Figure 5.7. To keep the resulting data frame easy to view, we’ll select() only these two variables and carrier:

flights %>% 
  inner_join(planes, by = "tailnum") %>% 
  select(carrier, seats, distance)

# A tibble: 284,170 x 3
   carrier seats distance
   <chr>   <int>    <dbl>
 1 UA        149     1400
 2 UA        149     1416
 3 AA        178     1089
 4 B6        200     1576
 5 DL        178      762
 6 UA        191      719
 7 B6        200     1065
 8 EV         55      229
 9 B6        200      944
10 B6        200     1028
# ... with 284,160 more rows

Now for each flight we can compute the available seat miles ASM by multiplying the number of seats by the distance via a mutate():

flights %>% 
  inner_join(planes, by = "tailnum") %>% 
  select(carrier, seats, distance) %>% 
  # Added:
  mutate(ASM = seats * distance)

# A tibble: 284,170 x 4
   carrier seats distance    ASM
   <chr>   <int>    <dbl>  <dbl>
 1 UA        149     1400 208600
 2 UA        149     1416 210984
 3 AA        178     1089 193842
 4 B6        200     1576 315200
 5 DL        178      762 135636
 6 UA        191      719 137329
 7 B6        200     1065 213000
 8 EV         55      229  12595
 9 B6        200      944 188800
10 B6        200     1028 205600
# ... with 284,160 more rows
…
