A MODERN DIVE into Data with R
…
Let’s walk through each step of this calculation:

First, pvalue_tea will be the name of our calculated \(p\)-value and the assignment operator <- directs us to this naming.

We are working with the simGuesses data frame here so that comes immediately before the pipe operator.

We would like to only focus on the rows in our simGuesses data frame that have heads values of 9 or 10. This represents simulated statistics “as extreme or more extreme” than what we observed (9 correct guesses out of 10). Let’s get a glimpse of what we have up to this point:

simGuesses %>% tbl_df() %>%
  filter(heads >= 9)    

## # A tibble: 115 x 4
##        n heads tails  prop
##    <dbl> <dbl> <dbl> <dbl>
## 1     10     9     1   0.9
## 2     10     9     1   0.9
## 3     10     9     1   0.9
## 4     10     9     1   0.9
## 5     10     9     1   0.9
## 6     10     9     1   0.9
## 7     10    10     0   1.0
## 8     10     9     1   0.9
## 9     10     9     1   0.9
## 10    10     9     1   0.9
## # ... with 105 more rows
…
