A MODERN DIVE into Data with R
…
(LC7.2) What is the purpose of hypothesis testing?

(LC7.3) What are some flaws with hypothesis testing? How could we alleviate them?

7.2.1 Comparing Action and Romance Movies

The movies data set in the ggplot2movies package contains information on a large number of movies that have been rated by users of IMDB.com. We are interested in the question here of whether Action movies are rated higher on IMDB than Romance movies. We will first need to do a little bit of data manipulation using the ideas from Chapter 5 to get the data in the form that we would like:

library(dplyr)
library(ggplot2movies)
movies_trimmed <- movies %>% 
  select(title, year, rating, Action, Romance)
movies_trimmed

## # A tibble: 58,788 × 5
##                       title  year rating Action Romance
##                       <chr> <int>  <dbl>  <int>   <int>
## 1                         $  1971    6.4      0       0
## 2         $1000 a Touchdown  1939    6.0      0       0
## 3    $21 a Day Once a Month  1941    8.2      0       0
## 4                   $40,000  1996    8.2      0       0
## 5  $50,000 Climax Show, The  1975    3.4      0       0
## 6                     $pent  2000    4.3      0       0
## 7                   $windle  2002    5.3      1       0
## 8                      '15'  2002    6.7      0       0
## 9                       '38  1987    6.6      0       0
## 10                  '49-'17  1917    6.0      0       0
## # ... with 58,778 more rows
…
