Chapter 9 Confidence Intervals | Statistical Inference via Data Science
…
FIGURE 9.2: 50 US pennies labelled

The moderndive package contains this data on the pennies collected and minted in the United States in 2019. Let’s explore this sample data first:

pennies_sample_2

# A tibble: 50 x 2
      ID  year
   <int> <int>
 1     1  2002
 2     2  1986
 3     3  2017
 4     4  1988
 5     5  2008
 6     6  1983
 7     7  2008
 8     8  1996
 9     9  2004
10    10  2000
# … with 40 more rows
…
Shake up the pieces of paper.

Draw “at random” from the cap to select one piece of paper.

Write down the value of age and ID on this piece of paper. Say that it is 2005 for year and 39 for ID.

Now, place this piece of paper corresponding to the 39th coin with a value of 2005 back into the cap.

Draw “at random” again from the cap to select a piece of paper. Note that this is the sampling with replacement part since you may draw this 39th coin again.

Repeat this process until you have drawn 50 pieces of paper and written down the ID and year values for these 50 pieces of paper. Completing this repetition produces ONE resample.

Let’s enter these values into R in a tibble called pennies_resample and observe the first ten rows of this resample.

# A tibble: 50 x 2
      ID  year
   <int> <int>
 1    32  1976
 2    37  1962
 3    22  1976
 4     6  1983
 5    24  2017
 6    39  2015
 7    16  2015
 8    37  1962
 9    17  2016
10    32  1976
# … with 40 more rows
…
Note here the bell-shape starting to become more apparent. We now have a general sense for the range of values that the mean may take on in these resamples from this histogram.

9.3 Confidence intervals

9.4 The Bootstrapping Framework

We will pull ourselves up from our bootstraps using a single sample (pennies_sample_2) to get an idea of the grander sampling distribution.

Bootstrapping uses a process of sampling with replacement from our original sample to create new bootstrap samples of the same size as our original sample. We can again make use of the rep_sample_n() function to explore what one such bootstrap sample would look like. Remember that we are randomly sampling from the original sample here with replacement and that we always use the same sample size for the bootstrap samples as the size of the original sample (pennies_sample_2).

bootstrap_sample1 <- pennies_sample_2 %>% 
  rep_sample_n(size = 40, replace = TRUE, reps = 1)
bootstrap_sample1

# A tibble: 40 x 3
# Groups:   replicate [1]
   replicate    ID  year
       <int> <int> <int>
 1         1    24  2017
 2         1    13  2015
 3         1    34  1985
 4         1     8  1996
 5         1    23  1998
 6         1    47  1982
 7         1    27  1993
 8         1    34  1985
 9         1    48  1988
10         1     2  1986
# … with 30 more rows
…
The specify() function is used primarily to choose which variables will be the focus of the statistical inference. In addition, a setting of which variable will act as the explanatory and which acts as the response variable is done here. For proportion problems similar to those in Chapter 8, we can also give which of the different levels we would like to have as a success. We’ll see further examples of these options in this chapter, Chapter 10, and in Appendix B.

To begin to create a confidence interval for the population mean age of US pennies in 2011, we start by using specify() to choose which variable in our pennies_sample_2 data we’d like to work with. This can be done in one of two ways:

Using the response argument:

pennies_sample_2 %>% 
  specify(response = year)

Response: year (integer)
# A tibble: 50 x 1
    year
   <int>
 1  2002
 2  1986
 3  2017
 4  1988
 5  2008
 6  1983
 7  2008
 8  1996
 9  2004
10  2000
# … with 40 more rows

Using formula notation:

pennies_sample_2 %>% 
  specify(formula = year ~ NULL)

Response: year (integer)
# A tibble: 50 x 1
    year
   <int>
 1  2002
 2  1986
 3  2017
 4  1988
 5  2008
 6  1983
 7  2008
 8  1996
 9  2004
10  2000
# … with 40 more rows
…
Let’s generate() 1000 bootstrap samples:

thousand_bootstrap_samples <- pennies_sample_2 %>% 
  specify(response = year) %>% 
  generate(reps = 1000)

Setting `type = "bootstrap"` in `generate()`.

We can use the dplyr count() function to help us understand what the thousand_bootstrap_samples data frame looks like:

thousand_bootstrap_samples %>% 
  count(replicate)

# A tibble: 1,000 x 2
# Groups:   replicate [1,000]
   replicate     n
       <int> <int>
 1         1    50
 2         2    50
 3         3    50
 4         4    50
 5         5    50
 6         6    50
 7         7    50
 8         8    50
 9         9    50
10        10    50
# … with 990 more rows
…
After generate()ing many different samples, we next want to condense those samples down into a single statistic for each replicated sample. As seen in the diagram, the calculate() function is helpful here.

As we did at the beginning of this chapter, we now want to calculate the mean year for each bootstrap sample. To do so, we use the stat argument and set it to "mean" below. The stat argument has a variety of different options here and we will see further examples of this throughout the remaining chapters.

bootstrap_distribution <- pennies_sample_2 %>% 
  specify(response = year) %>% 
  generate(reps = 1000) %>% 
  calculate(stat = "mean")

Setting `type = "bootstrap"` in `generate()`.

bootstrap_distribution

# A tibble: 1,000 x 2
   replicate  stat
       <int> <dbl>
 1         1 1993.
 2         2 1991.
 3         3 1995.
 4         4 1994.
 5         5 1995.
 6         6 1993.
 7         7 1995.
 8         8 1994.
 9         9 1996.
10        10 1995.
# … with 990 more rows
…
Back to our pennies example

After this elaboration on what the level corresponds to in a confidence interval, let’s conclude by providing an interpretation of the original confidence interval result we found in Subsection 9.5.1.

Interpretation: We are 95% confident that the true mean age of pennies in circulation in 2011 is between 1991.239 and 1999.382 years. This level of confidence is based on the percentile-based method including the true mean 95% of the time if many different samples (not just the one we used) were collected and confidence intervals were created.

9.8 Example: One proportion

Let’s revisit our exercise of trying to estimate the proportion of red balls in the bowl from Chapter 8. We are now interested in determining a confidence interval for population parameter \(p\), the proportion of balls that are red out of the total \(N = 2400\) red and white balls.

We will use the first sample reported from Ilyas and Yohan in Subsection 8.1.3 for our point estimate. They observed 21 red balls out of the 50 in their shovel. This data is stored in the tactile_shovel1 data frame in the moderndive package.

tactile_shovel1

# A tibble: 50 x 1
   color
   <chr>
 1 red  
 2 red  
 3 white
 4 red  
 5 white
 6 red  
 7 red  
 8 white
 9 red  
10 white
# … with 40 more rows
…
FIGURE 9.10: 100 confidence intervals based on 100 virtual samples of size n=50

We see that of our 100 confidence intervals based on samples of size \(n=50\), 96 of them captured the true \(p = 900/2400\), whereas 4 of them missed. As we create more and more confidence intervals based on more and more samples, about 95% of these intervals will capture. In other words our procedure is “95% reliable.”

Theoretical methods like this have largely been used in the past since we didn’t have the computing power to perform the simulation-based methods such as bootstrapping. They are still commonly used though and if the normality assumptions are met, they can provide a nice option for finding confidence intervals and performing hypothesis tests as we will see in Chapter 10.

9.9 Example: Comparing two proportions

If you see someone else yawn, are you more likely to yawn? In an episode of the show Mythbusters, they tested the myth that yawning is contagious. The snippet from the show is available to view in the United States on the Discovery Network website here. More information about the episode is also available on IMDb here.

Fifty adults who thought they were being considered for an appearance on the show were interviewed by a show recruiter (“confederate”) who either yawned or did not. Participants then sat by themselves in a large van and were asked to wait. While in the van, the Mythbusters watched via hidden camera to see if the unaware participants yawned. The data frame containing the results is available at mythbusters_yawn in the moderndive package. Let’s check it out.

mythbusters_yawn

# A tibble: 50 x 3
    subj group   yawn 
   <int> <chr>   <chr>
 1     1 seed    yes  
 2     2 control yes  
 3     3 seed    no   
 4     4 seed    yes  
 5     5 seed    no   
 6     6 control no   
 7     7 seed    yes  
 8     8 control no   
 9     9 control no   
10    10 seed    no   
# … with 40 more rows
…
9.9.1 Compute the point estimate

mythbusters_yawn %>% 
  specify(formula = yawn ~ group)

Error: A level of the response variable `yawn` needs to be specified for the `success` argument in `specify()`.

Note that the success argument must be specified in situations such as this where the response variable has only two levels.

mythbusters_yawn %>% 
  specify(formula = yawn ~ group, success = "yes")

Response: yawn (factor)
Explanatory: group (factor)
# A tibble: 50 x 2
   yawn  group  
   <fct> <fct>  
 1 yes   seed   
 2 yes   control
 3 no    seed   
 4 yes   seed   
 5 no    seed   
 6 no    control
 7 yes   seed   
 8 no    control
 9 no    control
10 no    seed   
# … with 40 more rows
…
