ModernDive
…
We will now focus on building hypotheses looking at the difference between two population means in an example. We will denote population means using the Greek symbol \(\mu\) (pronounced “mu”). Thus, we will be looking to see if one group “out-performs” another group. This is quite possibly the most common type of statistical inference and serves as a basis for many other types of analyses when comparing two groups.

Our null hypothesis will be of the form \(H_0: \mu_1 = \mu_2\), which can also be written as \(H_0: \mu_1 - \mu_2 = 0\). Our alternative hypothesis will be of the form \(H_0: \mu_1 \star \mu_2\) (or \(H_a: \mu_1 - \mu_2 \, \star \, 0\)) where \(\star\) = \(<\), \(\ne\), or \(>\) depending on the context of the problem. You needn’t focus on these new symbols too much at this point. It will just be a shortcut way for us to describe our hypotheses.

As we saw in Chapter ??, simulation and bootstrapping are valuable tools when conducting inferences based on one population variable. We will see that the process of randomization, which is a resampling procedure similar to bootstrapping in some ways, will be valuable in conducting tests comparing quantitative values from two groups.

B.1.1 Comparing Action and Romance Movies

The movies data set in the ggplot2movies package contains information on a large number of movies that have been rated by users of IMDB.com. We are interested in the question here of whether Action movies are rated higher on IMDB than Romance movies. We will first need to do a little bit of data manipulation using the ideas from Chapter ?? to get the data in the form that we would like:

library(dplyr)
library(ggplot2movies)
(movies_trimmed <- movies %>% select(title, year, rating, Action, Romance))

## # A tibble: 58,788 × 5
##                       title  year rating Action Romance
##                       <chr> <int>  <dbl>  <int>   <int>
## 1                         $  1971    6.4      0       0
## 2         $1000 a Touchdown  1939    6.0      0       0
## 3    $21 a Day Once a Month  1941    8.2      0       0
## 4                   $40,000  1996    8.2      0       0
## 5  $50,000 Climax Show, The  1975    3.4      0       0
## 6                     $pent  2000    4.3      0       0
## 7                   $windle  2002    5.3      1       0
## 8                      '15'  2002    6.7      0       0
## 9                       '38  1987    6.6      0       0
## 10                  '49-'17  1917    6.0      0       0
## # ... with 58,778 more rows
…
