An Introduction to Statistical and Data Sciences via R
…
airlines: translation between two letter IATA carrier codes and names (16 in total)

planes: construction information about each of 3,322 planes used

weather: hourly meteorological data (about 8710 observations) for each of the three NYC airports

airports: airport names and locations

2.4.2 flights data frame

We will begin by exploring the flights data frame that is included in the nycflights13 package and getting an idea of its structure. Run the following in your code in your console: it loads in the flights dataset into your Console. Note depending on the size of your monitor, the output may vary slightly.

flights

# A tibble: 336,776 x 19
    year month   day dep_time sched_dep_time dep_delay arr_time sched_arr_time
   <int> <int> <int>    <int>          <int>     <dbl>    <int>          <int>
 1  2013     1     1      517            515         2      830            819
 2  2013     1     1      533            529         4      850            830
 3  2013     1     1      542            540         2      923            850
 4  2013     1     1      544            545        -1     1004           1022
 5  2013     1     1      554            600        -6      812            837
 6  2013     1     1      554            558        -4      740            728
 7  2013     1     1      555            600        -5      913            854
 8  2013     1     1      557            600        -3      709            723
 9  2013     1     1      557            600        -3      838            846
10  2013     1     1      558            600        -2      753            745
# ... with 336,766 more rows, and 11 more variables: arr_delay <dbl>,
#   carrier <chr>, flight <int>, tailnum <chr>, origin <chr>, dest <chr>,
#   air_time <dbl>, distance <dbl>, hour <dbl>, minute <dbl>, time_hour <dttm>
…
Each line in the file corresponds to a row of data/one observation.

Values for each line are separated with commas. In other words, the values of different variables are separated by commas.

The first line is usually a header row indicating the names of the columsn/variables.

As opposed to a barebones CSV file, Excel files contain a lot of metadata, or put more simply, data about the data. Examples include the used of bold and italic fonts, colored cells, different column widths, etc. However, going forward we will only avail ourselves of just the data, and not the metadata, as saved in a CSV file.

There are many ways to read in this data into RStudio. Here are two of the simplest; for the purposes of practice, we suggest you try both. First, we can use the read_csv() function from the readr package to read in the data directly off the web:

dem_score <- read_csv("http://ismayc.github.io/dem_score.csv")
dem_score

# A tibble: 96 x 10
      country `1952` `1957` `1962` `1967` `1972` `1977` `1982` `1987` `1992`
        <chr>  <int>  <int>  <int>  <int>  <int>  <int>  <int>  <int>  <int>
 1    Albania     -9     -9     -9     -9     -9     -9     -9     -9      5
 2  Argentina     -9     -1     -1     -9     -9     -9     -8      8      7
 3    Armenia     -9     -7     -7     -7     -7     -7     -7     -7      7
 4  Australia     10     10     10     10     10     10     10     10     10
 5    Austria     10     10     10     10     10     10     10     10     10
 6 Azerbaijan     -9     -7     -7     -7     -7     -7     -7     -7      1
 7    Belarus     -9     -7     -7     -7     -7     -7     -7     -7      7
 8    Belgium     10     10     10     10     10     10     10     10     10
 9     Bhutan    -10    -10    -10    -10    -10    -10    -10    -10    -10
10    Bolivia     -4     -3     -3     -4     -7     -7      8      9      9
# ... with 86 more rows
…
(LC5.12) What can we say about the distribution of gain? Describe it in a few sentences using the plot and the gain_summary data frame values.

5.7 5MV#5: Reorder the data frame using arrange

One of the most common things people working with data would like to do is sort the data frames by a specific variable in a column. Have you ever been asked to calculate a median by hand? This requires you to put the data in order from smallest to highest in value. The dplyr package has a function called arrange that we will use to sort/reorder our data according to the values of the specified variable. This is often used after we have used the group_by and summarize functions as we will see.

Let’s suppose we were interested in determining the most frequent destination airports from New York City in 2013:

freq_dest <- flights %>% 
  group_by(dest) %>% 
  summarize(num_flights = n())
freq_dest

# A tibble: 105 x 2
    dest num_flights
   <chr>       <int>
 1   ABQ         254
 2   ACK         265
 3   ALB         439
 4   ANC           8
 5   ATL       17215
 6   AUS        2439
 7   AVL         275
 8   BDL         443
 9   BGR         375
10   BHM         297
# ... with 95 more rows

You’ll see that by default the values of dest are displayed in alphabetical order here. We are interested in finding those airports that appear most:

freq_dest %>% arrange(num_flights)

# A tibble: 105 x 2
    dest num_flights
   <chr>       <int>
 1   LEX           1
 2   LGA           1
 3   ANC           8
 4   SBN          10
 5   HDN          15
 6   MTJ          15
 7   EYW          17
 8   PSP          19
 9   JAC          25
10   BZN          36
# ... with 95 more rows

This is actually giving us the opposite of what we are looking for. It tells us the least frequent destination airports first. To switch the ordering to be descending instead of ascending we use the desc (descending) function:

freq_dest %>% arrange(desc(num_flights))

# A tibble: 105 x 2
    dest num_flights
   <chr>       <int>
 1   ORD       17283
 2   ATL       17215
 3   LAX       16174
 4   BOS       15508
 5   MCO       14082
 6   CLT       14064
 7   SFO       13331
 8   FLL       12055
 9   MIA       11728
10   DCA        9705
# ... with 95 more rows
…
Figure 8.5: Bootstrapping diagram from Lock5 textbook

8.2 Relation to hypothesis testing

Recall that we found a statistically significant difference in the sample mean of romance movie ratings compared to the sample mean of action movie ratings. We concluded Chapter ?? by attempting to understand just how much greater we could expect the population mean romance movie rating to be compared to the population mean action movie rating. In order to do so, we will calculate a confidence interval for the difference \(\mu_r - \mu_a\). We’ll then go back to our population parameter values and see if our confidence interval contains our parameter value.

We could use bootstrapping in a way similar to that done above, except now on a difference in sample means, to create a distribution and then use the confint function with the option of quantile to determine a confidence interval for the plausible values of the difference in population means. This is an excellent programming activity and the reader is urged to try to do so.

Recall what the randomization/null distribution looked like for our simulated shuffled sample means:

Note all this code was moved over from hypothesis testing

(movies_trimmed <- movies %>% select(title, year, rating, Action, Romance))

# A tibble: 58,788 x 5
                      title  year rating Action Romance
                      <chr> <int>  <dbl>  <int>   <int>
 1                        $  1971    6.4      0       0
 2        $1000 a Touchdown  1939    6.0      0       0
 3   $21 a Day Once a Month  1941    8.2      0       0
 4                  $40,000  1996    8.2      0       0
 5 $50,000 Climax Show, The  1975    3.4      0       0
 6                    $pent  2000    4.3      0       0
 7                  $windle  2002    5.3      1       0
 8                     '15'  2002    6.7      0       0
 9                      '38  1987    6.6      0       0
10                  '49-'17  1917    6.0      0       0
# ... with 58,778 more rows
…
9.7.1 Randomization/permutation

We will now focus on building hypotheses looking at the difference between two population means in an example. We will denote population means using the Greek symbol \(\mu\) (pronounced “mu”). Thus, we will be looking to see if one group “out-performs” another group. This is quite possibly the most common type of statistical inference and serves as a basis for many other types of analyses when comparing the relationship between two variables.

Our null hypothesis will be of the form \(H_0: \mu_1 = \mu_2\), which can also be written as \(H_0: \mu_1 - \mu_2 = 0\). Our alternative hypothesis will be of the form \(H_0: \mu_1 \star \mu_2\) (or \(H_a: \mu_1 - \mu_2 \, \star \, 0\)) where \(\star\) = \(<\), \(\ne\), or \(>\) depending on the context of the problem. You needn’t focus on these new symbols too much at this point. It will just be a shortcut way for us to describe our hypotheses.

As we saw earlier, simulation is a valuable tool when conducting inferences based on one population variable. We will see that the process of randomization (also known as permutation) will be valuable in conducting tests comparing quantitative values from two groups.

9.7.2 Comparing action and romance movies

The movies dataset in the ggplot2movies package contains information on a large number of movies that have been rated by users of IMDB.com (Wickham 2015). We are interested in the question here of whether Action movies are rated higher on IMDB than Romance movies. We will first need to do a little bit of data wrangling using the ideas from Chapter ?? to get the data in the form that we would like:

(movies_trimmed <- movies %>% select(title, year, rating, Action, Romance))

# A tibble: 58,788 x 5
                      title  year rating Action Romance
                      <chr> <int>  <dbl>  <int>   <int>
 1                        $  1971    6.4      0       0
 2        $1000 a Touchdown  1939    6.0      0       0
 3   $21 a Day Once a Month  1941    8.2      0       0
 4                  $40,000  1996    8.2      0       0
 5 $50,000 Climax Show, The  1975    3.4      0       0
 6                    $pent  2000    4.3      0       0
 7                  $windle  2002    5.3      1       0
 8                     '15'  2002    6.7      0       0
 9                      '38  1987    6.6      0       0
10                  '49-'17  1917    6.0      0       0
# ... with 58,778 more rows
…
10.1.3 Refresher: Residual analysis

Let’s compute the residuals using augment() to see if there is a pattern.

regression_points <- get_regression_points(score_model_3)
regression_points

# A tibble: 463 x 6
      ID score   age gender score_hat residual
   <int> <dbl> <dbl> <fctr>     <dbl>    <dbl>
 1     1   4.7    36 female      4.25    0.448
 2     2   4.1    36 female      4.25   -0.152
 3     3   3.9    36 female      4.25   -0.352
 4     4   4.8    36 female      4.25    0.548
 5     5   4.6    59   male      4.20    0.399
 6     6   4.3    59   male      4.20    0.099
 7     7   2.8    59   male      4.20   -1.401
 8     8   4.1    51   male      4.23   -0.133
 9     9   3.4    51   male      4.23   -0.833
10    10   4.5    40 female      4.18    0.318
# ... with 453 more rows
…
