ModernDive
…
In this book, we will work with work with datasets that are already in tidy format. But data isn’t always in this nice format that the tidyverse gets its name from. Data actually may come to you in a variety of different formats that require data cleaning and reshaping beyond the scope of this book. For a thorough example of the steps needed to take a messy dataset and turn it into a tidy one, check out the different functions available for data tidying and a case study using data from the World Health Organization in R for Data Science (Grolemund and Wickham 2016).

Most frequently though, data that isn’t in long format and is instead in wide format can be converted into “tidy” format by using the tidyr package (Wickham 2017b) in the tidyverse. We’ll now investigate how that can be done using the gather() function in tidyr. Before we proceed with reshaping our data, we will discuss how to read data stored in CSV format into R as a data frame.

4.2 Importing CSVs via readr

Up to this point, we’ve used data either stored inside of an R package or we’ve manually created the data such as the fruits and fruits_counted data in Subsection 3.8. Another common way to get data into R is via reading in data from a spreadsheet either stored on your computer or stored online. For our purposes here, we will work with downloading data stored online.

The readr package includes a read_csv() function that we will use to read in spreadsheet data on a rating of the level of democracy in different countries stored as a CSV file online. It spans the years 1952 to 1992. Check it out!

dem_score <- read_csv("http://ismayc.github.io/dem_score.csv")
dem_score

# A tibble: 96 x 10
      country `1952` `1957` `1962` `1967` `1972` `1977` `1982` `1987` `1992`
        <chr>  <int>  <int>  <int>  <int>  <int>  <int>  <int>  <int>  <int>
 1    Albania     -9     -9     -9     -9     -9     -9     -9     -9      5
 2  Argentina     -9     -1     -1     -9     -9     -9     -8      8      7
 3    Armenia     -9     -7     -7     -7     -7     -7     -7     -7      7
 4  Australia     10     10     10     10     10     10     10     10     10
 5    Austria     10     10     10     10     10     10     10     10     10
 6 Azerbaijan     -9     -7     -7     -7     -7     -7     -7     -7      1
 7    Belarus     -9     -7     -7     -7     -7     -7     -7     -7      7
 8    Belgium     10     10     10     10     10     10     10     10     10
 9     Bhutan    -10    -10    -10    -10    -10    -10    -10    -10    -10
10    Bolivia     -4     -3     -3     -4     -7     -7      8      9      9
# ... with 86 more rows
…
